%!PS-Adobe-3.0 EPSF-3.0
%%Creator: (MATLAB, The Mathworks, Inc. Version 9.8.0.1323502 \(R2020a\). Operating System: Windows 10)
%%Title: C:/Users/magdi/git/eces-ii/CompCspIntRunge.eps
%%CreationDate: 2020-06-09T17:06:28
%%Pages: (atend)
%%BoundingBox:     0     0   420   315
%%LanguageLevel: 3
%%EndComments
%%BeginProlog
%%BeginResource: procset (Apache XML Graphics Std ProcSet) 1.2 0
%%Version: 1.2 0
%%Copyright: (Copyright 2001-2003,2010 The Apache Software Foundation. License terms: http://www.apache.org/licenses/LICENSE-2.0)
/bd{bind def}bind def
/ld{load def}bd
/GR/grestore ld
/GS/gsave ld
/RM/rmoveto ld
/C/curveto ld
/t/show ld
/L/lineto ld
/ML/setmiterlimit ld
/CT/concat ld
/f/fill ld
/N/newpath ld
/S/stroke ld
/CC/setcmykcolor ld
/A/ashow ld
/cp/closepath ld
/RC/setrgbcolor ld
/LJ/setlinejoin ld
/GC/setgray ld
/LW/setlinewidth ld
/M/moveto ld
/re {4 2 roll M
1 index 0 rlineto
0 exch rlineto
neg 0 rlineto
cp } bd
/_ctm matrix def
/_tm matrix def
/BT { _ctm currentmatrix pop matrix _tm copy pop 0 0 moveto } bd
/ET { _ctm setmatrix } bd
/iTm { _ctm setmatrix _tm concat } bd
/Tm { _tm astore pop iTm 0 0 moveto } bd
/ux 0.0 def
/uy 0.0 def
/F {
  /Tp exch def
  /Tf exch def
  Tf findfont Tp scalefont setfont
  /cf Tf def  /cs Tp def
} bd
/ULS {currentpoint /uy exch def /ux exch def} bd
/ULE {
  /Tcx currentpoint pop def
  gsave
  newpath
  cf findfont cs scalefont dup
  /FontMatrix get 0 get /Ts exch def /FontInfo get dup
  /UnderlinePosition get Ts mul /To exch def
  /UnderlineThickness get Ts mul /Tt exch def
  ux uy To add moveto  Tcx uy To add lineto
  Tt setlinewidth stroke
  grestore
} bd
/OLE {
  /Tcx currentpoint pop def
  gsave
  newpath
  cf findfont cs scalefont dup
  /FontMatrix get 0 get /Ts exch def /FontInfo get dup
  /UnderlinePosition get Ts mul /To exch def
  /UnderlineThickness get Ts mul /Tt exch def
  ux uy To add cs add moveto Tcx uy To add cs add lineto
  Tt setlinewidth stroke
  grestore
} bd
/SOE {
  /Tcx currentpoint pop def
  gsave
  newpath
  cf findfont cs scalefont dup
  /FontMatrix get 0 get /Ts exch def /FontInfo get dup
  /UnderlinePosition get Ts mul /To exch def
  /UnderlineThickness get Ts mul /Tt exch def
  ux uy To add cs 10 mul 26 idiv add moveto Tcx uy To add cs 10 mul 26 idiv add lineto
  Tt setlinewidth stroke
  grestore
} bd
/QT {
/Y22 exch store
/X22 exch store
/Y21 exch store
/X21 exch store
currentpoint
/Y21 load 2 mul add 3 div exch
/X21 load 2 mul add 3 div exch
/X21 load 2 mul /X22 load add 3 div
/Y21 load 2 mul /Y22 load add 3 div
/X22 load /Y22 load curveto
} bd
/SSPD {
dup length /d exch dict def
{
/v exch def
/k exch def
currentpagedevice k known {
/cpdv currentpagedevice k get def
v cpdv ne {
/upd false def
/nullv v type /nulltype eq def
/nullcpdv cpdv type /nulltype eq def
nullv nullcpdv or
{
/upd true def
} {
/sametype v type cpdv type eq def
sametype {
v type /arraytype eq {
/vlen v length def
/cpdvlen cpdv length def
vlen cpdvlen eq {
0 1 vlen 1 sub {
/i exch def
/obj v i get def
/cpdobj cpdv i get def
obj cpdobj ne {
/upd true def
exit
} if
} for
} {
/upd true def
} ifelse
} {
v type /dicttype eq {
v {
/dv exch def
/dk exch def
/cpddv cpdv dk get def
dv cpddv ne {
/upd true def
exit
} if
} forall
} {
/upd true def
} ifelse
} ifelse
} if
} ifelse
upd true eq {
d k v put
} if
} if
} if
} forall
d length 0 gt {
d setpagedevice
} if
} bd
/RE { % /NewFontName [NewEncodingArray] /FontName RE -
  findfont dup length dict begin
  {
    1 index /FID ne
    {def} {pop pop} ifelse
  } forall
  /Encoding exch def
  /FontName 1 index def
  currentdict definefont pop
  end
} bind def
%%EndResource
%%BeginResource: procset (Apache XML Graphics EPS ProcSet) 1.0 0
%%Version: 1.0 0
%%Copyright: (Copyright 2002-2003 The Apache Software Foundation. License terms: http://www.apache.org/licenses/LICENSE-2.0)
/BeginEPSF { %def
/b4_Inc_state save def         % Save state for cleanup
/dict_count countdictstack def % Count objects on dict stack
/op_count count 1 sub def      % Count objects on operand stack
userdict begin                 % Push userdict on dict stack
/showpage { } def              % Redefine showpage, { } = null proc
0 setgray 0 setlinecap         % Prepare graphics state
1 setlinewidth 0 setlinejoin
10 setmiterlimit [ ] 0 setdash newpath
/languagelevel where           % If level not equal to 1 then
{pop languagelevel             % set strokeadjust and
1 ne                           % overprint to their defaults.
{false setstrokeadjust false setoverprint
} if
} if
} bd
/EndEPSF { %def
count op_count sub {pop} repeat            % Clean up stacks
countdictstack dict_count sub {end} repeat
b4_Inc_state restore
} bd
%%EndResource
%FOPBeginFontDict
%%IncludeResource: font Courier-Oblique
%%IncludeResource: font Courier-BoldOblique
%%IncludeResource: font Courier-Bold
%%IncludeResource: font ZapfDingbats
%%IncludeResource: font Symbol
%%IncludeResource: font Helvetica
%%IncludeResource: font Helvetica-Oblique
%%IncludeResource: font Helvetica-Bold
%%IncludeResource: font Helvetica-BoldOblique
%%IncludeResource: font Times-Roman
%%IncludeResource: font Times-Italic
%%IncludeResource: font Times-Bold
%%IncludeResource: font Times-BoldItalic
%%IncludeResource: font Courier
%FOPEndFontDict
%%BeginResource: encoding WinAnsiEncoding
/WinAnsiEncoding [
/.notdef /.notdef /.notdef /.notdef /.notdef
/.notdef /.notdef /.notdef /.notdef /.notdef
/.notdef /.notdef /.notdef /.notdef /.notdef
/.notdef /.notdef /.notdef /.notdef /.notdef
/.notdef /.notdef /.notdef /.notdef /.notdef
/.notdef /.notdef /.notdef /.notdef /.notdef
/.notdef /.notdef /space /exclam /quotedbl
/numbersign /dollar /percent /ampersand /quotesingle
/parenleft /parenright /asterisk /plus /comma
/hyphen /period /slash /zero /one
/two /three /four /five /six
/seven /eight /nine /colon /semicolon
/less /equal /greater /question /at
/A /B /C /D /E
/F /G /H /I /J
/K /L /M /N /O
/P /Q /R /S /T
/U /V /W /X /Y
/Z /bracketleft /backslash /bracketright /asciicircum
/underscore /quoteleft /a /b /c
/d /e /f /g /h
/i /j /k /l /m
/n /o /p /q /r
/s /t /u /v /w
/x /y /z /braceleft /bar
/braceright /asciitilde /bullet /Euro /bullet
/quotesinglbase /florin /quotedblbase /ellipsis /dagger
/daggerdbl /circumflex /perthousand /Scaron /guilsinglleft
/OE /bullet /Zcaron /bullet /bullet
/quoteleft /quoteright /quotedblleft /quotedblright /bullet
/endash /emdash /asciitilde /trademark /scaron
/guilsinglright /oe /bullet /zcaron /Ydieresis
/space /exclamdown /cent /sterling /currency
/yen /brokenbar /section /dieresis /copyright
/ordfeminine /guillemotleft /logicalnot /sfthyphen /registered
/macron /degree /plusminus /twosuperior /threesuperior
/acute /mu /paragraph /middot /cedilla
/onesuperior /ordmasculine /guillemotright /onequarter /onehalf
/threequarters /questiondown /Agrave /Aacute /Acircumflex
/Atilde /Adieresis /Aring /AE /Ccedilla
/Egrave /Eacute /Ecircumflex /Edieresis /Igrave
/Iacute /Icircumflex /Idieresis /Eth /Ntilde
/Ograve /Oacute /Ocircumflex /Otilde /Odieresis
/multiply /Oslash /Ugrave /Uacute /Ucircumflex
/Udieresis /Yacute /Thorn /germandbls /agrave
/aacute /acircumflex /atilde /adieresis /aring
/ae /ccedilla /egrave /eacute /ecircumflex
/edieresis /igrave /iacute /icircumflex /idieresis
/eth /ntilde /ograve /oacute /ocircumflex
/otilde /odieresis /divide /oslash /ugrave
/uacute /ucircumflex /udieresis /yacute /thorn
/ydieresis
] def
%%EndResource
%FOPBeginFontReencode
/Courier-Oblique findfont
dup length dict begin
  {1 index /FID ne {def} {pop pop} ifelse} forall
  /Encoding WinAnsiEncoding def
  currentdict
end
/Courier-Oblique exch definefont pop
/Courier-BoldOblique findfont
dup length dict begin
  {1 index /FID ne {def} {pop pop} ifelse} forall
  /Encoding WinAnsiEncoding def
  currentdict
end
/Courier-BoldOblique exch definefont pop
/Courier-Bold findfont
dup length dict begin
  {1 index /FID ne {def} {pop pop} ifelse} forall
  /Encoding WinAnsiEncoding def
  currentdict
end
/Courier-Bold exch definefont pop
/Helvetica findfont
dup length dict begin
  {1 index /FID ne {def} {pop pop} ifelse} forall
  /Encoding WinAnsiEncoding def
  currentdict
end
/Helvetica exch definefont pop
/Helvetica-Oblique findfont
dup length dict begin
  {1 index /FID ne {def} {pop pop} ifelse} forall
  /Encoding WinAnsiEncoding def
  currentdict
end
/Helvetica-Oblique exch definefont pop
/Helvetica-Bold findfont
dup length dict begin
  {1 index /FID ne {def} {pop pop} ifelse} forall
  /Encoding WinAnsiEncoding def
  currentdict
end
/Helvetica-Bold exch definefont pop
/Helvetica-BoldOblique findfont
dup length dict begin
  {1 index /FID ne {def} {pop pop} ifelse} forall
  /Encoding WinAnsiEncoding def
  currentdict
end
/Helvetica-BoldOblique exch definefont pop
/Times-Roman findfont
dup length dict begin
  {1 index /FID ne {def} {pop pop} ifelse} forall
  /Encoding WinAnsiEncoding def
  currentdict
end
/Times-Roman exch definefont pop
/Times-Italic findfont
dup length dict begin
  {1 index /FID ne {def} {pop pop} ifelse} forall
  /Encoding WinAnsiEncoding def
  currentdict
end
/Times-Italic exch definefont pop
/Times-Bold findfont
dup length dict begin
  {1 index /FID ne {def} {pop pop} ifelse} forall
  /Encoding WinAnsiEncoding def
  currentdict
end
/Times-Bold exch definefont pop
/Times-BoldItalic findfont
dup length dict begin
  {1 index /FID ne {def} {pop pop} ifelse} forall
  /Encoding WinAnsiEncoding def
  currentdict
end
/Times-BoldItalic exch definefont pop
/Courier findfont
dup length dict begin
  {1 index /FID ne {def} {pop pop} ifelse} forall
  /Encoding WinAnsiEncoding def
  currentdict
end
/Courier exch definefont pop
%FOPEndFontReencode
%%EndProlog
%%Page: 1 1
%%PageBoundingBox: 0 0 420 315
%%BeginPageSetup
[1 0 0 -1 0 315] CT
%%EndPageSetup
GS
[0.6 0 0 0.6 0 0] CT
1 GC
N
0 0 700 525 re
f
GR
GS
[0.6 0 0 0.6 0 0] CT
1 GC
N
0 0 700 525 re
f
GR
GS
[0.6 0 0 0.6 0 0] CT
1 GC
N
91 467 M
634 467 L
634 39 L
91 39 L
cp
f
GR
GS
[0.6 0 0 0.6 0 0] CT
0.873 GC
1 LJ
0.833 LW
N
91 467 M
91 39 L
S
GR
GS
[0.6 0 0 0.6 0 0] CT
0.873 GC
1 LJ
0.833 LW
N
158.875 467 M
158.875 39 L
S
GR
GS
[0.6 0 0 0.6 0 0] CT
0.873 GC
1 LJ
0.833 LW
N
226.75 467 M
226.75 39 L
S
GR
GS
[0.6 0 0 0.6 0 0] CT
0.873 GC
1 LJ
0.833 LW
N
294.625 467 M
294.625 39 L
S
GR
GS
[0.6 0 0 0.6 0 0] CT
0.873 GC
1 LJ
0.833 LW
N
362.5 467 M
362.5 39 L
S
GR
GS
[0.6 0 0 0.6 0 0] CT
0.873 GC
1 LJ
0.833 LW
N
430.375 467 M
430.375 39 L
S
GR
GS
[0.6 0 0 0.6 0 0] CT
0.873 GC
1 LJ
0.833 LW
N
498.25 467 M
498.25 39 L
S
GR
GS
[0.6 0 0 0.6 0 0] CT
0.873 GC
1 LJ
0.833 LW
N
566.125 467 M
566.125 39 L
S
GR
GS
[0.6 0 0 0.6 0 0] CT
0.873 GC
1 LJ
0.833 LW
N
634 467 M
634 39 L
S
GR
GS
[0.6 0 0 0.6 0 0] CT
0.873 GC
1 LJ
0.833 LW
N
634 467 M
91 467 L
S
GR
GS
[0.6 0 0 0.6 0 0] CT
0.873 GC
1 LJ
0.833 LW
N
634 405.857 M
91 405.857 L
S
GR
GS
[0.6 0 0 0.6 0 0] CT
0.873 GC
1 LJ
0.833 LW
N
634 344.714 M
91 344.714 L
S
GR
GS
[0.6 0 0 0.6 0 0] CT
0.873 GC
1 LJ
0.833 LW
N
634 283.571 M
91 283.571 L
S
GR
GS
[0.6 0 0 0.6 0 0] CT
0.873 GC
1 LJ
0.833 LW
N
634 222.429 M
91 222.429 L
S
GR
GS
[0.6 0 0 0.6 0 0] CT
0.873 GC
1 LJ
0.833 LW
N
634 161.286 M
91 161.286 L
S
GR
GS
[0.6 0 0 0.6 0 0] CT
0.873 GC
1 LJ
0.833 LW
N
634 100.143 M
91 100.143 L
S
GR
GS
[0.6 0 0 0.6 0 0] CT
0.873 GC
1 LJ
0.833 LW
N
634 39 M
91 39 L
S
GR
GS
[0.6 0 0 0.6 0 0] CT
0.149 GC
2 setlinecap
1 LJ
0.833 LW
N
91 467 M
634 467 L
S
GR
GS
[0.6 0 0 0.6 0 0] CT
0.149 GC
2 setlinecap
1 LJ
0.833 LW
N
91 467 M
91 461.57 L
S
GR
GS
[0.6 0 0 0.6 0 0] CT
0.149 GC
2 setlinecap
1 LJ
0.833 LW
N
158.875 467 M
158.875 461.57 L
S
GR
GS
[0.6 0 0 0.6 0 0] CT
0.149 GC
2 setlinecap
1 LJ
0.833 LW
N
226.75 467 M
226.75 461.57 L
S
GR
GS
[0.6 0 0 0.6 0 0] CT
0.149 GC
2 setlinecap
1 LJ
0.833 LW
N
294.625 467 M
294.625 461.57 L
S
GR
GS
[0.6 0 0 0.6 0 0] CT
0.149 GC
2 setlinecap
1 LJ
0.833 LW
N
362.5 467 M
362.5 461.57 L
S
GR
GS
[0.6 0 0 0.6 0 0] CT
0.149 GC
2 setlinecap
1 LJ
0.833 LW
N
430.375 467 M
430.375 461.57 L
S
GR
GS
[0.6 0 0 0.6 0 0] CT
0.149 GC
2 setlinecap
1 LJ
0.833 LW
N
498.25 467 M
498.25 461.57 L
S
GR
GS
[0.6 0 0 0.6 0 0] CT
0.149 GC
2 setlinecap
1 LJ
0.833 LW
N
566.125 467 M
566.125 461.57 L
S
GR
GS
[0.6 0 0 0.6 0 0] CT
0.149 GC
2 setlinecap
1 LJ
0.833 LW
N
634 467 M
634 461.57 L
S
GR
GS
[0.6 0 0 0.6 54.6 284.19999] CT
0.149 GC
/Helvetica 16.667 F
GS
[1 0 0 1 0 0] CT
-7.5 17 moveto 
1 -1 scale
(-2) t 
GR
GR
GS
[0.6 0 0 0.6 95.325 284.19999] CT
0.149 GC
/Helvetica 16.667 F
GS
[1 0 0 1 0 0] CT
-14.5 17 moveto 
1 -1 scale
(-1.5) t 
GR
GR
GS
[0.6 0 0 0.6 136.05 284.19999] CT
0.149 GC
/Helvetica 16.667 F
GS
[1 0 0 1 0 0] CT
-7.5 17 moveto 
1 -1 scale
(-1) t 
GR
GR
GS
[0.6 0 0 0.6 176.775 284.19999] CT
0.149 GC
/Helvetica 16.667 F
GS
[1 0 0 1 0 0] CT
-14.5 17 moveto 
1 -1 scale
(-0.5) t 
GR
GR
GS
[0.6 0 0 0.6 217.5 284.19999] CT
0.149 GC
/Helvetica 16.667 F
GS
[1 0 0 1 0 0] CT
-5 17 moveto 
1 -1 scale
(0) t 
GR
GR
GS
[0.6 0 0 0.6 258.225 284.19999] CT
0.149 GC
/Helvetica 16.667 F
GS
[1 0 0 1 0 0] CT
-12 17 moveto 
1 -1 scale
(0.5) t 
GR
GR
GS
[0.6 0 0 0.6 298.95 284.19999] CT
0.149 GC
/Helvetica 16.667 F
GS
[1 0 0 1 0 0] CT
-5 17 moveto 
1 -1 scale
(1) t 
GR
GR
GS
[0.6 0 0 0.6 339.675 284.19999] CT
0.149 GC
/Helvetica 16.667 F
GS
[1 0 0 1 0 0] CT
-12 17 moveto 
1 -1 scale
(1.5) t 
GR
GR
GS
[0.6 0 0 0.6 380.4 284.19999] CT
0.149 GC
/Helvetica 16.667 F
GS
[1 0 0 1 0 0] CT
-5 17 moveto 
1 -1 scale
(2) t 
GR
GR
GS
[0.6 0 0 0.6 217.50015 297.80001] CT
0.149 GC
/Helvetica 18.333 F
GS
[1 0 0 1 0 0] CT
-5 19 moveto 
1 -1 scale
(x) t 
GR
GR
GS
[0.6 0 0 0.6 0 0] CT
0.149 GC
2 setlinecap
1 LJ
0.833 LW
N
91 467 M
91 39 L
S
GR
GS
[0.6 0 0 0.6 0 0] CT
0.149 GC
2 setlinecap
1 LJ
0.833 LW
N
91 467 M
96.43 467 L
S
GR
GS
[0.6 0 0 0.6 0 0] CT
0.149 GC
2 setlinecap
1 LJ
0.833 LW
N
91 405.857 M
96.43 405.857 L
S
GR
GS
[0.6 0 0 0.6 0 0] CT
0.149 GC
2 setlinecap
1 LJ
0.833 LW
N
91 344.714 M
96.43 344.714 L
S
GR
GS
[0.6 0 0 0.6 0 0] CT
0.149 GC
2 setlinecap
1 LJ
0.833 LW
N
91 283.571 M
96.43 283.571 L
S
GR
GS
[0.6 0 0 0.6 0 0] CT
0.149 GC
2 setlinecap
1 LJ
0.833 LW
N
91 222.429 M
96.43 222.429 L
S
GR
GS
[0.6 0 0 0.6 0 0] CT
0.149 GC
2 setlinecap
1 LJ
0.833 LW
N
91 161.286 M
96.43 161.286 L
S
GR
GS
[0.6 0 0 0.6 0 0] CT
0.149 GC
2 setlinecap
1 LJ
0.833 LW
N
91 100.143 M
96.43 100.143 L
S
GR
GS
[0.6 0 0 0.6 0 0] CT
0.149 GC
2 setlinecap
1 LJ
0.833 LW
N
91 39 M
96.43 39 L
S
GR
GS
[0.6 0 0 0.6 50.6 280.2] CT
0.149 GC
/Helvetica 16.667 F
GS
[1 0 0 1 0 0] CT
-29 6.5 moveto 
1 -1 scale
(-0.5) t 
GR
GR
GS
[0.6 0 0 0.6 50.6 243.51429] CT
0.149 GC
/Helvetica 16.667 F
GS
[1 0 0 1 0 0] CT
-10 6.5 moveto 
1 -1 scale
(0) t 
GR
GR
GS
[0.6 0 0 0.6 50.6 206.82858] CT
0.149 GC
/Helvetica 16.667 F
GS
[1 0 0 1 0 0] CT
-24 6.5 moveto 
1 -1 scale
(0.5) t 
GR
GR
GS
[0.6 0 0 0.6 50.6 170.14286] CT
0.149 GC
/Helvetica 16.667 F
GS
[1 0 0 1 0 0] CT
-10 6.5 moveto 
1 -1 scale
(1) t 
GR
GR
GS
[0.6 0 0 0.6 50.6 133.45714] CT
0.149 GC
/Helvetica 16.667 F
GS
[1 0 0 1 0 0] CT
-24 6.5 moveto 
1 -1 scale
(1.5) t 
GR
GR
GS
[0.6 0 0 0.6 50.6 96.77143] CT
0.149 GC
/Helvetica 16.667 F
GS
[1 0 0 1 0 0] CT
-10 6.5 moveto 
1 -1 scale
(2) t 
GR
GR
GS
[0.6 0 0 0.6 50.6 60.08572] CT
0.149 GC
/Helvetica 16.667 F
GS
[1 0 0 1 0 0] CT
-24 6.5 moveto 
1 -1 scale
(2.5) t 
GR
GR
GS
[0.6 0 0 0.6 50.6 23.4] CT
0.149 GC
/Helvetica 16.667 F
GS
[1 0 0 1 0 0] CT
-10 6.5 moveto 
1 -1 scale
(3) t 
GR
GR
GS
[0 -0.6 0.6 0 30.2 151.79988] CT
0.149 GC
/Helvetica 18.333 F
GS
[1 0 0 1 0 0] CT
-5 -5 moveto 
1 -1 scale
(y) t 
GR
GR
GS
[0.6 0 0 0.6 0 0] CT
0 1 0 RC
1 LJ
3.333 LW
N
91 402.875 M
93.715 402.816 L
96.43 402.755 L
99.145 402.692 L
101.86 402.628 L
104.575 402.561 L
107.29 402.492 L
110.005 402.422 L
112.72 402.349 L
115.435 402.274 L
118.15 402.196 L
120.865 402.116 L
123.58 402.033 L
126.295 401.947 L
129.01 401.859 L
131.725 401.767 L
134.44 401.673 L
137.155 401.575 L
139.87 401.474 L
142.585 401.369 L
145.3 401.26 L
148.015 401.147 L
150.73 401.031 L
153.445 400.91 L
156.16 400.784 L
158.875 400.654 L
161.59 400.518 L
164.305 400.377 L
167.02 400.231 L
169.735 400.079 L
172.45 399.921 L
175.165 399.756 L
177.88 399.585 L
180.595 399.406 L
183.31 399.22 L
186.025 399.026 L
188.74 398.823 L
191.455 398.611 L
194.17 398.39 L
196.885 398.158 L
199.6 397.917 L
202.315 397.663 L
205.03 397.398 L
207.745 397.12 L
210.46 396.828 L
213.175 396.522 L
215.89 396.201 L
218.605 395.863 L
221.32 395.508 L
224.035 395.134 L
226.75 394.74 L
229.465 394.325 L
232.18 393.887 L
234.895 393.425 L
237.61 392.936 L
240.325 392.419 L
243.04 391.872 L
245.755 391.292 L
248.47 390.678 L
251.185 390.025 L
253.9 389.332 L
256.615 388.595 L
259.33 387.81 L
262.045 386.974 L
264.76 386.083 L
267.475 385.131 L
270.19 384.114 L
272.905 383.026 L
275.62 381.861 L
278.335 380.612 L
281.05 379.273 L
283.765 377.836 L
286.48 376.291 L
289.195 374.63 L
291.91 372.843 L
294.625 370.918 L
297.34 368.846 L
300.055 366.613 L
302.77 364.207 L
305.485 361.615 L
308.2 358.824 L
310.915 355.822 L
313.63 352.597 L
316.345 349.138 L
319.06 345.439 L
321.775 341.496 L
324.49 337.311 L
327.205 332.894 L
329.92 328.265 L
332.635 323.454 L
335.35 318.51 L
338.065 313.496 L
340.78 308.496 L
343.495 303.612 L
346.21 298.964 L
348.925 294.688 L
351.64 290.927 L
354.355 287.821 L
357.07 285.497 L
359.785 284.059 L
362.5 283.571 L
365.215 284.059 L
367.93 285.497 L
370.645 287.821 L
373.36 290.927 L
376.075 294.688 L
378.79 298.964 L
381.505 303.612 L
384.22 308.496 L
386.935 313.496 L
389.65 318.51 L
392.365 323.454 L
395.08 328.265 L
397.795 332.894 L
400.51 337.311 L
403.225 341.496 L
405.94 345.439 L
408.655 349.138 L
411.37 352.597 L
414.085 355.822 L
416.8 358.824 L
419.515 361.615 L
422.23 364.207 L
424.945 366.613 L
427.66 368.846 L
430.375 370.918 L
433.09 372.843 L
435.805 374.63 L
438.52 376.291 L
441.235 377.836 L
443.95 379.273 L
446.665 380.612 L
449.38 381.861 L
452.095 383.026 L
454.81 384.114 L
457.525 385.131 L
460.24 386.083 L
462.955 386.974 L
465.67 387.81 L
468.385 388.595 L
471.1 389.332 L
473.815 390.025 L
476.53 390.678 L
479.245 391.292 L
481.96 391.872 L
484.675 392.419 L
487.39 392.936 L
490.105 393.425 L
492.82 393.887 L
495.535 394.325 L
498.25 394.74 L
500.965 395.134 L
503.68 395.508 L
506.395 395.863 L
509.11 396.201 L
511.825 396.522 L
514.54 396.828 L
517.255 397.12 L
519.97 397.398 L
522.685 397.663 L
525.4 397.917 L
528.115 398.158 L
530.83 398.39 L
533.545 398.611 L
536.26 398.823 L
538.975 399.026 L
541.69 399.22 L
544.405 399.406 L
547.12 399.585 L
549.835 399.756 L
552.55 399.921 L
555.265 400.079 L
557.98 400.231 L
560.695 400.377 L
563.41 400.518 L
566.125 400.654 L
568.84 400.784 L
571.555 400.91 L
574.27 401.031 L
576.985 401.147 L
579.7 401.26 L
582.415 401.369 L
585.13 401.474 L
587.845 401.575 L
590.56 401.673 L
593.275 401.767 L
595.99 401.859 L
598.705 401.947 L
601.42 402.033 L
604.135 402.116 L
606.85 402.196 L
609.565 402.274 L
612.28 402.349 L
614.995 402.422 L
617.71 402.492 L
620.425 402.561 L
623.14 402.628 L
625.855 402.692 L
628.57 402.755 L
631.285 402.816 L
634 402.875 L
S
GR
GS
[0.6 0 0 0.6 54.6 241.72474] CT
1 0 0 RC
10.0 ML
0.833 LW
N
0 -5 M
0 5 L
-5 0 M
5 0 L
-3.536 -3.536 M
3.536 3.536 L
-3.536 3.536 M
3.536 -3.536 L
S
GR
GS
[0.6 0 0 0.6 87.18 240.75597] CT
1 0 0 RC
10.0 ML
0.833 LW
N
0 -5 M
0 5 L
-5 0 M
5 0 L
-3.536 -3.536 M
3.536 3.536 L
-3.536 3.536 M
3.536 -3.536 L
S
GR
GS
[0.6 0 0 0.6 119.75999 238.7499] CT
1 0 0 RC
10.0 ML
0.833 LW
N
0 -5 M
0 5 L
-5 0 M
5 0 L
-3.536 -3.536 M
3.536 3.536 L
-3.536 3.536 M
3.536 -3.536 L
S
GR
GS
[0.6 0 0 0.6 152.34 233.59924] CT
1 0 0 RC
10.0 ML
0.833 LW
N
0 -5 M
0 5 L
-5 0 M
5 0 L
-3.536 -3.536 M
3.536 3.536 L
-3.536 3.536 M
3.536 -3.536 L
S
GR
GS
[0.6 0 0 0.6 184.92001 215.29451] CT
1 0 0 RC
10.0 ML
0.833 LW
N
0 -5 M
0 5 L
-5 0 M
5 0 L
-3.536 -3.536 M
3.536 3.536 L
-3.536 3.536 M
3.536 -3.536 L
S
GR
GS
[0.6 0 0 0.6 217.5 170.14286] CT
1 0 0 RC
10.0 ML
0.833 LW
N
0 -5 M
0 5 L
-5 0 M
5 0 L
-3.536 -3.536 M
3.536 3.536 L
-3.536 3.536 M
3.536 -3.536 L
S
GR
GS
[0.6 0 0 0.6 250.07999 215.29451] CT
1 0 0 RC
10.0 ML
0.833 LW
N
0 -5 M
0 5 L
-5 0 M
5 0 L
-3.536 -3.536 M
3.536 3.536 L
-3.536 3.536 M
3.536 -3.536 L
S
GR
GS
[0.6 0 0 0.6 282.66 233.59924] CT
1 0 0 RC
10.0 ML
0.833 LW
N
0 -5 M
0 5 L
-5 0 M
5 0 L
-3.536 -3.536 M
3.536 3.536 L
-3.536 3.536 M
3.536 -3.536 L
S
GR
GS
[0.6 0 0 0.6 315.24001 238.7499] CT
1 0 0 RC
10.0 ML
0.833 LW
N
0 -5 M
0 5 L
-5 0 M
5 0 L
-3.536 -3.536 M
3.536 3.536 L
-3.536 3.536 M
3.536 -3.536 L
S
GR
GS
[0.6 0 0 0.6 347.82001 240.75597] CT
1 0 0 RC
10.0 ML
0.833 LW
N
0 -5 M
0 5 L
-5 0 M
5 0 L
-3.536 -3.536 M
3.536 3.536 L
-3.536 3.536 M
3.536 -3.536 L
S
GR
GS
[0.6 0 0 0.6 380.4 241.72474] CT
1 0 0 RC
10.0 ML
0.833 LW
N
0 -5 M
0 5 L
-5 0 M
5 0 L
-3.536 -3.536 M
3.536 3.536 L
-3.536 3.536 M
3.536 -3.536 L
S
GR
GS
[0.6 0 0 0.6 0 0] CT
0 0 1 RC
1 LJ
3.333 LW
N
91 402.875 M
93.715 280.549 L
96.43 190.803 L
99.145 128.359 L
101.86 88.552 L
104.575 67.282 L
107.29 60.96 L
110.005 66.461 L
112.72 81.083 L
115.435 102.5 L
118.15 128.731 L
120.865 158.1 L
123.58 189.205 L
126.295 220.891 L
129.01 252.217 L
131.725 282.434 L
134.44 310.96 L
137.155 337.361 L
139.87 361.329 L
142.585 382.663 L
145.3 401.26 L
148.015 417.09 L
150.73 430.191 L
153.445 440.654 L
156.16 448.611 L
158.875 454.228 L
161.59 457.696 L
164.305 459.224 L
167.02 459.029 L
169.735 457.337 L
172.45 454.372 L
175.165 450.354 L
177.88 445.497 L
180.595 440.004 L
183.31 434.068 L
186.025 427.864 L
188.74 421.555 L
191.455 415.286 L
194.17 409.186 L
196.885 403.364 L
199.6 397.917 L
202.315 392.919 L
205.03 388.431 L
207.745 384.498 L
210.46 381.149 L
213.175 378.399 L
215.89 376.251 L
218.605 374.694 L
221.32 373.708 L
224.035 373.262 L
226.75 373.318 L
229.465 373.829 L
232.18 374.744 L
234.895 376.006 L
237.61 377.555 L
240.325 379.329 L
243.04 381.262 L
245.755 383.293 L
248.47 385.355 L
251.185 387.388 L
253.9 389.332 L
256.615 391.13 L
259.33 392.729 L
262.045 394.08 L
264.76 395.139 L
267.475 395.869 L
270.19 396.236 L
272.905 396.212 L
275.62 395.777 L
278.335 394.915 L
281.05 393.617 L
283.765 391.881 L
286.48 389.709 L
289.195 387.111 L
291.91 384.101 L
294.625 380.699 L
297.34 376.929 L
300.055 372.821 L
302.77 368.409 L
305.485 363.73 L
308.2 358.824 L
310.915 353.736 L
313.63 348.511 L
316.345 343.197 L
319.06 337.843 L
321.775 332.498 L
324.49 327.213 L
327.205 322.035 L
329.92 317.015 L
332.635 312.2 L
335.35 307.634 L
338.065 303.361 L
340.78 299.422 L
343.495 295.853 L
346.21 292.688 L
348.925 289.958 L
351.64 287.688 L
354.355 285.9 L
357.07 284.61 L
359.785 283.832 L
362.5 283.571 L
365.215 283.832 L
367.93 284.61 L
370.645 285.9 L
373.36 287.688 L
376.075 289.958 L
378.79 292.688 L
381.505 295.853 L
384.22 299.422 L
386.935 303.361 L
389.65 307.634 L
392.365 312.2 L
395.08 317.015 L
397.795 322.035 L
400.51 327.213 L
403.225 332.498 L
405.94 337.843 L
408.655 343.197 L
411.37 348.511 L
414.085 353.736 L
416.8 358.824 L
419.515 363.73 L
422.23 368.409 L
424.945 372.821 L
427.66 376.929 L
430.375 380.699 L
433.09 384.101 L
435.805 387.111 L
438.52 389.709 L
441.235 391.881 L
443.95 393.617 L
446.665 394.915 L
449.38 395.777 L
452.095 396.212 L
454.81 396.236 L
457.525 395.869 L
460.24 395.139 L
462.955 394.08 L
465.67 392.729 L
468.385 391.13 L
471.1 389.332 L
473.815 387.388 L
476.53 385.355 L
479.245 383.293 L
481.96 381.262 L
484.675 379.329 L
487.39 377.555 L
490.105 376.006 L
492.82 374.744 L
495.535 373.829 L
498.25 373.318 L
500.965 373.262 L
503.68 373.708 L
506.395 374.694 L
509.11 376.251 L
511.825 378.399 L
514.54 381.149 L
517.255 384.498 L
519.97 388.431 L
522.685 392.919 L
525.4 397.917 L
528.115 403.364 L
530.83 409.186 L
533.545 415.286 L
536.26 421.555 L
538.975 427.864 L
541.69 434.068 L
544.405 440.004 L
547.12 445.497 L
549.835 450.354 L
552.55 454.372 L
555.265 457.337 L
557.98 459.029 L
560.695 459.224 L
563.41 457.696 L
566.125 454.228 L
568.84 448.611 L
571.555 440.654 L
574.27 430.191 L
576.985 417.09 L
579.7 401.26 L
582.415 382.663 L
585.13 361.329 L
587.845 337.361 L
590.56 310.96 L
593.275 282.434 L
595.99 252.217 L
598.705 220.891 L
601.42 189.205 L
604.135 158.1 L
606.85 128.731 L
609.565 102.5 L
612.28 81.083 L
614.995 66.461 L
617.71 60.96 L
620.425 67.282 L
623.14 88.552 L
625.855 128.359 L
628.57 190.803 L
631.285 280.549 L
634 402.875 L
S
GR
GS
[0.6 0 0 0.6 0 0] CT
1 0 0 RC
1 LJ
3.333 LW
N
91 402.875 M
93.715 402.728 L
96.43 402.593 L
99.145 402.47 L
101.86 402.357 L
104.575 402.254 L
107.29 402.159 L
110.005 402.072 L
112.72 401.992 L
115.435 401.919 L
118.15 401.85 L
120.865 401.786 L
123.58 401.725 L
126.295 401.667 L
129.01 401.61 L
131.725 401.555 L
134.44 401.499 L
137.155 401.443 L
139.87 401.385 L
142.585 401.324 L
145.3 401.26 L
148.015 401.191 L
150.73 401.118 L
153.445 401.038 L
156.16 400.951 L
158.875 400.857 L
161.59 400.754 L
164.305 400.641 L
167.02 400.518 L
169.735 400.384 L
172.45 400.238 L
175.165 400.078 L
177.88 399.905 L
180.595 399.717 L
183.31 399.514 L
186.025 399.294 L
188.74 399.056 L
191.455 398.801 L
194.17 398.526 L
196.885 398.232 L
199.6 397.917 L
202.315 397.58 L
205.03 397.224 L
207.745 396.849 L
210.46 396.458 L
213.175 396.051 L
215.89 395.632 L
218.605 395.201 L
221.32 394.761 L
224.035 394.312 L
226.75 393.857 L
229.465 393.398 L
232.18 392.935 L
234.895 392.471 L
237.61 392.008 L
240.325 391.547 L
243.04 391.089 L
245.755 390.637 L
248.47 390.193 L
251.185 389.757 L
253.9 389.332 L
256.615 388.916 L
259.33 388.494 L
262.045 388.047 L
264.76 387.557 L
267.475 387.006 L
270.19 386.375 L
272.905 385.646 L
275.62 384.8 L
278.335 383.818 L
281.05 382.683 L
283.765 381.376 L
286.48 379.879 L
289.195 378.172 L
291.91 376.238 L
294.625 374.058 L
297.34 371.613 L
300.055 368.886 L
302.77 365.858 L
305.485 362.51 L
308.2 358.824 L
310.915 354.794 L
313.63 350.462 L
316.345 345.883 L
319.06 341.113 L
321.775 336.206 L
324.49 331.218 L
327.205 326.202 L
329.92 321.215 L
332.635 316.311 L
335.35 311.545 L
338.065 306.972 L
340.78 302.647 L
343.495 298.625 L
346.21 294.961 L
348.925 291.71 L
351.64 288.927 L
354.355 286.666 L
357.07 284.983 L
359.785 283.934 L
362.5 283.571 L
365.215 283.934 L
367.93 284.983 L
370.645 286.666 L
373.36 288.927 L
376.075 291.71 L
378.79 294.961 L
381.505 298.625 L
384.22 302.647 L
386.935 306.972 L
389.65 311.545 L
392.365 316.311 L
395.08 321.215 L
397.795 326.202 L
400.51 331.218 L
403.225 336.206 L
405.94 341.113 L
408.655 345.883 L
411.37 350.462 L
414.085 354.794 L
416.8 358.824 L
419.515 362.51 L
422.23 365.858 L
424.945 368.886 L
427.66 371.613 L
430.375 374.058 L
433.09 376.238 L
435.805 378.172 L
438.52 379.879 L
441.235 381.376 L
443.95 382.683 L
446.665 383.818 L
449.38 384.8 L
452.095 385.646 L
454.81 386.375 L
457.525 387.006 L
460.24 387.557 L
462.955 388.047 L
465.67 388.494 L
468.385 388.916 L
471.1 389.332 L
473.815 389.757 L
476.53 390.193 L
479.245 390.637 L
481.96 391.089 L
484.675 391.547 L
487.39 392.008 L
490.105 392.471 L
492.82 392.935 L
495.535 393.398 L
498.25 393.857 L
500.965 394.312 L
503.68 394.761 L
506.395 395.201 L
509.11 395.632 L
511.825 396.051 L
514.54 396.458 L
517.255 396.849 L
519.97 397.224 L
522.685 397.58 L
525.4 397.917 L
528.115 398.232 L
530.83 398.526 L
533.545 398.801 L
536.26 399.056 L
538.975 399.294 L
541.69 399.514 L
544.405 399.717 L
547.12 399.905 L
549.835 400.078 L
552.55 400.238 L
555.265 400.384 L
557.98 400.518 L
560.695 400.641 L
563.41 400.754 L
566.125 400.857 L
568.84 400.951 L
571.555 401.038 L
574.27 401.118 L
576.985 401.191 L
579.7 401.26 L
582.415 401.324 L
585.13 401.385 L
587.845 401.443 L
590.56 401.499 L
593.275 401.555 L
595.99 401.61 L
598.705 401.667 L
601.42 401.725 L
604.135 401.786 L
606.85 401.85 L
609.565 401.919 L
612.28 401.992 L
614.995 402.072 L
617.71 402.159 L
620.425 402.254 L
623.14 402.357 L
625.855 402.47 L
628.57 402.593 L
631.285 402.728 L
634 402.875 L
S
GR
GS
[0.6 0 0 0.6 0 0] CT
1 GC
N
621 139 M
621 52 L
410 52 L
410 139 L
cp
f
GR
GS
[0.6 0 0 0.6 281.29182 38.71079] CT
/Helvetica 15 F
GS
[1 0 0 1 0 0] CT
0 6 moveto 
1 -1 scale
(Funktion) t 
GR
GR
GS
[0.6 0 0 0.6 0 0] CT
0 1 0 RC
1 LJ
3.333 LW
N
415.006 64.518 M
465.065 64.518 L
S
GR
GS
[0.6 0 0 0.6 281.29182 51.1036] CT
/Helvetica 15 F
GS
[1 0 0 1 0 0] CT
0 6 moveto 
1 -1 scale
(Datenpunkte) t 
GR
GR
GS
[0.6 0 0 0.6 264.02135 51.1036] CT
1 0 0 RC
10.0 ML
0.833 LW
N
0 -5 M
0 5 L
-5 0 M
5 0 L
-3.536 -3.536 M
3.536 3.536 L
-3.536 3.536 M
3.536 -3.536 L
S
GR
GS
[0.6 0 0 0.6 281.29182 63.4964] CT
/Helvetica 15 F
GS
[1 0 0 1 0 0] CT
0 6 moveto 
1 -1 scale
(Kubischer Spline) t 
GR
GR
GS
[0.6 0 0 0.6 0 0] CT
1 0 0 RC
1 LJ
3.333 LW
N
415.006 105.827 M
465.065 105.827 L
S
GR
GS
[0.6 0 0 0.6 281.29182 75.88921] CT
/Helvetica 15 F
GS
[1 0 0 1 0 0] CT
0 6 moveto 
1 -1 scale
(Interpolationspolynom) t 
GR
GR
GS
[0.6 0 0 0.6 0 0] CT
0 0 1 RC
1 LJ
3.333 LW
N
415.006 126.482 M
465.065 126.482 L
S
GR
GS
[0.6 0 0 0.6 0 0] CT
0.149 GC
10.0 ML
0.833 LW
N
410 139 M
410 52 L
621 52 L
621 139 L
cp
S
GR
%%Trailer
%%Pages: 1
%%EOF
