%!PS-Adobe-3.0 EPSF-3.0
%%Creator: (MATLAB, The Mathworks, Inc. Version 9.8.0.1359463 \(R2020a\) Update 1. Operating System: Windows 10)
%%Title: (C:/Users/simon/OneDrive/Dokumente/MATLAB/Examples/R2020a/matlab/Ohmsches Gesetz/linHochVierVerl\344ngert.eps)
%%CreationDate: 2020-06-25T16:01:52
%%Pages: (atend)
%%BoundingBox:     0     0   420   315
%%LanguageLevel: 3
%%EndComments
%%BeginProlog
%%BeginResource: procset (Apache XML Graphics Std ProcSet) 1.2 0
%%Version: 1.2 0
%%Copyright: (Copyright 2001-2003,2010 The Apache Software Foundation. License terms: http://www.apache.org/licenses/LICENSE-2.0)
/bd{bind def}bind def
/ld{load def}bd
/GR/grestore ld
/GS/gsave ld
/RM/rmoveto ld
/C/curveto ld
/t/show ld
/L/lineto ld
/ML/setmiterlimit ld
/CT/concat ld
/f/fill ld
/N/newpath ld
/S/stroke ld
/CC/setcmykcolor ld
/A/ashow ld
/cp/closepath ld
/RC/setrgbcolor ld
/LJ/setlinejoin ld
/GC/setgray ld
/LW/setlinewidth ld
/M/moveto ld
/re {4 2 roll M
1 index 0 rlineto
0 exch rlineto
neg 0 rlineto
cp } bd
/_ctm matrix def
/_tm matrix def
/BT { _ctm currentmatrix pop matrix _tm copy pop 0 0 moveto } bd
/ET { _ctm setmatrix } bd
/iTm { _ctm setmatrix _tm concat } bd
/Tm { _tm astore pop iTm 0 0 moveto } bd
/ux 0.0 def
/uy 0.0 def
/F {
  /Tp exch def
  /Tf exch def
  Tf findfont Tp scalefont setfont
  /cf Tf def  /cs Tp def
} bd
/ULS {currentpoint /uy exch def /ux exch def} bd
/ULE {
  /Tcx currentpoint pop def
  gsave
  newpath
  cf findfont cs scalefont dup
  /FontMatrix get 0 get /Ts exch def /FontInfo get dup
  /UnderlinePosition get Ts mul /To exch def
  /UnderlineThickness get Ts mul /Tt exch def
  ux uy To add moveto  Tcx uy To add lineto
  Tt setlinewidth stroke
  grestore
} bd
/OLE {
  /Tcx currentpoint pop def
  gsave
  newpath
  cf findfont cs scalefont dup
  /FontMatrix get 0 get /Ts exch def /FontInfo get dup
  /UnderlinePosition get Ts mul /To exch def
  /UnderlineThickness get Ts mul /Tt exch def
  ux uy To add cs add moveto Tcx uy To add cs add lineto
  Tt setlinewidth stroke
  grestore
} bd
/SOE {
  /Tcx currentpoint pop def
  gsave
  newpath
  cf findfont cs scalefont dup
  /FontMatrix get 0 get /Ts exch def /FontInfo get dup
  /UnderlinePosition get Ts mul /To exch def
  /UnderlineThickness get Ts mul /Tt exch def
  ux uy To add cs 10 mul 26 idiv add moveto Tcx uy To add cs 10 mul 26 idiv add lineto
  Tt setlinewidth stroke
  grestore
} bd
/QT {
/Y22 exch store
/X22 exch store
/Y21 exch store
/X21 exch store
currentpoint
/Y21 load 2 mul add 3 div exch
/X21 load 2 mul add 3 div exch
/X21 load 2 mul /X22 load add 3 div
/Y21 load 2 mul /Y22 load add 3 div
/X22 load /Y22 load curveto
} bd
/SSPD {
dup length /d exch dict def
{
/v exch def
/k exch def
currentpagedevice k known {
/cpdv currentpagedevice k get def
v cpdv ne {
/upd false def
/nullv v type /nulltype eq def
/nullcpdv cpdv type /nulltype eq def
nullv nullcpdv or
{
/upd true def
} {
/sametype v type cpdv type eq def
sametype {
v type /arraytype eq {
/vlen v length def
/cpdvlen cpdv length def
vlen cpdvlen eq {
0 1 vlen 1 sub {
/i exch def
/obj v i get def
/cpdobj cpdv i get def
obj cpdobj ne {
/upd true def
exit
} if
} for
} {
/upd true def
} ifelse
} {
v type /dicttype eq {
v {
/dv exch def
/dk exch def
/cpddv cpdv dk get def
dv cpddv ne {
/upd true def
exit
} if
} forall
} {
/upd true def
} ifelse
} ifelse
} if
} ifelse
upd true eq {
d k v put
} if
} if
} if
} forall
d length 0 gt {
d setpagedevice
} if
} bd
/RE { % /NewFontName [NewEncodingArray] /FontName RE -
  findfont dup length dict begin
  {
    1 index /FID ne
    {def} {pop pop} ifelse
  } forall
  /Encoding exch def
  /FontName 1 index def
  currentdict definefont pop
  end
} bind def
%%EndResource
%%BeginResource: procset (Apache XML Graphics EPS ProcSet) 1.0 0
%%Version: 1.0 0
%%Copyright: (Copyright 2002-2003 The Apache Software Foundation. License terms: http://www.apache.org/licenses/LICENSE-2.0)
/BeginEPSF { %def
/b4_Inc_state save def         % Save state for cleanup
/dict_count countdictstack def % Count objects on dict stack
/op_count count 1 sub def      % Count objects on operand stack
userdict begin                 % Push userdict on dict stack
/showpage { } def              % Redefine showpage, { } = null proc
0 setgray 0 setlinecap         % Prepare graphics state
1 setlinewidth 0 setlinejoin
10 setmiterlimit [ ] 0 setdash newpath
/languagelevel where           % If level not equal to 1 then
{pop languagelevel             % set strokeadjust and
1 ne                           % overprint to their defaults.
{false setstrokeadjust false setoverprint
} if
} if
} bd
/EndEPSF { %def
count op_count sub {pop} repeat            % Clean up stacks
countdictstack dict_count sub {end} repeat
b4_Inc_state restore
} bd
%%EndResource
%FOPBeginFontDict
%%IncludeResource: font Courier-Oblique
%%IncludeResource: font Courier-BoldOblique
%%IncludeResource: font Courier-Bold
%%IncludeResource: font ZapfDingbats
%%IncludeResource: font Symbol
%%IncludeResource: font Helvetica
%%IncludeResource: font Helvetica-Oblique
%%IncludeResource: font Helvetica-Bold
%%IncludeResource: font Helvetica-BoldOblique
%%IncludeResource: font Times-Roman
%%IncludeResource: font Times-Italic
%%IncludeResource: font Times-Bold
%%IncludeResource: font Times-BoldItalic
%%IncludeResource: font Courier
%FOPEndFontDict
%%BeginResource: encoding WinAnsiEncoding
/WinAnsiEncoding [
/.notdef /.notdef /.notdef /.notdef /.notdef
/.notdef /.notdef /.notdef /.notdef /.notdef
/.notdef /.notdef /.notdef /.notdef /.notdef
/.notdef /.notdef /.notdef /.notdef /.notdef
/.notdef /.notdef /.notdef /.notdef /.notdef
/.notdef /.notdef /.notdef /.notdef /.notdef
/.notdef /.notdef /space /exclam /quotedbl
/numbersign /dollar /percent /ampersand /quotesingle
/parenleft /parenright /asterisk /plus /comma
/hyphen /period /slash /zero /one
/two /three /four /five /six
/seven /eight /nine /colon /semicolon
/less /equal /greater /question /at
/A /B /C /D /E
/F /G /H /I /J
/K /L /M /N /O
/P /Q /R /S /T
/U /V /W /X /Y
/Z /bracketleft /backslash /bracketright /asciicircum
/underscore /quoteleft /a /b /c
/d /e /f /g /h
/i /j /k /l /m
/n /o /p /q /r
/s /t /u /v /w
/x /y /z /braceleft /bar
/braceright /asciitilde /bullet /Euro /bullet
/quotesinglbase /florin /quotedblbase /ellipsis /dagger
/daggerdbl /circumflex /perthousand /Scaron /guilsinglleft
/OE /bullet /Zcaron /bullet /bullet
/quoteleft /quoteright /quotedblleft /quotedblright /bullet
/endash /emdash /asciitilde /trademark /scaron
/guilsinglright /oe /bullet /zcaron /Ydieresis
/space /exclamdown /cent /sterling /currency
/yen /brokenbar /section /dieresis /copyright
/ordfeminine /guillemotleft /logicalnot /sfthyphen /registered
/macron /degree /plusminus /twosuperior /threesuperior
/acute /mu /paragraph /middot /cedilla
/onesuperior /ordmasculine /guillemotright /onequarter /onehalf
/threequarters /questiondown /Agrave /Aacute /Acircumflex
/Atilde /Adieresis /Aring /AE /Ccedilla
/Egrave /Eacute /Ecircumflex /Edieresis /Igrave
/Iacute /Icircumflex /Idieresis /Eth /Ntilde
/Ograve /Oacute /Ocircumflex /Otilde /Odieresis
/multiply /Oslash /Ugrave /Uacute /Ucircumflex
/Udieresis /Yacute /Thorn /germandbls /agrave
/aacute /acircumflex /atilde /adieresis /aring
/ae /ccedilla /egrave /eacute /ecircumflex
/edieresis /igrave /iacute /icircumflex /idieresis
/eth /ntilde /ograve /oacute /ocircumflex
/otilde /odieresis /divide /oslash /ugrave
/uacute /ucircumflex /udieresis /yacute /thorn
/ydieresis
] def
%%EndResource
%FOPBeginFontReencode
/Courier-Oblique findfont
dup length dict begin
  {1 index /FID ne {def} {pop pop} ifelse} forall
  /Encoding WinAnsiEncoding def
  currentdict
end
/Courier-Oblique exch definefont pop
/Courier-BoldOblique findfont
dup length dict begin
  {1 index /FID ne {def} {pop pop} ifelse} forall
  /Encoding WinAnsiEncoding def
  currentdict
end
/Courier-BoldOblique exch definefont pop
/Courier-Bold findfont
dup length dict begin
  {1 index /FID ne {def} {pop pop} ifelse} forall
  /Encoding WinAnsiEncoding def
  currentdict
end
/Courier-Bold exch definefont pop
/Helvetica findfont
dup length dict begin
  {1 index /FID ne {def} {pop pop} ifelse} forall
  /Encoding WinAnsiEncoding def
  currentdict
end
/Helvetica exch definefont pop
/Helvetica-Oblique findfont
dup length dict begin
  {1 index /FID ne {def} {pop pop} ifelse} forall
  /Encoding WinAnsiEncoding def
  currentdict
end
/Helvetica-Oblique exch definefont pop
/Helvetica-Bold findfont
dup length dict begin
  {1 index /FID ne {def} {pop pop} ifelse} forall
  /Encoding WinAnsiEncoding def
  currentdict
end
/Helvetica-Bold exch definefont pop
/Helvetica-BoldOblique findfont
dup length dict begin
  {1 index /FID ne {def} {pop pop} ifelse} forall
  /Encoding WinAnsiEncoding def
  currentdict
end
/Helvetica-BoldOblique exch definefont pop
/Times-Roman findfont
dup length dict begin
  {1 index /FID ne {def} {pop pop} ifelse} forall
  /Encoding WinAnsiEncoding def
  currentdict
end
/Times-Roman exch definefont pop
/Times-Italic findfont
dup length dict begin
  {1 index /FID ne {def} {pop pop} ifelse} forall
  /Encoding WinAnsiEncoding def
  currentdict
end
/Times-Italic exch definefont pop
/Times-Bold findfont
dup length dict begin
  {1 index /FID ne {def} {pop pop} ifelse} forall
  /Encoding WinAnsiEncoding def
  currentdict
end
/Times-Bold exch definefont pop
/Times-BoldItalic findfont
dup length dict begin
  {1 index /FID ne {def} {pop pop} ifelse} forall
  /Encoding WinAnsiEncoding def
  currentdict
end
/Times-BoldItalic exch definefont pop
/Courier findfont
dup length dict begin
  {1 index /FID ne {def} {pop pop} ifelse} forall
  /Encoding WinAnsiEncoding def
  currentdict
end
/Courier exch definefont pop
%FOPEndFontReencode
%%EndProlog
%%Page: 1 1
%%PageBoundingBox: 0 0 420 315
%%BeginPageSetup
[1 0 0 -1 0 315] CT
%%EndPageSetup
GS
[0.75 0 0 0.75 0 0] CT
1 GC
N
0 0 560 420 re
f
GR
GS
[0.75 0 0 0.75 0 0] CT
1 GC
N
0 0 560 420 re
f
GR
GS
[0.75 0 0 0.75 0 0] CT
1 GC
N
73 374 M
507 374 L
507 31 L
73 31 L
cp
f
GR
GS
[0.75 0 0 0.75 0 0] CT
0.873 GC
1 LJ
0.667 LW
N
85.26 374 M
85.26 31 L
S
GR
GS
[0.75 0 0 0.75 0 0] CT
0.873 GC
1 LJ
0.667 LW
N
137.774 374 M
137.774 31 L
S
GR
GS
[0.75 0 0 0.75 0 0] CT
0.873 GC
1 LJ
0.667 LW
N
190.288 374 M
190.288 31 L
S
GR
GS
[0.75 0 0 0.75 0 0] CT
0.873 GC
1 LJ
0.667 LW
N
242.802 374 M
242.802 31 L
S
GR
GS
[0.75 0 0 0.75 0 0] CT
0.873 GC
1 LJ
0.667 LW
N
295.316 374 M
295.316 31 L
S
GR
GS
[0.75 0 0 0.75 0 0] CT
0.873 GC
1 LJ
0.667 LW
N
347.83 374 M
347.83 31 L
S
GR
GS
[0.75 0 0 0.75 0 0] CT
0.873 GC
1 LJ
0.667 LW
N
400.344 374 M
400.344 31 L
S
GR
GS
[0.75 0 0 0.75 0 0] CT
0.873 GC
1 LJ
0.667 LW
N
452.858 374 M
452.858 31 L
S
GR
GS
[0.75 0 0 0.75 0 0] CT
0.873 GC
1 LJ
0.667 LW
N
505.372 374 M
505.372 31 L
S
GR
GS
[0.75 0 0 0.75 0 0] CT
0.873 GC
1 LJ
0.667 LW
N
507 359.509 M
73 359.509 L
S
GR
GS
[0.75 0 0 0.75 0 0] CT
0.873 GC
1 LJ
0.667 LW
N
507 324.923 M
73 324.923 L
S
GR
GS
[0.75 0 0 0.75 0 0] CT
0.873 GC
1 LJ
0.667 LW
N
507 290.337 M
73 290.337 L
S
GR
GS
[0.75 0 0 0.75 0 0] CT
0.873 GC
1 LJ
0.667 LW
N
507 255.751 M
73 255.751 L
S
GR
GS
[0.75 0 0 0.75 0 0] CT
0.873 GC
1 LJ
0.667 LW
N
507 221.166 M
73 221.166 L
S
GR
GS
[0.75 0 0 0.75 0 0] CT
0.873 GC
1 LJ
0.667 LW
N
507 186.58 M
73 186.58 L
S
GR
GS
[0.75 0 0 0.75 0 0] CT
0.873 GC
1 LJ
0.667 LW
N
507 151.994 M
73 151.994 L
S
GR
GS
[0.75 0 0 0.75 0 0] CT
0.873 GC
1 LJ
0.667 LW
N
507 117.408 M
73 117.408 L
S
GR
GS
[0.75 0 0 0.75 0 0] CT
0.873 GC
1 LJ
0.667 LW
N
507 82.822 M
73 82.822 L
S
GR
GS
[0.75 0 0 0.75 0 0] CT
0.873 GC
1 LJ
0.667 LW
N
507 48.236 M
73 48.236 L
S
GR
GS
[0.75 0 0 0.75 0 0] CT
0.149 GC
2 setlinecap
1 LJ
0.667 LW
N
73 374 M
507 374 L
S
GR
GS
[0.75 0 0 0.75 0 0] CT
0.149 GC
2 setlinecap
1 LJ
0.667 LW
N
85.26 374 M
85.26 369.66 L
S
GR
GS
[0.75 0 0 0.75 0 0] CT
0.149 GC
2 setlinecap
1 LJ
0.667 LW
N
137.774 374 M
137.774 369.66 L
S
GR
GS
[0.75 0 0 0.75 0 0] CT
0.149 GC
2 setlinecap
1 LJ
0.667 LW
N
190.288 374 M
190.288 369.66 L
S
GR
GS
[0.75 0 0 0.75 0 0] CT
0.149 GC
2 setlinecap
1 LJ
0.667 LW
N
242.802 374 M
242.802 369.66 L
S
GR
GS
[0.75 0 0 0.75 0 0] CT
0.149 GC
2 setlinecap
1 LJ
0.667 LW
N
295.316 374 M
295.316 369.66 L
S
GR
GS
[0.75 0 0 0.75 0 0] CT
0.149 GC
2 setlinecap
1 LJ
0.667 LW
N
347.83 374 M
347.83 369.66 L
S
GR
GS
[0.75 0 0 0.75 0 0] CT
0.149 GC
2 setlinecap
1 LJ
0.667 LW
N
400.344 374 M
400.344 369.66 L
S
GR
GS
[0.75 0 0 0.75 0 0] CT
0.149 GC
2 setlinecap
1 LJ
0.667 LW
N
452.858 374 M
452.858 369.66 L
S
GR
GS
[0.75 0 0 0.75 0 0] CT
0.149 GC
2 setlinecap
1 LJ
0.667 LW
N
505.372 374 M
505.372 369.66 L
S
GR
GS
[0.75 0 0 0.75 63.945 284.50001] CT
0.149 GC
/Helvetica 13.333 F
GS
[1 0 0 1 0 0] CT
-4 14 moveto 
1 -1 scale
(0) t 
GR
GR
GS
[0.75 0 0 0.75 103.3305 284.50001] CT
0.149 GC
/Helvetica 13.333 F
GS
[1 0 0 1 0 0] CT
-7.5 14 moveto 
1 -1 scale
(10) t 
GR
GR
GS
[0.75 0 0 0.75 142.716 284.50001] CT
0.149 GC
/Helvetica 13.333 F
GS
[1 0 0 1 0 0] CT
-7.5 14 moveto 
1 -1 scale
(20) t 
GR
GR
GS
[0.75 0 0 0.75 182.1015 284.50001] CT
0.149 GC
/Helvetica 13.333 F
GS
[1 0 0 1 0 0] CT
-7.5 14 moveto 
1 -1 scale
(30) t 
GR
GR
GS
[0.75 0 0 0.75 221.48701 284.50001] CT
0.149 GC
/Helvetica 13.333 F
GS
[1 0 0 1 0 0] CT
-7.5 14 moveto 
1 -1 scale
(40) t 
GR
GR
GS
[0.75 0 0 0.75 260.87249 284.50001] CT
0.149 GC
/Helvetica 13.333 F
GS
[1 0 0 1 0 0] CT
-7.5 14 moveto 
1 -1 scale
(50) t 
GR
GR
GS
[0.75 0 0 0.75 300.258 284.50001] CT
0.149 GC
/Helvetica 13.333 F
GS
[1 0 0 1 0 0] CT
-7.5 14 moveto 
1 -1 scale
(60) t 
GR
GR
GS
[0.75 0 0 0.75 339.6435 284.50001] CT
0.149 GC
/Helvetica 13.333 F
GS
[1 0 0 1 0 0] CT
-7.5 14 moveto 
1 -1 scale
(70) t 
GR
GR
GS
[0.75 0 0 0.75 379.02901 284.50001] CT
0.149 GC
/Helvetica 13.333 F
GS
[1 0 0 1 0 0] CT
-7.5 14 moveto 
1 -1 scale
(80) t 
GR
GR
GS
[0.75 0 0 0.75 217.50016 298.24999] CT
0.149 GC
/Helvetica 14.667 F
GS
[1 0 0 1 0 0] CT
-4 15 moveto 
1 -1 scale
(x) t 
GR
GR
GS
[0.75 0 0 0.75 0 0] CT
0.149 GC
2 setlinecap
1 LJ
0.667 LW
N
73 374 M
73 31 L
S
GR
GS
[0.75 0 0 0.75 0 0] CT
0.149 GC
2 setlinecap
1 LJ
0.667 LW
N
73 359.509 M
77.34 359.509 L
S
GR
GS
[0.75 0 0 0.75 0 0] CT
0.149 GC
2 setlinecap
1 LJ
0.667 LW
N
73 324.923 M
77.34 324.923 L
S
GR
GS
[0.75 0 0 0.75 0 0] CT
0.149 GC
2 setlinecap
1 LJ
0.667 LW
N
73 290.337 M
77.34 290.337 L
S
GR
GS
[0.75 0 0 0.75 0 0] CT
0.149 GC
2 setlinecap
1 LJ
0.667 LW
N
73 255.751 M
77.34 255.751 L
S
GR
GS
[0.75 0 0 0.75 0 0] CT
0.149 GC
2 setlinecap
1 LJ
0.667 LW
N
73 221.166 M
77.34 221.166 L
S
GR
GS
[0.75 0 0 0.75 0 0] CT
0.149 GC
2 setlinecap
1 LJ
0.667 LW
N
73 186.58 M
77.34 186.58 L
S
GR
GS
[0.75 0 0 0.75 0 0] CT
0.149 GC
2 setlinecap
1 LJ
0.667 LW
N
73 151.994 M
77.34 151.994 L
S
GR
GS
[0.75 0 0 0.75 0 0] CT
0.149 GC
2 setlinecap
1 LJ
0.667 LW
N
73 117.408 M
77.34 117.408 L
S
GR
GS
[0.75 0 0 0.75 0 0] CT
0.149 GC
2 setlinecap
1 LJ
0.667 LW
N
73 82.822 M
77.34 82.822 L
S
GR
GS
[0.75 0 0 0.75 0 0] CT
0.149 GC
2 setlinecap
1 LJ
0.667 LW
N
73 48.236 M
77.34 48.236 L
S
GR
GS
[0.75 0 0 0.75 50.75 269.63175] CT
0.149 GC
/Helvetica 13.333 F
GS
[1 0 0 1 0 0] CT
-8 5.5 moveto 
1 -1 scale
(0) t 
GR
GR
GS
[0.75 0 0 0.75 50.75 243.69237] CT
0.149 GC
/Helvetica 13.333 F
GS
[1 0 0 1 0 0] CT
-23 5.5 moveto 
1 -1 scale
(100) t 
GR
GR
GS
[0.75 0 0 0.75 50.75 217.75301] CT
0.149 GC
/Helvetica 13.333 F
GS
[1 0 0 1 0 0] CT
-23 5.5 moveto 
1 -1 scale
(200) t 
GR
GR
GS
[0.75 0 0 0.75 50.75 191.81362] CT
0.149 GC
/Helvetica 13.333 F
GS
[1 0 0 1 0 0] CT
-23 5.5 moveto 
1 -1 scale
(300) t 
GR
GR
GS
[0.75 0 0 0.75 50.75 165.87425] CT
0.149 GC
/Helvetica 13.333 F
GS
[1 0 0 1 0 0] CT
-23 5.5 moveto 
1 -1 scale
(400) t 
GR
GR
GS
[0.75 0 0 0.75 50.75 139.93488] CT
0.149 GC
/Helvetica 13.333 F
GS
[1 0 0 1 0 0] CT
-23 5.5 moveto 
1 -1 scale
(500) t 
GR
GR
GS
[0.75 0 0 0.75 50.75 113.9955] CT
0.149 GC
/Helvetica 13.333 F
GS
[1 0 0 1 0 0] CT
-23 5.5 moveto 
1 -1 scale
(600) t 
GR
GR
GS
[0.75 0 0 0.75 50.75 88.05612] CT
0.149 GC
/Helvetica 13.333 F
GS
[1 0 0 1 0 0] CT
-23 5.5 moveto 
1 -1 scale
(700) t 
GR
GR
GS
[0.75 0 0 0.75 50.75 62.11674] CT
0.149 GC
/Helvetica 13.333 F
GS
[1 0 0 1 0 0] CT
-23 5.5 moveto 
1 -1 scale
(800) t 
GR
GR
GS
[0.75 0 0 0.75 50.75 36.17737] CT
0.149 GC
/Helvetica 13.333 F
GS
[1 0 0 1 0 0] CT
-23 5.5 moveto 
1 -1 scale
(900) t 
GR
GR
GS
[0 -0.75 0.75 0 30.5 151.87487] CT
0.149 GC
/Helvetica 14.667 F
GS
[1 0 0 1 0 0] CT
-4 -4 moveto 
1 -1 scale
(y) t 
GR
GR
GS
[0.75 0 0 0.75 0 0] CT
1 LJ
0.667 LW
N
85.26 359.488 M
90.564 358.619 L
95.869 357.751 L
101.173 356.883 L
106.478 356.015 L
111.782 355.147 L
117.087 354.279 L
122.391 353.41 L
127.696 352.542 L
133 351.674 L
138.304 350.806 L
143.609 349.938 L
148.913 349.069 L
154.218 348.201 L
159.522 347.333 L
164.827 346.465 L
170.131 345.597 L
175.436 344.728 L
180.74 343.86 L
186.044 342.992 L
191.349 342.124 L
196.653 341.256 L
201.958 340.387 L
207.262 339.519 L
212.567 338.651 L
217.871 337.783 L
223.176 336.915 L
228.48 336.047 L
233.784 335.178 L
239.089 334.31 L
244.393 333.442 L
249.698 332.574 L
255.002 331.706 L
260.307 330.837 L
265.611 329.969 L
270.916 329.101 L
276.22 328.233 L
281.524 327.365 L
286.829 326.496 L
292.133 325.628 L
297.438 324.76 L
302.742 323.892 L
308.047 323.024 L
313.351 322.156 L
318.656 321.287 L
323.96 320.419 L
329.264 319.551 L
334.569 318.683 L
339.873 317.815 L
345.178 316.946 L
350.482 316.078 L
355.787 315.21 L
361.091 314.342 L
366.396 313.474 L
371.7 312.605 L
377.004 311.737 L
382.309 310.869 L
387.613 310.001 L
392.918 309.133 L
398.222 308.264 L
403.527 307.396 L
408.831 306.528 L
414.136 305.66 L
419.44 304.792 L
424.744 303.924 L
430.049 303.055 L
435.353 302.187 L
440.658 301.319 L
445.962 300.451 L
451.267 299.583 L
456.571 298.714 L
461.876 297.846 L
467.18 296.978 L
472.484 296.11 L
477.789 295.242 L
483.093 294.374 L
488.398 293.505 L
493.702 292.637 L
499.007 291.769 L
504.311 290.901 L
507.052 290.452 L
S
GR
GS
[0.75 0 0 0.75 0 0] CT
0 0 1 RC
[2 2] 0 setdash
2 LJ
2.667 LW
N
85.26 352.219 M
90.564 352.776 L
95.869 353.174 L
101.173 353.423 L
106.478 353.535 L
111.782 353.519 L
117.087 353.386 L
122.391 353.145 L
127.696 352.805 L
133 352.374 L
138.304 351.862 L
143.609 351.275 L
148.913 350.622 L
154.218 349.91 L
159.522 349.145 L
164.827 348.335 L
170.131 347.484 L
175.436 346.6 L
180.74 345.687 L
186.044 344.75 L
191.349 343.794 L
196.653 342.823 L
201.958 341.841 L
207.262 340.851 L
212.567 339.857 L
217.871 338.861 L
223.176 337.866 L
228.48 336.873 L
233.784 335.885 L
239.089 334.902 L
244.393 333.925 L
249.698 332.955 L
255.002 331.992 L
260.307 331.036 L
265.611 330.086 L
270.916 329.141 L
276.22 328.2 L
281.524 327.26 L
286.829 326.321 L
292.133 325.378 L
297.438 324.431 L
302.742 323.474 L
308.047 322.505 L
313.351 321.52 L
318.656 320.514 L
323.96 319.482 L
329.264 318.421 L
334.569 317.322 L
339.873 316.183 L
345.178 314.994 L
350.482 313.752 L
355.787 312.447 L
361.091 311.074 L
366.396 309.624 L
371.7 308.088 L
377.004 306.46 L
382.309 304.729 L
387.613 302.888 L
392.918 300.925 L
398.222 298.831 L
403.527 296.596 L
408.831 294.209 L
414.136 291.659 L
419.44 288.934 L
424.744 286.024 L
430.049 282.914 L
435.353 279.594 L
440.658 276.049 L
445.962 272.268 L
451.267 268.235 L
456.571 263.937 L
461.876 259.359 L
467.18 254.487 L
472.484 249.306 L
477.789 243.799 L
483.093 237.952 L
488.398 231.747 L
493.702 225.168 L
499.007 218.198 L
504.311 210.819 L
507.052 206.786 L
S
GR
GS
[0.75 0 0 0.75 67.88355 262.91453] CT
1 0 0 RC
N
1.778 0 M
1.778 0.982 0.982 1.778 0 1.778 C
-0.982 1.778 -1.778 0.982 -1.778 0 C
-1.778 -0.982 -0.982 -1.778 0 -1.778 C
0.982 -1.778 1.778 -0.982 1.778 0 C
cp
f
GR
GS
[0.75 0 0 0.75 71.8221 266.66414] CT
1 0 0 RC
N
/f-1290764029{1.778 0 M
1.778 0.982 0.982 1.778 0 1.778 C
-0.982 1.778 -1.778 0.982 -1.778 0 C
-1.778 -0.982 -0.982 -1.778 0 -1.778 C
0.982 -1.778 1.778 -0.982 1.778 0 C
cp}def
f-1290764029
f
GR
GS
[0.75 0 0 0.75 75.76065 262.94817] CT
1 0 0 RC
N
f-1290764029
f
GR
GS
[0.75 0 0 0.75 79.6992 264.44852] CT
1 0 0 RC
N
f-1290764029
f
GR
GS
[0.75 0 0 0.75 83.63775 265.23063] CT
1 0 0 RC
N
f-1290764029
f
GR
GS
[0.75 0 0 0.75 87.5763 266.86059] CT
1 0 0 RC
N
f-1290764029
f
GR
GS
[0.75 0 0 0.75 91.51485 268.6563] CT
1 0 0 RC
N
f-1290764029
f
GR
GS
[0.75 0 0 0.75 95.4534 261.50061] CT
1 0 0 RC
N
f-1290764029
f
GR
GS
[0.75 0 0 0.75 99.39195 269.51008] CT
1 0 0 RC
N
f-1290764029
f
GR
GS
[0.75 0 0 0.75 103.3305 258.88804] CT
1 0 0 RC
N
f-1290764029
f
GR
GS
[0.75 0 0 0.75 107.26905 258.61784] CT
1 0 0 RC
N
f-1290764029
f
GR
GS
[0.75 0 0 0.75 111.2076 268.08886] CT
1 0 0 RC
N
f-1290764029
f
GR
GS
[0.75 0 0 0.75 115.14615 264.9627] CT
1 0 0 RC
N
f-1290764029
f
GR
GS
[0.75 0 0 0.75 119.0847 266.63367] CT
1 0 0 RC
N
f-1290764029
f
GR
GS
[0.75 0 0 0.75 123.02325 262.84019] CT
1 0 0 RC
N
f-1290764029
f
GR
GS
[0.75 0 0 0.75 126.9618 260.7621] CT
1 0 0 RC
N
f-1290764029
f
GR
GS
[0.75 0 0 0.75 130.90035 256.17494] CT
1 0 0 RC
N
f-1290764029
f
GR
GS
[0.75 0 0 0.75 134.8389 257.90124] CT
1 0 0 RC
N
f-1290764029
f
GR
GS
[0.75 0 0 0.75 138.77745 254.73855] CT
1 0 0 RC
N
f-1290764029
f
GR
GS
[0.75 0 0 0.75 142.716 250.86234] CT
1 0 0 RC
N
f-1290764029
f
GR
GS
[0.75 0 0 0.75 146.65455 256.91615] CT
1 0 0 RC
N
f-1290764029
f
GR
GS
[0.75 0 0 0.75 150.5931 255.81129] CT
1 0 0 RC
N
f-1290764029
f
GR
GS
[0.75 0 0 0.75 154.53165 259.52417] CT
1 0 0 RC
N
f-1290764029
f
GR
GS
[0.75 0 0 0.75 158.4702 259.91906] CT
1 0 0 RC
N
f-1290764029
f
GR
GS
[0.75 0 0 0.75 162.40875 256.3055] CT
1 0 0 RC
N
f-1290764029
f
GR
GS
[0.75 0 0 0.75 166.3473 249.10778] CT
1 0 0 RC
N
f-1290764029
f
GR
GS
[0.75 0 0 0.75 170.28585 248.87579] CT
1 0 0 RC
N
f-1290764029
f
GR
GS
[0.75 0 0 0.75 174.2244 255.139] CT
1 0 0 RC
N
f-1290764029
f
GR
GS
[0.75 0 0 0.75 178.16295 252.90143] CT
1 0 0 RC
N
f-1290764029
f
GR
GS
[0.75 0 0 0.75 182.1015 248.52349] CT
1 0 0 RC
N
f-1290764029
f
GR
GS
[0.75 0 0 0.75 186.04005 252.84027] CT
1 0 0 RC
N
f-1290764029
f
GR
GS
[0.75 0 0 0.75 189.9786 251.97796] CT
1 0 0 RC
N
f-1290764029
f
GR
GS
[0.75 0 0 0.75 193.91716 244.29911] CT
1 0 0 RC
N
f-1290764029
f
GR
GS
[0.75 0 0 0.75 197.85569 253.57457] CT
1 0 0 RC
N
f-1290764029
f
GR
GS
[0.75 0 0 0.75 201.79424 247.85369] CT
1 0 0 RC
N
f-1290764029
f
GR
GS
[0.75 0 0 0.75 205.7328 241.13688] CT
1 0 0 RC
N
f-1290764029
f
GR
GS
[0.75 0 0 0.75 209.67135 251.67957] CT
1 0 0 RC
N
f-1290764029
f
GR
GS
[0.75 0 0 0.75 213.6099 243.57834] CT
1 0 0 RC
N
f-1290764029
f
GR
GS
[0.75 0 0 0.75 217.54845 249.11204] CT
1 0 0 RC
N
f-1290764029
f
GR
GS
[0.75 0 0 0.75 221.48701 239.99377] CT
1 0 0 RC
N
f-1290764029
f
GR
GS
[0.75 0 0 0.75 225.42556 237.86625] CT
1 0 0 RC
N
f-1290764029
f
GR
GS
[0.75 0 0 0.75 229.36409 247.76511] CT
1 0 0 RC
N
f-1290764029
f
GR
GS
[0.75 0 0 0.75 233.30264 235.66933] CT
1 0 0 RC
N
f-1290764029
f
GR
GS
[0.75 0 0 0.75 237.2412 243.78925] CT
1 0 0 RC
N
f-1290764029
f
GR
GS
[0.75 0 0 0.75 241.17975 238.31795] CT
1 0 0 RC
N
f-1290764029
f
GR
GS
[0.75 0 0 0.75 245.1183 238.1461] CT
1 0 0 RC
N
f-1290764029
f
GR
GS
[0.75 0 0 0.75 249.05685 236.00867] CT
1 0 0 RC
N
f-1290764029
f
GR
GS
[0.75 0 0 0.75 252.99541 235.14766] CT
1 0 0 RC
N
f-1290764029
f
GR
GS
[0.75 0 0 0.75 256.93396 240.93285] CT
1 0 0 RC
N
f-1290764029
f
GR
GS
[0.75 0 0 0.75 260.87249 236.96613] CT
1 0 0 RC
N
f-1290764029
f
GR
GS
[0.75 0 0 0.75 0 0] CT
1 GC
N
254 107 M
254 54 L
98 54 L
98 107 L
cp
f
GR
GS
[0.75 0 0 0.75 108.75 48] CT
/Helvetica 12 F
GS
[1 0 0 1 0 0] CT
0 5 moveto 
1 -1 scale
(Regressionsgerade) t 
GR
GR
GS
[0.75 0 0 0.75 0 0] CT
1 LJ
0.667 LW
N
102 64 M
142 64 L
S
GR
GS
[0.75 0 0 0.75 108.75 60.375] CT
/Helvetica 12 F
GS
[1 0 0 1 0 0] CT
0 5 moveto 
1 -1 scale
(Polynom 4. Grades) t 
GR
GR
GS
[0.75 0 0 0.75 0 0] CT
0 0 1 RC
[2 2] 0 setdash
2 LJ
2.667 LW
N
102 80.5 M
142 80.5 L
S
GR
GS
[0.75 0 0 0.75 108.75 72.75] CT
/Helvetica 12 F
GS
[1 0 0 1 0 0] CT
0 5 moveto 
1 -1 scale
(Messwerte) t 
GR
GR
GS
[0.75 0 0 0.75 91.5 72.75] CT
1 0 0 RC
N
f-1290764029
f
GR
GS
[0.75 0 0 0.75 0 0] CT
0.149 GC
10.0 ML
0.667 LW
N
98 107 M
98 54 L
254 54 L
254 107 L
cp
S
GR
%%Trailer
%%Pages: 1
%%EOF
