%!PS-Adobe-3.0 EPSF-3.0
%%Creator: (MATLAB, The Mathworks, Inc. Version 9.8.0.1359463 \(R2020a\) Update 1. Operating System: Windows 10)
%%Title: (C:/Users/simon/OneDrive/Desktop/ECES II/ECES II Hausarbeit/eces-ii/Hausarbeit_mit_temp/data/messwerte.eps)
%%CreationDate: 2020-07-03T10:20:52
%%Pages: (atend)
%%BoundingBox:     0     0   420   315
%%LanguageLevel: 3
%%EndComments
%%BeginProlog
%%BeginResource: procset (Apache XML Graphics Std ProcSet) 1.2 0
%%Version: 1.2 0
%%Copyright: (Copyright 2001-2003,2010 The Apache Software Foundation. License terms: http://www.apache.org/licenses/LICENSE-2.0)
/bd{bind def}bind def
/ld{load def}bd
/GR/grestore ld
/GS/gsave ld
/RM/rmoveto ld
/C/curveto ld
/t/show ld
/L/lineto ld
/ML/setmiterlimit ld
/CT/concat ld
/f/fill ld
/N/newpath ld
/S/stroke ld
/CC/setcmykcolor ld
/A/ashow ld
/cp/closepath ld
/RC/setrgbcolor ld
/LJ/setlinejoin ld
/GC/setgray ld
/LW/setlinewidth ld
/M/moveto ld
/re {4 2 roll M
1 index 0 rlineto
0 exch rlineto
neg 0 rlineto
cp } bd
/_ctm matrix def
/_tm matrix def
/BT { _ctm currentmatrix pop matrix _tm copy pop 0 0 moveto } bd
/ET { _ctm setmatrix } bd
/iTm { _ctm setmatrix _tm concat } bd
/Tm { _tm astore pop iTm 0 0 moveto } bd
/ux 0.0 def
/uy 0.0 def
/F {
  /Tp exch def
  /Tf exch def
  Tf findfont Tp scalefont setfont
  /cf Tf def  /cs Tp def
} bd
/ULS {currentpoint /uy exch def /ux exch def} bd
/ULE {
  /Tcx currentpoint pop def
  gsave
  newpath
  cf findfont cs scalefont dup
  /FontMatrix get 0 get /Ts exch def /FontInfo get dup
  /UnderlinePosition get Ts mul /To exch def
  /UnderlineThickness get Ts mul /Tt exch def
  ux uy To add moveto  Tcx uy To add lineto
  Tt setlinewidth stroke
  grestore
} bd
/OLE {
  /Tcx currentpoint pop def
  gsave
  newpath
  cf findfont cs scalefont dup
  /FontMatrix get 0 get /Ts exch def /FontInfo get dup
  /UnderlinePosition get Ts mul /To exch def
  /UnderlineThickness get Ts mul /Tt exch def
  ux uy To add cs add moveto Tcx uy To add cs add lineto
  Tt setlinewidth stroke
  grestore
} bd
/SOE {
  /Tcx currentpoint pop def
  gsave
  newpath
  cf findfont cs scalefont dup
  /FontMatrix get 0 get /Ts exch def /FontInfo get dup
  /UnderlinePosition get Ts mul /To exch def
  /UnderlineThickness get Ts mul /Tt exch def
  ux uy To add cs 10 mul 26 idiv add moveto Tcx uy To add cs 10 mul 26 idiv add lineto
  Tt setlinewidth stroke
  grestore
} bd
/QT {
/Y22 exch store
/X22 exch store
/Y21 exch store
/X21 exch store
currentpoint
/Y21 load 2 mul add 3 div exch
/X21 load 2 mul add 3 div exch
/X21 load 2 mul /X22 load add 3 div
/Y21 load 2 mul /Y22 load add 3 div
/X22 load /Y22 load curveto
} bd
/SSPD {
dup length /d exch dict def
{
/v exch def
/k exch def
currentpagedevice k known {
/cpdv currentpagedevice k get def
v cpdv ne {
/upd false def
/nullv v type /nulltype eq def
/nullcpdv cpdv type /nulltype eq def
nullv nullcpdv or
{
/upd true def
} {
/sametype v type cpdv type eq def
sametype {
v type /arraytype eq {
/vlen v length def
/cpdvlen cpdv length def
vlen cpdvlen eq {
0 1 vlen 1 sub {
/i exch def
/obj v i get def
/cpdobj cpdv i get def
obj cpdobj ne {
/upd true def
exit
} if
} for
} {
/upd true def
} ifelse
} {
v type /dicttype eq {
v {
/dv exch def
/dk exch def
/cpddv cpdv dk get def
dv cpddv ne {
/upd true def
exit
} if
} forall
} {
/upd true def
} ifelse
} ifelse
} if
} ifelse
upd true eq {
d k v put
} if
} if
} if
} forall
d length 0 gt {
d setpagedevice
} if
} bd
/RE { % /NewFontName [NewEncodingArray] /FontName RE -
  findfont dup length dict begin
  {
    1 index /FID ne
    {def} {pop pop} ifelse
  } forall
  /Encoding exch def
  /FontName 1 index def
  currentdict definefont pop
  end
} bind def
%%EndResource
%%BeginResource: procset (Apache XML Graphics EPS ProcSet) 1.0 0
%%Version: 1.0 0
%%Copyright: (Copyright 2002-2003 The Apache Software Foundation. License terms: http://www.apache.org/licenses/LICENSE-2.0)
/BeginEPSF { %def
/b4_Inc_state save def         % Save state for cleanup
/dict_count countdictstack def % Count objects on dict stack
/op_count count 1 sub def      % Count objects on operand stack
userdict begin                 % Push userdict on dict stack
/showpage { } def              % Redefine showpage, { } = null proc
0 setgray 0 setlinecap         % Prepare graphics state
1 setlinewidth 0 setlinejoin
10 setmiterlimit [ ] 0 setdash newpath
/languagelevel where           % If level not equal to 1 then
{pop languagelevel             % set strokeadjust and
1 ne                           % overprint to their defaults.
{false setstrokeadjust false setoverprint
} if
} if
} bd
/EndEPSF { %def
count op_count sub {pop} repeat            % Clean up stacks
countdictstack dict_count sub {end} repeat
b4_Inc_state restore
} bd
%%EndResource
%FOPBeginFontDict
%%IncludeResource: font Courier-Oblique
%%IncludeResource: font Courier-BoldOblique
%%IncludeResource: font Courier-Bold
%%IncludeResource: font ZapfDingbats
%%IncludeResource: font Symbol
%%IncludeResource: font Helvetica
%%IncludeResource: font Helvetica-Oblique
%%IncludeResource: font Helvetica-Bold
%%IncludeResource: font Helvetica-BoldOblique
%%IncludeResource: font Times-Roman
%%IncludeResource: font Times-Italic
%%IncludeResource: font Times-Bold
%%IncludeResource: font Times-BoldItalic
%%IncludeResource: font Courier
%FOPEndFontDict
%%BeginResource: encoding WinAnsiEncoding
/WinAnsiEncoding [
/.notdef /.notdef /.notdef /.notdef /.notdef
/.notdef /.notdef /.notdef /.notdef /.notdef
/.notdef /.notdef /.notdef /.notdef /.notdef
/.notdef /.notdef /.notdef /.notdef /.notdef
/.notdef /.notdef /.notdef /.notdef /.notdef
/.notdef /.notdef /.notdef /.notdef /.notdef
/.notdef /.notdef /space /exclam /quotedbl
/numbersign /dollar /percent /ampersand /quotesingle
/parenleft /parenright /asterisk /plus /comma
/hyphen /period /slash /zero /one
/two /three /four /five /six
/seven /eight /nine /colon /semicolon
/less /equal /greater /question /at
/A /B /C /D /E
/F /G /H /I /J
/K /L /M /N /O
/P /Q /R /S /T
/U /V /W /X /Y
/Z /bracketleft /backslash /bracketright /asciicircum
/underscore /quoteleft /a /b /c
/d /e /f /g /h
/i /j /k /l /m
/n /o /p /q /r
/s /t /u /v /w
/x /y /z /braceleft /bar
/braceright /asciitilde /bullet /Euro /bullet
/quotesinglbase /florin /quotedblbase /ellipsis /dagger
/daggerdbl /circumflex /perthousand /Scaron /guilsinglleft
/OE /bullet /Zcaron /bullet /bullet
/quoteleft /quoteright /quotedblleft /quotedblright /bullet
/endash /emdash /asciitilde /trademark /scaron
/guilsinglright /oe /bullet /zcaron /Ydieresis
/space /exclamdown /cent /sterling /currency
/yen /brokenbar /section /dieresis /copyright
/ordfeminine /guillemotleft /logicalnot /sfthyphen /registered
/macron /degree /plusminus /twosuperior /threesuperior
/acute /mu /paragraph /middot /cedilla
/onesuperior /ordmasculine /guillemotright /onequarter /onehalf
/threequarters /questiondown /Agrave /Aacute /Acircumflex
/Atilde /Adieresis /Aring /AE /Ccedilla
/Egrave /Eacute /Ecircumflex /Edieresis /Igrave
/Iacute /Icircumflex /Idieresis /Eth /Ntilde
/Ograve /Oacute /Ocircumflex /Otilde /Odieresis
/multiply /Oslash /Ugrave /Uacute /Ucircumflex
/Udieresis /Yacute /Thorn /germandbls /agrave
/aacute /acircumflex /atilde /adieresis /aring
/ae /ccedilla /egrave /eacute /ecircumflex
/edieresis /igrave /iacute /icircumflex /idieresis
/eth /ntilde /ograve /oacute /ocircumflex
/otilde /odieresis /divide /oslash /ugrave
/uacute /ucircumflex /udieresis /yacute /thorn
/ydieresis
] def
%%EndResource
%FOPBeginFontReencode
/Courier-Oblique findfont
dup length dict begin
  {1 index /FID ne {def} {pop pop} ifelse} forall
  /Encoding WinAnsiEncoding def
  currentdict
end
/Courier-Oblique exch definefont pop
/Courier-BoldOblique findfont
dup length dict begin
  {1 index /FID ne {def} {pop pop} ifelse} forall
  /Encoding WinAnsiEncoding def
  currentdict
end
/Courier-BoldOblique exch definefont pop
/Courier-Bold findfont
dup length dict begin
  {1 index /FID ne {def} {pop pop} ifelse} forall
  /Encoding WinAnsiEncoding def
  currentdict
end
/Courier-Bold exch definefont pop
/Helvetica findfont
dup length dict begin
  {1 index /FID ne {def} {pop pop} ifelse} forall
  /Encoding WinAnsiEncoding def
  currentdict
end
/Helvetica exch definefont pop
/Helvetica-Oblique findfont
dup length dict begin
  {1 index /FID ne {def} {pop pop} ifelse} forall
  /Encoding WinAnsiEncoding def
  currentdict
end
/Helvetica-Oblique exch definefont pop
/Helvetica-Bold findfont
dup length dict begin
  {1 index /FID ne {def} {pop pop} ifelse} forall
  /Encoding WinAnsiEncoding def
  currentdict
end
/Helvetica-Bold exch definefont pop
/Helvetica-BoldOblique findfont
dup length dict begin
  {1 index /FID ne {def} {pop pop} ifelse} forall
  /Encoding WinAnsiEncoding def
  currentdict
end
/Helvetica-BoldOblique exch definefont pop
/Times-Roman findfont
dup length dict begin
  {1 index /FID ne {def} {pop pop} ifelse} forall
  /Encoding WinAnsiEncoding def
  currentdict
end
/Times-Roman exch definefont pop
/Times-Italic findfont
dup length dict begin
  {1 index /FID ne {def} {pop pop} ifelse} forall
  /Encoding WinAnsiEncoding def
  currentdict
end
/Times-Italic exch definefont pop
/Times-Bold findfont
dup length dict begin
  {1 index /FID ne {def} {pop pop} ifelse} forall
  /Encoding WinAnsiEncoding def
  currentdict
end
/Times-Bold exch definefont pop
/Times-BoldItalic findfont
dup length dict begin
  {1 index /FID ne {def} {pop pop} ifelse} forall
  /Encoding WinAnsiEncoding def
  currentdict
end
/Times-BoldItalic exch definefont pop
/Courier findfont
dup length dict begin
  {1 index /FID ne {def} {pop pop} ifelse} forall
  /Encoding WinAnsiEncoding def
  currentdict
end
/Courier exch definefont pop
%FOPEndFontReencode
%%EndProlog
%%Page: 1 1
%%PageBoundingBox: 0 0 420 315
%%BeginPageSetup
[1 0 0 -1 0 315] CT
%%EndPageSetup
GS
[0.75 0 0 0.75 0 0] CT
1 GC
N
0 0 560 420 re
f
GR
GS
[0.75 0 0 0.75 0 0] CT
1 GC
N
0 0 560 420 re
f
GR
GS
[0.75 0 0 0.75 0 0] CT
1 GC
N
73 367 M
507 367 L
507 31 L
73 31 L
cp
f
GR
GS
[0.75 0 0 0.75 0 0] CT
0.873 GC
1 LJ
0.667 LW
N
73 367 M
73 31 L
S
GR
GS
[0.75 0 0 0.75 0 0] CT
0.873 GC
1 LJ
0.667 LW
N
116.4 367 M
116.4 31 L
S
GR
GS
[0.75 0 0 0.75 0 0] CT
0.873 GC
1 LJ
0.667 LW
N
159.8 367 M
159.8 31 L
S
GR
GS
[0.75 0 0 0.75 0 0] CT
0.873 GC
1 LJ
0.667 LW
N
203.2 367 M
203.2 31 L
S
GR
GS
[0.75 0 0 0.75 0 0] CT
0.873 GC
1 LJ
0.667 LW
N
246.6 367 M
246.6 31 L
S
GR
GS
[0.75 0 0 0.75 0 0] CT
0.873 GC
1 LJ
0.667 LW
N
290 367 M
290 31 L
S
GR
GS
[0.75 0 0 0.75 0 0] CT
0.873 GC
1 LJ
0.667 LW
N
333.4 367 M
333.4 31 L
S
GR
GS
[0.75 0 0 0.75 0 0] CT
0.873 GC
1 LJ
0.667 LW
N
376.8 367 M
376.8 31 L
S
GR
GS
[0.75 0 0 0.75 0 0] CT
0.873 GC
1 LJ
0.667 LW
N
420.2 367 M
420.2 31 L
S
GR
GS
[0.75 0 0 0.75 0 0] CT
0.873 GC
1 LJ
0.667 LW
N
463.6 367 M
463.6 31 L
S
GR
GS
[0.75 0 0 0.75 0 0] CT
0.873 GC
1 LJ
0.667 LW
N
507 367 M
507 31 L
S
GR
GS
[0.75 0 0 0.75 0 0] CT
0.873 GC
1 LJ
0.667 LW
N
507 367 M
73 367 L
S
GR
GS
[0.75 0 0 0.75 0 0] CT
0.873 GC
1 LJ
0.667 LW
N
507 319 M
73 319 L
S
GR
GS
[0.75 0 0 0.75 0 0] CT
0.873 GC
1 LJ
0.667 LW
N
507 271 M
73 271 L
S
GR
GS
[0.75 0 0 0.75 0 0] CT
0.873 GC
1 LJ
0.667 LW
N
507 223 M
73 223 L
S
GR
GS
[0.75 0 0 0.75 0 0] CT
0.873 GC
1 LJ
0.667 LW
N
507 175 M
73 175 L
S
GR
GS
[0.75 0 0 0.75 0 0] CT
0.873 GC
1 LJ
0.667 LW
N
507 127 M
73 127 L
S
GR
GS
[0.75 0 0 0.75 0 0] CT
0.873 GC
1 LJ
0.667 LW
N
507 79 M
73 79 L
S
GR
GS
[0.75 0 0 0.75 0 0] CT
0.873 GC
1 LJ
0.667 LW
N
507 31 M
73 31 L
S
GR
GS
[0.75 0 0 0.75 0 0] CT
0.149 GC
2 setlinecap
1 LJ
0.667 LW
N
73 367 M
507 367 L
S
GR
GS
[0.75 0 0 0.75 0 0] CT
0.149 GC
2 setlinecap
1 LJ
0.667 LW
N
73 31 M
507 31 L
S
GR
GS
[0.75 0 0 0.75 0 0] CT
0.149 GC
2 setlinecap
1 LJ
0.667 LW
N
73 367 M
73 362.66 L
S
GR
GS
[0.75 0 0 0.75 0 0] CT
0.149 GC
2 setlinecap
1 LJ
0.667 LW
N
116.4 367 M
116.4 362.66 L
S
GR
GS
[0.75 0 0 0.75 0 0] CT
0.149 GC
2 setlinecap
1 LJ
0.667 LW
N
159.8 367 M
159.8 362.66 L
S
GR
GS
[0.75 0 0 0.75 0 0] CT
0.149 GC
2 setlinecap
1 LJ
0.667 LW
N
203.2 367 M
203.2 362.66 L
S
GR
GS
[0.75 0 0 0.75 0 0] CT
0.149 GC
2 setlinecap
1 LJ
0.667 LW
N
246.6 367 M
246.6 362.66 L
S
GR
GS
[0.75 0 0 0.75 0 0] CT
0.149 GC
2 setlinecap
1 LJ
0.667 LW
N
290 367 M
290 362.66 L
S
GR
GS
[0.75 0 0 0.75 0 0] CT
0.149 GC
2 setlinecap
1 LJ
0.667 LW
N
333.4 367 M
333.4 362.66 L
S
GR
GS
[0.75 0 0 0.75 0 0] CT
0.149 GC
2 setlinecap
1 LJ
0.667 LW
N
376.8 367 M
376.8 362.66 L
S
GR
GS
[0.75 0 0 0.75 0 0] CT
0.149 GC
2 setlinecap
1 LJ
0.667 LW
N
420.2 367 M
420.2 362.66 L
S
GR
GS
[0.75 0 0 0.75 0 0] CT
0.149 GC
2 setlinecap
1 LJ
0.667 LW
N
463.6 367 M
463.6 362.66 L
S
GR
GS
[0.75 0 0 0.75 0 0] CT
0.149 GC
2 setlinecap
1 LJ
0.667 LW
N
507 367 M
507 362.66 L
S
GR
GS
[0.75 0 0 0.75 0 0] CT
0.149 GC
2 setlinecap
1 LJ
0.667 LW
N
73 31 M
73 35.34 L
S
GR
GS
[0.75 0 0 0.75 0 0] CT
0.149 GC
2 setlinecap
1 LJ
0.667 LW
N
116.4 31 M
116.4 35.34 L
S
GR
GS
[0.75 0 0 0.75 0 0] CT
0.149 GC
2 setlinecap
1 LJ
0.667 LW
N
159.8 31 M
159.8 35.34 L
S
GR
GS
[0.75 0 0 0.75 0 0] CT
0.149 GC
2 setlinecap
1 LJ
0.667 LW
N
203.2 31 M
203.2 35.34 L
S
GR
GS
[0.75 0 0 0.75 0 0] CT
0.149 GC
2 setlinecap
1 LJ
0.667 LW
N
246.6 31 M
246.6 35.34 L
S
GR
GS
[0.75 0 0 0.75 0 0] CT
0.149 GC
2 setlinecap
1 LJ
0.667 LW
N
290 31 M
290 35.34 L
S
GR
GS
[0.75 0 0 0.75 0 0] CT
0.149 GC
2 setlinecap
1 LJ
0.667 LW
N
333.4 31 M
333.4 35.34 L
S
GR
GS
[0.75 0 0 0.75 0 0] CT
0.149 GC
2 setlinecap
1 LJ
0.667 LW
N
376.8 31 M
376.8 35.34 L
S
GR
GS
[0.75 0 0 0.75 0 0] CT
0.149 GC
2 setlinecap
1 LJ
0.667 LW
N
420.2 31 M
420.2 35.34 L
S
GR
GS
[0.75 0 0 0.75 0 0] CT
0.149 GC
2 setlinecap
1 LJ
0.667 LW
N
463.6 31 M
463.6 35.34 L
S
GR
GS
[0.75 0 0 0.75 0 0] CT
0.149 GC
2 setlinecap
1 LJ
0.667 LW
N
507 31 M
507 35.34 L
S
GR
GS
[0.75 0 0 0.75 54.75 279.25001] CT
0.149 GC
/Helvetica 13.333 F
GS
[1 0 0 1 0 0] CT
-4 14 moveto 
1 -1 scale
(0) t 
GR
GR
GS
[0.75 0 0 0.75 87.3 279.25001] CT
0.149 GC
/Helvetica 13.333 F
GS
[1 0 0 1 0 0] CT
-4 14 moveto 
1 -1 scale
(5) t 
GR
GR
GS
[0.75 0 0 0.75 119.85 279.25001] CT
0.149 GC
/Helvetica 13.333 F
GS
[1 0 0 1 0 0] CT
-7.5 14 moveto 
1 -1 scale
(10) t 
GR
GR
GS
[0.75 0 0 0.75 152.4 279.25001] CT
0.149 GC
/Helvetica 13.333 F
GS
[1 0 0 1 0 0] CT
-7.5 14 moveto 
1 -1 scale
(15) t 
GR
GR
GS
[0.75 0 0 0.75 184.95 279.25001] CT
0.149 GC
/Helvetica 13.333 F
GS
[1 0 0 1 0 0] CT
-7.5 14 moveto 
1 -1 scale
(20) t 
GR
GR
GS
[0.75 0 0 0.75 217.5 279.25001] CT
0.149 GC
/Helvetica 13.333 F
GS
[1 0 0 1 0 0] CT
-7.5 14 moveto 
1 -1 scale
(25) t 
GR
GR
GS
[0.75 0 0 0.75 250.05 279.25001] CT
0.149 GC
/Helvetica 13.333 F
GS
[1 0 0 1 0 0] CT
-7.5 14 moveto 
1 -1 scale
(30) t 
GR
GR
GS
[0.75 0 0 0.75 282.59999 279.25001] CT
0.149 GC
/Helvetica 13.333 F
GS
[1 0 0 1 0 0] CT
-7.5 14 moveto 
1 -1 scale
(35) t 
GR
GR
GS
[0.75 0 0 0.75 315.15001 279.25001] CT
0.149 GC
/Helvetica 13.333 F
GS
[1 0 0 1 0 0] CT
-7.5 14 moveto 
1 -1 scale
(40) t 
GR
GR
GS
[0.75 0 0 0.75 347.7 279.25001] CT
0.149 GC
/Helvetica 13.333 F
GS
[1 0 0 1 0 0] CT
-7.5 14 moveto 
1 -1 scale
(45) t 
GR
GR
GS
[0.75 0 0 0.75 380.25 279.25001] CT
0.149 GC
/Helvetica 13.333 F
GS
[1 0 0 1 0 0] CT
-7.5 14 moveto 
1 -1 scale
(50) t 
GR
GR
GS
[0.75 0 0 0.75 217.50016 292.92407] CT
0.149 GC
N
-73.72 19.593 M
-73.72 16.093 L
-73.72 15.968 -73.595 15.968 QT
-73.408 15.968 L
-73.361 15.968 -73.322 16.007 QT
-73.283 16.046 -73.283 16.093 QT
-73.283 17.561 -72.376 18.366 QT
-71.47 19.171 -69.986 19.171 QT
-69.47 19.171 -69.025 18.874 QT
-68.579 18.577 -68.337 18.093 QT
-68.095 17.608 -68.095 17.077 QT
-68.095 16.624 -68.283 16.194 QT
-68.47 15.765 -68.814 15.452 QT
-69.158 15.14 -69.579 15.03 QT
-71.533 14.561 L
-72.501 14.311 -73.111 13.515 QT
-73.72 12.718 -73.72 11.733 QT
-73.72 10.952 -73.322 10.272 QT
-72.923 9.593 -72.259 9.194 QT
-71.595 8.796 -70.814 8.796 QT
-69.314 8.796 -68.423 9.811 QT
-67.814 8.843 L
-67.767 8.796 -67.704 8.796 QT
-67.611 8.796 L
-67.564 8.796 -67.525 8.827 QT
-67.486 8.858 -67.486 8.921 QT
-67.486 12.405 L
-67.486 12.53 -67.611 12.53 QT
-67.783 12.53 L
-67.923 12.53 -67.923 12.405 QT
-67.923 12.015 -68.048 11.561 QT
-68.173 11.108 -68.4 10.694 QT
-68.626 10.28 -68.892 10.015 QT
-69.626 9.28 -70.814 9.28 QT
-71.329 9.28 -71.759 9.538 QT
-72.189 9.796 -72.447 10.249 QT
-72.704 10.702 -72.704 11.186 QT
-72.704 11.827 -72.306 12.351 QT
-71.908 12.874 -71.267 13.046 QT
-69.314 13.515 L
-68.829 13.64 -68.4 13.944 QT
-67.97 14.249 -67.689 14.647 QT
-67.408 15.046 -67.244 15.546 QT
-67.079 16.046 -67.079 16.561 QT
-67.079 17.374 -67.454 18.101 QT
-67.829 18.827 -68.501 19.265 QT
-69.173 19.702 -69.986 19.702 QT
-70.486 19.702 -71.001 19.593 QT
-71.517 19.483 -71.962 19.257 QT
-72.408 19.03 -72.767 18.671 QT
-73.392 19.655 L
-73.439 19.702 -73.501 19.702 QT
-73.595 19.702 L
-73.72 19.702 -73.72 19.593 QT
cp
f
GR
GS
[0.75 0 0 0.75 217.50016 292.92407] CT
0.149 GC
N
-64.884 17.577 M
-64.884 13.436 L
-66.134 13.436 L
-66.134 13.046 L
-65.15 13.046 -64.689 12.132 QT
-64.228 11.218 -64.228 10.14 QT
-63.791 10.14 L
-63.791 12.905 L
-61.681 12.905 L
-61.681 13.436 L
-63.791 13.436 L
-63.791 17.546 L
-63.791 18.171 -63.58 18.64 QT
-63.369 19.108 -62.838 19.108 QT
-62.322 19.108 -62.095 18.608 QT
-61.869 18.108 -61.869 17.546 QT
-61.869 16.655 L
-61.431 16.655 L
-61.431 17.577 L
-61.431 18.046 -61.603 18.499 QT
-61.775 18.952 -62.111 19.249 QT
-62.447 19.546 -62.931 19.546 QT
-63.838 19.546 -64.361 19.007 QT
-64.884 18.468 -64.884 17.577 QT
cp
f
GR
GS
[0.75 0 0 0.75 217.50016 292.92407] CT
0.149 GC
N
-60.321 19.374 M
-60.321 18.843 L
-59.806 18.843 -59.478 18.765 QT
-59.149 18.686 -59.149 18.374 QT
-59.149 14.28 L
-59.149 13.874 -59.274 13.694 QT
-59.399 13.515 -59.626 13.476 QT
-59.853 13.436 -60.321 13.436 QT
-60.321 12.905 L
-58.181 12.749 L
-58.181 14.218 L
-57.931 13.561 -57.485 13.155 QT
-57.04 12.749 -56.399 12.749 QT
-55.962 12.749 -55.61 13.015 QT
-55.259 13.28 -55.259 13.702 QT
-55.259 13.983 -55.454 14.179 QT
-55.649 14.374 -55.931 14.374 QT
-56.212 14.374 -56.407 14.179 QT
-56.603 13.983 -56.603 13.702 QT
-56.603 13.296 -56.321 13.14 QT
-56.399 13.14 L
-57.009 13.14 -57.392 13.577 QT
-57.774 14.015 -57.939 14.663 QT
-58.103 15.311 -58.103 15.905 QT
-58.103 18.374 L
-58.103 18.843 -56.649 18.843 QT
-56.649 19.374 L
-60.321 19.374 L
cp
f
GR
GS
[0.75 0 0 0.75 217.50016 292.92407] CT
0.149 GC
N
-51.218 19.546 M
-52.124 19.546 -52.889 19.085 QT
-53.655 18.624 -54.1 17.858 QT
-54.546 17.093 -54.546 16.186 QT
-54.546 15.499 -54.303 14.858 QT
-54.061 14.218 -53.6 13.718 QT
-53.139 13.218 -52.53 12.936 QT
-51.921 12.655 -51.218 12.655 QT
-50.296 12.655 -49.538 13.14 QT
-48.78 13.624 -48.343 14.444 QT
-47.905 15.265 -47.905 16.186 QT
-47.905 17.077 -48.35 17.851 QT
-48.796 18.624 -49.561 19.085 QT
-50.327 19.546 -51.218 19.546 QT
cp
-51.218 19.108 M
-50.014 19.108 -49.616 18.233 QT
-49.218 17.358 -49.218 16.015 QT
-49.218 15.265 -49.296 14.765 QT
-49.374 14.265 -49.639 13.858 QT
-49.811 13.624 -50.069 13.436 QT
-50.327 13.249 -50.616 13.147 QT
-50.905 13.046 -51.218 13.046 QT
-51.686 13.046 -52.108 13.257 QT
-52.53 13.468 -52.811 13.858 QT
-53.093 14.296 -53.163 14.804 QT
-53.233 15.311 -53.233 16.015 QT
-53.233 16.858 -53.093 17.53 QT
-52.952 18.202 -52.507 18.655 QT
-52.061 19.108 -51.218 19.108 QT
cp
f
GR
GS
[0.75 0 0 0.75 217.50016 292.92407] CT
0.149 GC
N
-47.181 19.374 M
-47.181 18.843 L
-46.681 18.843 -46.345 18.765 QT
-46.009 18.686 -46.009 18.374 QT
-46.009 14.28 L
-46.009 13.874 -46.134 13.694 QT
-46.259 13.515 -46.486 13.476 QT
-46.712 13.436 -47.181 13.436 QT
-47.181 12.905 L
-45.009 12.749 L
-45.009 14.218 L
-44.712 13.561 -44.119 13.155 QT
-43.525 12.749 -42.837 12.749 QT
-41.103 12.749 -40.806 14.155 QT
-40.509 13.515 -39.931 13.132 QT
-39.353 12.749 -38.665 12.749 QT
-37.978 12.749 -37.517 12.968 QT
-37.056 13.186 -36.822 13.64 QT
-36.587 14.093 -36.587 14.765 QT
-36.587 18.374 L
-36.587 18.686 -36.251 18.765 QT
-35.915 18.843 -35.415 18.843 QT
-35.415 19.374 L
-38.837 19.374 L
-38.837 18.843 L
-38.337 18.843 -38.001 18.765 QT
-37.665 18.686 -37.665 18.374 QT
-37.665 14.811 L
-37.665 14.061 -37.884 13.601 QT
-38.103 13.14 -38.759 13.14 QT
-39.619 13.14 -40.181 13.835 QT
-40.744 14.53 -40.744 15.405 QT
-40.744 18.374 L
-40.744 18.686 -40.415 18.765 QT
-40.087 18.843 -39.572 18.843 QT
-39.572 19.374 L
-43.009 19.374 L
-43.009 18.843 L
-42.494 18.843 -42.165 18.765 QT
-41.837 18.686 -41.837 18.374 QT
-41.837 14.811 L
-41.837 14.077 -42.048 13.608 QT
-42.259 13.14 -42.931 13.14 QT
-43.79 13.14 -44.353 13.835 QT
-44.915 14.53 -44.915 15.405 QT
-44.915 18.374 L
-44.915 18.686 -44.587 18.765 QT
-44.259 18.843 -43.759 18.843 QT
-43.759 19.374 L
-47.181 19.374 L
cp
f
GR
GS
[0.75 0 0 0.75 217.50016 292.92407] CT
0.149 GC
N
-34.912 19.421 M
-34.912 16.968 L
-34.912 16.858 -34.787 16.858 QT
-34.599 16.858 L
-34.506 16.858 -34.474 16.968 QT
-34.068 19.14 -32.459 19.14 QT
-31.756 19.14 -31.271 18.819 QT
-30.787 18.499 -30.787 17.827 QT
-30.787 17.343 -31.162 17.007 QT
-31.537 16.671 -32.053 16.546 QT
-33.053 16.343 L
-33.553 16.233 -33.967 16.007 QT
-34.381 15.78 -34.646 15.405 QT
-34.912 15.03 -34.912 14.53 QT
-34.912 13.858 -34.568 13.444 QT
-34.224 13.03 -33.662 12.843 QT
-33.099 12.655 -32.459 12.655 QT
-31.693 12.655 -31.115 13.061 QT
-30.693 12.686 L
-30.693 12.655 -30.615 12.655 QT
-30.506 12.655 L
-30.459 12.655 -30.42 12.694 QT
-30.381 12.733 -30.381 12.78 QT
-30.381 14.733 L
-30.381 14.874 -30.506 14.874 QT
-30.693 14.874 L
-30.818 14.874 -30.818 14.733 QT
-30.818 13.952 -31.256 13.476 QT
-31.693 12.999 -32.474 12.999 QT
-33.146 12.999 -33.638 13.249 QT
-34.131 13.499 -34.131 14.108 QT
-34.131 14.53 -33.779 14.796 QT
-33.428 15.061 -32.943 15.171 QT
-31.928 15.374 L
-31.428 15.483 -30.982 15.765 QT
-30.537 16.046 -30.279 16.468 QT
-30.021 16.89 -30.021 17.421 QT
-30.021 17.968 -30.201 18.366 QT
-30.381 18.765 -30.717 19.03 QT
-31.053 19.296 -31.506 19.421 QT
-31.959 19.546 -32.459 19.546 QT
-33.396 19.546 -34.068 18.905 QT
-34.615 19.499 L
-34.615 19.546 -34.693 19.546 QT
-34.787 19.546 L
-34.912 19.546 -34.912 19.421 QT
cp
f
GR
GS
[0.75 0 0 0.75 217.50016 292.92407] CT
0.149 GC
N
-28.095 17.577 M
-28.095 13.436 L
-29.345 13.436 L
-29.345 13.046 L
-28.361 13.046 -27.9 12.132 QT
-27.439 11.218 -27.439 10.14 QT
-27.002 10.14 L
-27.002 12.905 L
-24.892 12.905 L
-24.892 13.436 L
-27.002 13.436 L
-27.002 17.546 L
-27.002 18.171 -26.791 18.64 QT
-26.58 19.108 -26.049 19.108 QT
-25.533 19.108 -25.306 18.608 QT
-25.08 18.108 -25.08 17.546 QT
-25.08 16.655 L
-24.642 16.655 L
-24.642 17.577 L
-24.642 18.046 -24.814 18.499 QT
-24.986 18.952 -25.322 19.249 QT
-25.658 19.546 -26.142 19.546 QT
-27.049 19.546 -27.572 19.007 QT
-28.095 18.468 -28.095 17.577 QT
cp
f
GR
GS
[0.75 0 0 0.75 217.50016 292.92407] CT
0.149 GC
N
-22.407 10.108 M
-22.407 9.796 -22.181 9.569 QT
-21.954 9.343 -21.626 9.343 QT
-21.298 9.343 -21.071 9.569 QT
-20.845 9.796 -20.845 10.108 QT
-20.845 10.452 -21.071 10.679 QT
-21.298 10.905 -21.626 10.905 QT
-21.954 10.905 -22.181 10.671 QT
-22.407 10.436 -22.407 10.108 QT
cp
-19.517 10.108 M
-19.517 9.796 -19.29 9.569 QT
-19.064 9.343 -18.735 9.343 QT
-18.407 9.343 -18.181 9.569 QT
-17.954 9.796 -17.954 10.108 QT
-17.954 10.452 -18.181 10.679 QT
-18.407 10.905 -18.735 10.905 QT
-19.064 10.905 -19.29 10.671 QT
-19.517 10.436 -19.517 10.108 QT
cp
f
GR
GS
[0.75 0 0 0.75 217.50016 292.92407] CT
0.149 GC
N
-23.329 17.905 M
-23.329 17.015 -22.626 16.452 QT
-21.923 15.89 -20.931 15.655 QT
-19.939 15.421 -19.064 15.421 QT
-19.064 14.811 L
-19.064 14.374 -19.251 13.968 QT
-19.439 13.561 -19.798 13.304 QT
-20.157 13.046 -20.595 13.046 QT
-21.579 13.046 -22.11 13.499 QT
-21.814 13.499 -21.634 13.71 QT
-21.454 13.921 -21.454 14.218 QT
-21.454 14.515 -21.665 14.726 QT
-21.876 14.936 -22.157 14.936 QT
-22.47 14.936 -22.681 14.726 QT
-22.892 14.515 -22.892 14.218 QT
-22.892 13.421 -22.173 13.038 QT
-21.454 12.655 -20.595 12.655 QT
-19.985 12.655 -19.368 12.913 QT
-18.751 13.171 -18.36 13.655 QT
-17.97 14.14 -17.97 14.78 QT
-17.97 18.155 L
-17.97 18.452 -17.845 18.694 QT
-17.72 18.936 -17.454 18.936 QT
-17.204 18.936 -17.087 18.686 QT
-16.97 18.436 -16.97 18.155 QT
-16.97 17.202 L
-16.532 17.202 L
-16.532 18.155 L
-16.532 18.499 -16.704 18.804 QT
-16.876 19.108 -17.173 19.288 QT
-17.47 19.468 -17.814 19.468 QT
-18.251 19.468 -18.571 19.124 QT
-18.892 18.78 -18.923 18.311 QT
-19.204 18.874 -19.743 19.21 QT
-20.282 19.546 -20.907 19.546 QT
-21.47 19.546 -22.025 19.374 QT
-22.579 19.202 -22.954 18.843 QT
-23.329 18.483 -23.329 17.905 QT
cp
-22.11 17.905 M
-22.11 18.436 -21.72 18.788 QT
-21.329 19.14 -20.798 19.14 QT
-20.314 19.14 -19.923 18.905 QT
-19.532 18.671 -19.298 18.249 QT
-19.064 17.827 -19.064 17.374 QT
-19.064 15.811 L
-19.735 15.811 -20.454 16.03 QT
-21.173 16.249 -21.642 16.726 QT
-22.11 17.202 -22.11 17.905 QT
cp
f
GR
GS
[0.75 0 0 0.75 217.50016 292.92407] CT
0.149 GC
N
-16.199 19.374 M
-16.199 18.843 L
-15.683 18.843 -15.355 18.765 QT
-15.027 18.686 -15.027 18.374 QT
-15.027 14.28 L
-15.027 13.874 -15.152 13.694 QT
-15.277 13.515 -15.504 13.476 QT
-15.73 13.436 -16.199 13.436 QT
-16.199 12.905 L
-14.058 12.749 L
-14.058 14.218 L
-13.808 13.561 -13.363 13.155 QT
-12.918 12.749 -12.277 12.749 QT
-11.84 12.749 -11.488 13.015 QT
-11.137 13.28 -11.137 13.702 QT
-11.137 13.983 -11.332 14.179 QT
-11.527 14.374 -11.808 14.374 QT
-12.09 14.374 -12.285 14.179 QT
-12.48 13.983 -12.48 13.702 QT
-12.48 13.296 -12.199 13.14 QT
-12.277 13.14 L
-12.887 13.14 -13.269 13.577 QT
-13.652 14.015 -13.816 14.663 QT
-13.98 15.311 -13.98 15.905 QT
-13.98 18.374 L
-13.98 18.843 -12.527 18.843 QT
-12.527 19.374 L
-16.199 19.374 L
cp
f
GR
GS
[0.75 0 0 0.75 217.50016 292.92407] CT
0.149 GC
N
-10.455 19.374 M
-10.455 18.843 L
-9.939 18.843 -9.611 18.765 QT
-9.283 18.686 -9.283 18.374 QT
-9.283 10.499 L
-9.283 10.093 -9.408 9.913 QT
-9.533 9.733 -9.759 9.694 QT
-9.986 9.655 -10.455 9.655 QT
-10.455 9.124 L
-8.236 8.968 L
-8.236 16.093 L
-6.22 14.327 L
-5.923 14.03 -5.923 13.796 QT
-5.923 13.624 -6.048 13.53 QT
-6.173 13.436 -6.345 13.436 QT
-6.345 12.905 L
-3.533 12.905 L
-3.533 13.436 L
-4.548 13.436 -5.564 14.327 QT
-6.626 15.249 L
-4.72 17.968 L
-4.33 18.53 -4.064 18.686 QT
-3.798 18.843 -3.173 18.843 QT
-3.173 19.374 L
-6.158 19.374 L
-6.158 18.843 L
-5.658 18.843 -5.658 18.53 QT
-5.658 18.311 -5.923 17.968 QT
-7.361 15.905 L
-8.283 16.702 L
-8.283 18.374 L
-8.283 18.686 -7.947 18.765 QT
-7.611 18.843 -7.111 18.843 QT
-7.111 19.374 L
-10.455 19.374 L
cp
f
GR
GS
[0.75 0 0 0.75 217.50016 292.92407] CT
0.149 GC
N
0.223 19.546 M
-0.699 19.546 -1.457 19.061 QT
-2.215 18.577 -2.652 17.78 QT
-3.09 16.983 -3.09 16.093 QT
-3.09 15.202 -2.692 14.413 QT
-2.293 13.624 -1.582 13.14 QT
-0.871 12.655 0.004 12.655 QT
0.707 12.655 1.215 12.882 QT
1.723 13.108 2.051 13.522 QT
2.379 13.936 2.543 14.491 QT
2.707 15.046 2.707 15.718 QT
2.707 15.905 2.566 15.905 QT
-1.777 15.905 L
-1.777 16.077 L
-1.777 17.311 -1.277 18.21 QT
-0.777 19.108 0.363 19.108 QT
0.816 19.108 1.207 18.897 QT
1.598 18.686 1.887 18.327 QT
2.176 17.968 2.285 17.546 QT
2.301 17.499 2.34 17.452 QT
2.379 17.405 2.426 17.405 QT
2.566 17.405 L
2.707 17.405 2.707 17.608 QT
2.504 18.452 1.801 18.999 QT
1.098 19.546 0.223 19.546 QT
cp
-1.762 15.53 M
1.644 15.53 L
1.644 14.968 1.488 14.39 QT
1.332 13.811 0.965 13.429 QT
0.598 13.046 0.004 13.046 QT
-0.84 13.046 -1.301 13.843 QT
-1.762 14.64 -1.762 15.53 QT
cp
f
GR
GS
[0.75 0 0 0.75 217.50016 292.92407] CT
0.149 GC
N
8.364 19.374 M
8.364 18.843 L
8.864 18.843 9.2 18.765 QT
9.536 18.686 9.536 18.374 QT
9.536 14.28 L
9.536 13.702 9.31 13.569 QT
9.083 13.436 8.427 13.436 QT
8.427 12.905 L
10.583 12.749 L
10.583 18.374 L
10.583 18.686 10.872 18.765 QT
11.161 18.843 11.63 18.843 QT
11.63 19.374 L
8.364 19.374 L
cp
8.989 10.171 M
8.989 9.843 9.239 9.593 QT
9.489 9.343 9.817 9.343 QT
10.021 9.343 10.224 9.452 QT
10.427 9.561 10.536 9.757 QT
10.646 9.952 10.646 10.171 QT
10.646 10.483 10.396 10.733 QT
10.146 10.983 9.817 10.983 QT
9.489 10.983 9.239 10.733 QT
8.989 10.483 8.989 10.171 QT
cp
f
GR
GS
[0.75 0 0 0.75 217.50016 292.92407] CT
0.149 GC
N
12.423 19.374 M
12.423 18.843 L
12.923 18.843 13.259 18.765 QT
13.595 18.686 13.595 18.374 QT
13.595 14.28 L
13.595 13.874 13.47 13.694 QT
13.345 13.515 13.118 13.476 QT
12.892 13.436 12.423 13.436 QT
12.423 12.905 L
14.595 12.749 L
14.595 14.218 L
14.892 13.561 15.485 13.155 QT
16.079 12.749 16.767 12.749 QT
17.813 12.749 18.337 13.249 QT
18.86 13.749 18.86 14.765 QT
18.86 18.374 L
18.86 18.686 19.188 18.765 QT
19.517 18.843 20.032 18.843 QT
20.032 19.374 L
16.595 19.374 L
16.595 18.843 L
17.11 18.843 17.438 18.765 QT
17.767 18.686 17.767 18.374 QT
17.767 14.811 L
17.767 14.077 17.556 13.608 QT
17.345 13.14 16.673 13.14 QT
15.813 13.14 15.251 13.835 QT
14.688 14.53 14.688 15.405 QT
14.688 18.374 L
14.688 18.686 15.017 18.765 QT
15.345 18.843 15.845 18.843 QT
15.845 19.374 L
12.423 19.374 L
cp
f
GR
GS
[0.75 0 0 0.75 217.50016 292.92407] CT
0.149 GC
N
35.491 9.452 M
35.491 8.921 L
37.366 8.921 37.366 8.452 QT
37.366 0.577 L
36.584 0.952 35.397 0.952 QT
35.397 0.421 L
37.241 0.421 38.178 -0.533 QT
38.397 -0.533 L
38.444 -0.533 38.491 -0.493 QT
38.538 -0.454 38.538 -0.408 QT
38.538 8.452 L
38.538 8.921 40.413 8.921 QT
40.413 9.452 L
35.491 9.452 L
cp
f
GR
GS
[0.75 0 0 0.75 217.50016 292.92407] CT
0.149 GC
N
26.767 15.414 22 0.587 re
f
GR
GS
[0.75 0 0 0.75 217.50016 292.92407] CT
0.149 GC
N
28.157 29.435 M
28.157 28.903 L
30.032 28.903 30.032 28.435 QT
30.032 20.56 L
29.251 20.935 28.064 20.935 QT
28.064 20.403 L
29.907 20.403 30.845 19.45 QT
31.064 19.45 L
31.11 19.45 31.157 19.489 QT
31.204 19.528 31.204 19.575 QT
31.204 28.435 L
31.204 28.903 33.079 28.903 QT
33.079 29.435 L
28.157 29.435 L
cp
f
GR
GS
[0.75 0 0 0.75 217.50016 292.92407] CT
0.149 GC
N
37.85 29.763 M
36.006 29.763 35.35 28.247 QT
34.694 26.731 34.694 24.653 QT
34.694 23.341 34.928 22.192 QT
35.163 21.044 35.866 20.247 QT
36.569 19.45 37.85 19.45 QT
38.834 19.45 39.467 19.927 QT
40.1 20.403 40.428 21.169 QT
40.756 21.935 40.881 22.81 QT
41.006 23.685 41.006 24.653 QT
41.006 25.935 40.764 27.06 QT
40.522 28.185 39.827 28.974 QT
39.131 29.763 37.85 29.763 QT
cp
37.85 29.372 M
38.678 29.372 39.092 28.52 QT
39.506 27.669 39.6 26.622 QT
39.694 25.575 39.694 24.403 QT
39.694 23.278 39.6 22.325 QT
39.506 21.372 39.1 20.599 QT
38.694 19.825 37.85 19.825 QT
37.006 19.825 36.592 20.606 QT
36.178 21.388 36.084 22.333 QT
35.991 23.278 35.991 24.403 QT
35.991 25.247 36.03 25.989 QT
36.069 26.731 36.249 27.513 QT
36.428 28.294 36.819 28.833 QT
37.209 29.372 37.85 29.372 QT
cp
f
GR
GS
[0.75 0 0 0.75 217.50016 292.92407] CT
0.149 GC
N
45.183 29.763 M
43.34 29.763 42.683 28.247 QT
42.027 26.731 42.027 24.653 QT
42.027 23.341 42.262 22.192 QT
42.496 21.044 43.199 20.247 QT
43.902 19.45 45.183 19.45 QT
46.168 19.45 46.801 19.927 QT
47.433 20.403 47.762 21.169 QT
48.09 21.935 48.215 22.81 QT
48.34 23.685 48.34 24.653 QT
48.34 25.935 48.097 27.06 QT
47.855 28.185 47.16 28.974 QT
46.465 29.763 45.183 29.763 QT
cp
45.183 29.372 M
46.012 29.372 46.426 28.52 QT
46.84 27.669 46.933 26.622 QT
47.027 25.575 47.027 24.403 QT
47.027 23.278 46.933 22.325 QT
46.84 21.372 46.433 20.599 QT
46.027 19.825 45.183 19.825 QT
44.34 19.825 43.926 20.606 QT
43.512 21.388 43.418 22.333 QT
43.324 23.278 43.324 24.403 QT
43.324 25.247 43.363 25.989 QT
43.402 26.731 43.582 27.513 QT
43.762 28.294 44.152 28.833 QT
44.543 29.372 45.183 29.372 QT
cp
f
GR
GS
[0.75 0 0 0.75 217.50016 292.92407] CT
0.149 GC
N
57.181 23.124 M
57.181 8.124 L
59.244 8.124 L
59.244 8.718 L
57.791 8.718 L
57.791 22.53 L
59.244 22.53 L
59.244 23.124 L
57.181 23.124 L
cp
f
GR
GS
[0.75 0 0 0.75 217.50016 292.92407] CT
0.149 GC
N
59.974 19.374 M
59.974 18.843 L
61.318 18.843 61.615 17.968 QT
64.771 8.796 L
64.818 8.64 65.005 8.64 QT
65.208 8.64 L
65.396 8.64 65.443 8.796 QT
68.74 18.374 L
68.865 18.686 69.263 18.765 QT
69.662 18.843 70.24 18.843 QT
70.24 19.374 L
66.052 19.374 L
66.052 18.843 L
67.302 18.843 67.302 18.436 QT
67.302 18.374 L
66.49 16.03 L
62.849 16.03 L
62.177 17.968 L
62.162 18.015 62.162 18.108 QT
62.162 18.483 62.521 18.663 QT
62.88 18.843 63.287 18.843 QT
63.287 19.374 L
59.974 19.374 L
cp
63.021 15.499 M
66.318 15.499 L
64.662 10.718 L
63.021 15.499 L
cp
f
GR
GS
[0.75 0 0 0.75 217.50016 292.92407] CT
0.149 GC
N
70.818 23.124 M
70.818 22.53 L
72.271 22.53 L
72.271 8.718 L
70.818 8.718 L
70.818 8.124 L
72.88 8.124 L
72.88 23.124 L
70.818 23.124 L
cp
f
GR
GS
[0.75 0 0 0.75 0 0] CT
0.149 GC
2 setlinecap
1 LJ
0.667 LW
N
73 367 M
73 31 L
S
GR
GS
[0.75 0 0 0.75 0 0] CT
0.149 GC
2 setlinecap
1 LJ
0.667 LW
N
507 367 M
507 31 L
S
GR
GS
[0.75 0 0 0.75 0 0] CT
0.149 GC
2 setlinecap
1 LJ
0.667 LW
N
73 367 M
77.34 367 L
S
GR
GS
[0.75 0 0 0.75 0 0] CT
0.149 GC
2 setlinecap
1 LJ
0.667 LW
N
73 319 M
77.34 319 L
S
GR
GS
[0.75 0 0 0.75 0 0] CT
0.149 GC
2 setlinecap
1 LJ
0.667 LW
N
73 271 M
77.34 271 L
S
GR
GS
[0.75 0 0 0.75 0 0] CT
0.149 GC
2 setlinecap
1 LJ
0.667 LW
N
73 223 M
77.34 223 L
S
GR
GS
[0.75 0 0 0.75 0 0] CT
0.149 GC
2 setlinecap
1 LJ
0.667 LW
N
73 175 M
77.34 175 L
S
GR
GS
[0.75 0 0 0.75 0 0] CT
0.149 GC
2 setlinecap
1 LJ
0.667 LW
N
73 127 M
77.34 127 L
S
GR
GS
[0.75 0 0 0.75 0 0] CT
0.149 GC
2 setlinecap
1 LJ
0.667 LW
N
73 79 M
77.34 79 L
S
GR
GS
[0.75 0 0 0.75 0 0] CT
0.149 GC
2 setlinecap
1 LJ
0.667 LW
N
73 31 M
77.34 31 L
S
GR
GS
[0.75 0 0 0.75 0 0] CT
0.149 GC
2 setlinecap
1 LJ
0.667 LW
N
507 367 M
502.66 367 L
S
GR
GS
[0.75 0 0 0.75 0 0] CT
0.149 GC
2 setlinecap
1 LJ
0.667 LW
N
507 319 M
502.66 319 L
S
GR
GS
[0.75 0 0 0.75 0 0] CT
0.149 GC
2 setlinecap
1 LJ
0.667 LW
N
507 271 M
502.66 271 L
S
GR
GS
[0.75 0 0 0.75 0 0] CT
0.149 GC
2 setlinecap
1 LJ
0.667 LW
N
507 223 M
502.66 223 L
S
GR
GS
[0.75 0 0 0.75 0 0] CT
0.149 GC
2 setlinecap
1 LJ
0.667 LW
N
507 175 M
502.66 175 L
S
GR
GS
[0.75 0 0 0.75 0 0] CT
0.149 GC
2 setlinecap
1 LJ
0.667 LW
N
507 127 M
502.66 127 L
S
GR
GS
[0.75 0 0 0.75 0 0] CT
0.149 GC
2 setlinecap
1 LJ
0.667 LW
N
507 79 M
502.66 79 L
S
GR
GS
[0.75 0 0 0.75 0 0] CT
0.149 GC
2 setlinecap
1 LJ
0.667 LW
N
507 31 M
502.66 31 L
S
GR
GS
[0.75 0 0 0.75 50.75 275.25] CT
0.149 GC
/Helvetica 13.333 F
GS
[1 0 0 1 0 0] CT
-8 5.5 moveto 
1 -1 scale
(0) t 
GR
GR
GS
[0.75 0 0 0.75 50.75 239.25] CT
0.149 GC
/Helvetica 13.333 F
GS
[1 0 0 1 0 0] CT
-15 5.5 moveto 
1 -1 scale
(20) t 
GR
GR
GS
[0.75 0 0 0.75 50.75 203.25] CT
0.149 GC
/Helvetica 13.333 F
GS
[1 0 0 1 0 0] CT
-15 5.5 moveto 
1 -1 scale
(40) t 
GR
GR
GS
[0.75 0 0 0.75 50.75 167.25] CT
0.149 GC
/Helvetica 13.333 F
GS
[1 0 0 1 0 0] CT
-15 5.5 moveto 
1 -1 scale
(60) t 
GR
GR
GS
[0.75 0 0 0.75 50.75 131.25] CT
0.149 GC
/Helvetica 13.333 F
GS
[1 0 0 1 0 0] CT
-15 5.5 moveto 
1 -1 scale
(80) t 
GR
GR
GS
[0.75 0 0 0.75 50.75 95.25] CT
0.149 GC
/Helvetica 13.333 F
GS
[1 0 0 1 0 0] CT
-23 5.5 moveto 
1 -1 scale
(100) t 
GR
GR
GS
[0.75 0 0 0.75 50.75 59.25] CT
0.149 GC
/Helvetica 13.333 F
GS
[1 0 0 1 0 0] CT
-23 5.5 moveto 
1 -1 scale
(120) t 
GR
GR
GS
[0.75 0 0 0.75 50.75 23.25] CT
0.149 GC
/Helvetica 13.333 F
GS
[1 0 0 1 0 0] CT
-23 5.5 moveto 
1 -1 scale
(140) t 
GR
GR
GS
[0 -0.75 0.75 0 30.5 149.24987] CT
0.149 GC
N
-51.305 -5.061 M
-51.305 -8.561 L
-51.305 -8.686 -51.18 -8.686 QT
-50.992 -8.686 L
-50.945 -8.686 -50.906 -8.647 QT
-50.867 -8.608 -50.867 -8.561 QT
-50.867 -7.093 -49.961 -6.288 QT
-49.055 -5.483 -47.57 -5.483 QT
-47.055 -5.483 -46.609 -5.78 QT
-46.164 -6.077 -45.922 -6.561 QT
-45.68 -7.046 -45.68 -7.577 QT
-45.68 -8.03 -45.867 -8.46 QT
-46.055 -8.889 -46.398 -9.202 QT
-46.742 -9.514 -47.164 -9.624 QT
-49.117 -10.093 L
-50.086 -10.343 -50.695 -11.139 QT
-51.305 -11.936 -51.305 -12.921 QT
-51.305 -13.702 -50.906 -14.382 QT
-50.508 -15.061 -49.844 -15.46 QT
-49.18 -15.858 -48.398 -15.858 QT
-46.898 -15.858 -46.008 -14.843 QT
-45.398 -15.811 L
-45.351 -15.858 -45.289 -15.858 QT
-45.195 -15.858 L
-45.148 -15.858 -45.109 -15.827 QT
-45.07 -15.796 -45.07 -15.733 QT
-45.07 -12.249 L
-45.07 -12.124 -45.195 -12.124 QT
-45.367 -12.124 L
-45.508 -12.124 -45.508 -12.249 QT
-45.508 -12.639 -45.633 -13.093 QT
-45.758 -13.546 -45.984 -13.96 QT
-46.211 -14.374 -46.476 -14.639 QT
-47.211 -15.374 -48.398 -15.374 QT
-48.914 -15.374 -49.344 -15.116 QT
-49.773 -14.858 -50.031 -14.405 QT
-50.289 -13.952 -50.289 -13.468 QT
-50.289 -12.827 -49.89 -12.303 QT
-49.492 -11.78 -48.851 -11.608 QT
-46.898 -11.139 L
-46.414 -11.014 -45.984 -10.71 QT
-45.555 -10.405 -45.273 -10.007 QT
-44.992 -9.608 -44.828 -9.108 QT
-44.664 -8.608 -44.664 -8.093 QT
-44.664 -7.28 -45.039 -6.553 QT
-45.414 -5.827 -46.086 -5.389 QT
-46.758 -4.952 -47.57 -4.952 QT
-48.07 -4.952 -48.586 -5.061 QT
-49.101 -5.171 -49.547 -5.397 QT
-49.992 -5.624 -50.351 -5.983 QT
-50.976 -4.999 L
-51.023 -4.952 -51.086 -4.952 QT
-51.18 -4.952 L
-51.305 -4.952 -51.305 -5.061 QT
cp
f
GR
GS
[0 -0.75 0.75 0 30.5 149.24987] CT
0.149 GC
N
-43.609 -2.374 M
-43.609 -2.889 L
-43.094 -2.889 -42.766 -2.975 QT
-42.438 -3.061 -42.438 -3.374 QT
-42.438 -10.608 L
-42.438 -11.014 -42.734 -11.116 QT
-43.031 -11.218 -43.609 -11.218 QT
-43.609 -11.749 L
-41.391 -11.905 L
-41.391 -10.983 L
-40.984 -11.436 -40.438 -11.671 QT
-39.891 -11.905 -39.281 -11.905 QT
-38.391 -11.905 -37.68 -11.428 QT
-36.969 -10.952 -36.57 -10.171 QT
-36.172 -9.389 -36.172 -8.514 QT
-36.172 -7.608 -36.617 -6.827 QT
-37.063 -6.046 -37.828 -5.577 QT
-38.594 -5.108 -39.5 -5.108 QT
-40.594 -5.108 -41.344 -5.999 QT
-41.344 -3.374 L
-41.344 -3.061 -41.016 -2.975 QT
-40.688 -2.889 -40.172 -2.889 QT
-40.172 -2.374 L
-43.609 -2.374 L
cp
-41.344 -6.733 M
-41.078 -6.202 -40.609 -5.858 QT
-40.141 -5.514 -39.594 -5.514 QT
-39.078 -5.514 -38.672 -5.788 QT
-38.266 -6.061 -38 -6.53 QT
-37.734 -6.999 -37.602 -7.514 QT
-37.469 -8.03 -37.469 -8.514 QT
-37.469 -9.124 -37.688 -9.819 QT
-37.906 -10.514 -38.352 -10.999 QT
-38.797 -11.483 -39.422 -11.483 QT
-40.031 -11.483 -40.539 -11.171 QT
-41.047 -10.858 -41.344 -10.327 QT
-41.344 -6.733 L
cp
f
GR
GS
[0 -0.75 0.75 0 30.5 149.24987] CT
0.149 GC
N
-35.258 -6.749 M
-35.258 -7.639 -34.555 -8.202 QT
-33.852 -8.764 -32.86 -8.999 QT
-31.868 -9.233 -30.993 -9.233 QT
-30.993 -9.843 L
-30.993 -10.28 -31.18 -10.686 QT
-31.368 -11.093 -31.727 -11.35 QT
-32.086 -11.608 -32.524 -11.608 QT
-33.508 -11.608 -34.039 -11.155 QT
-33.743 -11.155 -33.563 -10.944 QT
-33.383 -10.733 -33.383 -10.436 QT
-33.383 -10.139 -33.594 -9.928 QT
-33.805 -9.718 -34.086 -9.718 QT
-34.399 -9.718 -34.61 -9.928 QT
-34.821 -10.139 -34.821 -10.436 QT
-34.821 -11.233 -34.102 -11.616 QT
-33.383 -11.999 -32.524 -11.999 QT
-31.914 -11.999 -31.297 -11.741 QT
-30.68 -11.483 -30.289 -10.999 QT
-29.899 -10.514 -29.899 -9.874 QT
-29.899 -6.499 L
-29.899 -6.202 -29.774 -5.96 QT
-29.649 -5.718 -29.383 -5.718 QT
-29.133 -5.718 -29.016 -5.968 QT
-28.899 -6.218 -28.899 -6.499 QT
-28.899 -7.452 L
-28.461 -7.452 L
-28.461 -6.499 L
-28.461 -6.155 -28.633 -5.85 QT
-28.805 -5.546 -29.102 -5.366 QT
-29.399 -5.186 -29.743 -5.186 QT
-30.18 -5.186 -30.5 -5.53 QT
-30.821 -5.874 -30.852 -6.343 QT
-31.133 -5.78 -31.672 -5.444 QT
-32.211 -5.108 -32.836 -5.108 QT
-33.399 -5.108 -33.953 -5.28 QT
-34.508 -5.452 -34.883 -5.811 QT
-35.258 -6.171 -35.258 -6.749 QT
cp
-34.039 -6.749 M
-34.039 -6.218 -33.649 -5.866 QT
-33.258 -5.514 -32.727 -5.514 QT
-32.243 -5.514 -31.852 -5.749 QT
-31.461 -5.983 -31.227 -6.405 QT
-30.993 -6.827 -30.993 -7.28 QT
-30.993 -8.843 L
-31.664 -8.843 -32.383 -8.624 QT
-33.102 -8.405 -33.571 -7.928 QT
-34.039 -7.452 -34.039 -6.749 QT
cp
f
GR
GS
[0 -0.75 0.75 0 30.5 149.24987] CT
0.149 GC
N
-28.065 -5.28 M
-28.065 -5.811 L
-27.565 -5.811 -27.229 -5.889 QT
-26.894 -5.968 -26.894 -6.28 QT
-26.894 -10.374 L
-26.894 -10.78 -27.019 -10.96 QT
-27.144 -11.139 -27.37 -11.178 QT
-27.597 -11.218 -28.065 -11.218 QT
-28.065 -11.749 L
-25.894 -11.905 L
-25.894 -10.436 L
-25.597 -11.093 -25.003 -11.499 QT
-24.409 -11.905 -23.722 -11.905 QT
-22.675 -11.905 -22.151 -11.405 QT
-21.628 -10.905 -21.628 -9.889 QT
-21.628 -6.28 L
-21.628 -5.968 -21.3 -5.889 QT
-20.972 -5.811 -20.456 -5.811 QT
-20.456 -5.28 L
-23.894 -5.28 L
-23.894 -5.811 L
-23.378 -5.811 -23.05 -5.889 QT
-22.722 -5.968 -22.722 -6.28 QT
-22.722 -9.843 L
-22.722 -10.577 -22.933 -11.046 QT
-23.144 -11.514 -23.815 -11.514 QT
-24.675 -11.514 -25.237 -10.819 QT
-25.8 -10.124 -25.8 -9.249 QT
-25.8 -6.28 L
-25.8 -5.968 -25.472 -5.889 QT
-25.144 -5.811 -24.644 -5.811 QT
-24.644 -5.28 L
-28.065 -5.28 L
cp
f
GR
GS
[0 -0.75 0.75 0 30.5 149.24987] CT
0.149 GC
N
-19.917 -5.28 M
-19.917 -5.811 L
-19.417 -5.811 -19.081 -5.889 QT
-18.745 -5.968 -18.745 -6.28 QT
-18.745 -10.374 L
-18.745 -10.78 -18.87 -10.96 QT
-18.995 -11.139 -19.222 -11.178 QT
-19.449 -11.218 -19.917 -11.218 QT
-19.917 -11.749 L
-17.745 -11.905 L
-17.745 -10.436 L
-17.449 -11.093 -16.855 -11.499 QT
-16.261 -11.905 -15.574 -11.905 QT
-14.527 -11.905 -14.003 -11.405 QT
-13.48 -10.905 -13.48 -9.889 QT
-13.48 -6.28 L
-13.48 -5.968 -13.152 -5.889 QT
-12.824 -5.811 -12.308 -5.811 QT
-12.308 -5.28 L
-15.745 -5.28 L
-15.745 -5.811 L
-15.23 -5.811 -14.902 -5.889 QT
-14.574 -5.968 -14.574 -6.28 QT
-14.574 -9.843 L
-14.574 -10.577 -14.784 -11.046 QT
-14.995 -11.514 -15.667 -11.514 QT
-16.527 -11.514 -17.089 -10.819 QT
-17.652 -10.124 -17.652 -9.249 QT
-17.652 -6.28 L
-17.652 -5.968 -17.324 -5.889 QT
-16.995 -5.811 -16.495 -5.811 QT
-16.495 -5.28 L
-19.917 -5.28 L
cp
f
GR
GS
[0 -0.75 0.75 0 30.5 149.24987] CT
0.149 GC
N
-11.005 -7.061 M
-11.005 -10.374 L
-11.005 -10.78 -11.13 -10.96 QT
-11.255 -11.139 -11.481 -11.178 QT
-11.708 -11.218 -12.177 -11.218 QT
-12.177 -11.749 L
-9.911 -11.905 L
-9.911 -7.061 L
-9.911 -6.483 -9.825 -6.155 QT
-9.739 -5.827 -9.466 -5.671 QT
-9.192 -5.514 -8.598 -5.514 QT
-7.786 -5.514 -7.309 -6.186 QT
-6.833 -6.858 -6.833 -7.718 QT
-6.833 -10.374 L
-6.833 -10.78 -6.958 -10.96 QT
-7.083 -11.139 -7.309 -11.178 QT
-7.536 -11.218 -8.005 -11.218 QT
-8.005 -11.749 L
-5.739 -11.905 L
-5.739 -6.639 L
-5.739 -6.249 -5.622 -6.069 QT
-5.505 -5.889 -5.278 -5.85 QT
-5.052 -5.811 -4.567 -5.811 QT
-4.567 -5.28 L
-6.786 -5.108 L
-6.786 -6.374 L
-7.067 -5.811 -7.567 -5.46 QT
-8.067 -5.108 -8.661 -5.108 QT
-9.739 -5.108 -10.372 -5.569 QT
-11.005 -6.03 -11.005 -7.061 QT
cp
f
GR
GS
[0 -0.75 0.75 0 30.5 149.24987] CT
0.149 GC
N
-4.028 -5.28 M
-4.028 -5.811 L
-3.528 -5.811 -3.192 -5.889 QT
-2.856 -5.968 -2.856 -6.28 QT
-2.856 -10.374 L
-2.856 -10.78 -2.981 -10.96 QT
-3.106 -11.139 -3.333 -11.178 QT
-3.56 -11.218 -4.028 -11.218 QT
-4.028 -11.749 L
-1.856 -11.905 L
-1.856 -10.436 L
-1.56 -11.093 -0.966 -11.499 QT
-0.372 -11.905 0.315 -11.905 QT
1.362 -11.905 1.886 -11.405 QT
2.409 -10.905 2.409 -9.889 QT
2.409 -6.28 L
2.409 -5.968 2.737 -5.889 QT
3.065 -5.811 3.581 -5.811 QT
3.581 -5.28 L
0.144 -5.28 L
0.144 -5.811 L
0.659 -5.811 0.987 -5.889 QT
1.315 -5.968 1.315 -6.28 QT
1.315 -9.843 L
1.315 -10.577 1.104 -11.046 QT
0.894 -11.514 0.222 -11.514 QT
-0.638 -11.514 -1.2 -10.819 QT
-1.763 -10.124 -1.763 -9.249 QT
-1.763 -6.28 L
-1.763 -5.968 -1.435 -5.889 QT
-1.106 -5.811 -0.606 -5.811 QT
-0.606 -5.28 L
-4.028 -5.28 L
cp
f
GR
GS
[0 -0.75 0.75 0 30.5 149.24987] CT
0.149 GC
N
4.089 -4.108 M
4.089 -4.639 4.471 -5.038 QT
4.854 -5.436 5.401 -5.608 QT
5.089 -5.843 4.932 -6.186 QT
4.776 -6.53 4.776 -6.921 QT
4.776 -7.624 5.229 -8.155 QT
4.542 -8.827 4.542 -9.702 QT
4.542 -10.171 4.745 -10.585 QT
4.948 -10.999 5.307 -11.296 QT
5.667 -11.593 6.104 -11.749 QT
6.542 -11.905 6.995 -11.905 QT
7.885 -11.905 8.604 -11.389 QT
8.917 -11.718 9.339 -11.897 QT
9.76 -12.077 10.214 -12.077 QT
10.526 -12.077 10.729 -11.843 QT
10.932 -11.608 10.932 -11.296 QT
10.932 -11.108 10.8 -10.968 QT
10.667 -10.827 10.479 -10.827 QT
10.292 -10.827 10.151 -10.968 QT
10.01 -11.108 10.01 -11.296 QT
10.01 -11.577 10.198 -11.686 QT
9.417 -11.686 8.854 -11.139 QT
9.135 -10.874 9.3 -10.483 QT
9.464 -10.093 9.464 -9.702 QT
9.464 -9.061 9.112 -8.553 QT
8.76 -8.046 8.182 -7.764 QT
7.604 -7.483 6.995 -7.483 QT
6.182 -7.483 5.495 -7.936 QT
5.292 -7.639 5.292 -7.28 QT
5.292 -6.874 5.55 -6.577 QT
5.807 -6.28 6.198 -6.28 QT
7.432 -6.28 L
8.323 -6.28 9.042 -6.124 QT
9.76 -5.968 10.245 -5.483 QT
10.729 -4.999 10.729 -4.108 QT
10.729 -3.452 10.175 -3.014 QT
9.62 -2.577 8.846 -2.382 QT
8.073 -2.186 7.417 -2.186 QT
6.745 -2.186 5.971 -2.382 QT
5.198 -2.577 4.643 -3.014 QT
4.089 -3.452 4.089 -4.108 QT
cp
4.932 -4.108 M
4.932 -3.608 5.339 -3.264 QT
5.745 -2.921 6.323 -2.757 QT
6.901 -2.593 7.417 -2.593 QT
7.917 -2.593 8.495 -2.757 QT
9.073 -2.921 9.479 -3.264 QT
9.885 -3.608 9.885 -4.108 QT
9.885 -4.889 9.175 -5.124 QT
8.464 -5.358 7.432 -5.358 QT
6.198 -5.358 L
5.854 -5.358 5.565 -5.194 QT
5.276 -5.03 5.104 -4.733 QT
4.932 -4.436 4.932 -4.108 QT
cp
6.995 -7.889 M
8.276 -7.889 8.276 -9.702 QT
8.276 -10.483 8.003 -10.991 QT
7.729 -11.499 6.995 -11.499 QT
6.26 -11.499 5.995 -10.991 QT
5.729 -10.483 5.729 -9.702 QT
5.729 -9.202 5.831 -8.803 QT
5.932 -8.405 6.206 -8.147 QT
6.479 -7.889 6.995 -7.889 QT
cp
f
GR
GS
[0 -0.75 0.75 0 30.5 149.24987] CT
0.149 GC
N
16.358 -5.28 M
16.358 -5.811 L
16.858 -5.811 17.194 -5.889 QT
17.53 -5.968 17.53 -6.28 QT
17.53 -10.374 L
17.53 -10.952 17.303 -11.085 QT
17.076 -11.218 16.42 -11.218 QT
16.42 -11.749 L
18.576 -11.905 L
18.576 -6.28 L
18.576 -5.968 18.866 -5.889 QT
19.155 -5.811 19.623 -5.811 QT
19.623 -5.28 L
16.358 -5.28 L
cp
16.983 -14.483 M
16.983 -14.811 17.233 -15.061 QT
17.483 -15.311 17.811 -15.311 QT
18.014 -15.311 18.217 -15.202 QT
18.42 -15.093 18.53 -14.897 QT
18.639 -14.702 18.639 -14.483 QT
18.639 -14.171 18.389 -13.921 QT
18.139 -13.671 17.811 -13.671 QT
17.483 -13.671 17.233 -13.921 QT
16.983 -14.171 16.983 -14.483 QT
cp
f
GR
GS
[0 -0.75 0.75 0 30.5 149.24987] CT
0.149 GC
N
20.416 -5.28 M
20.416 -5.811 L
20.916 -5.811 21.252 -5.889 QT
21.588 -5.968 21.588 -6.28 QT
21.588 -10.374 L
21.588 -10.78 21.463 -10.96 QT
21.338 -11.139 21.111 -11.178 QT
20.885 -11.218 20.416 -11.218 QT
20.416 -11.749 L
22.588 -11.905 L
22.588 -10.436 L
22.885 -11.093 23.479 -11.499 QT
24.072 -11.905 24.76 -11.905 QT
25.807 -11.905 26.33 -11.405 QT
26.854 -10.905 26.854 -9.889 QT
26.854 -6.28 L
26.854 -5.968 27.182 -5.889 QT
27.51 -5.811 28.026 -5.811 QT
28.026 -5.28 L
24.588 -5.28 L
24.588 -5.811 L
25.104 -5.811 25.432 -5.889 QT
25.76 -5.968 25.76 -6.28 QT
25.76 -9.843 L
25.76 -10.577 25.549 -11.046 QT
25.338 -11.514 24.666 -11.514 QT
23.807 -11.514 23.244 -10.819 QT
22.682 -10.124 22.682 -9.249 QT
22.682 -6.28 L
22.682 -5.968 23.01 -5.889 QT
23.338 -5.811 23.838 -5.811 QT
23.838 -5.28 L
20.416 -5.28 L
cp
f
GR
GS
[0 -0.75 0.75 0 30.5 149.24987] CT
0.149 GC
N
34.766 -1.53 M
34.766 -16.53 L
36.828 -16.53 L
36.828 -15.936 L
35.375 -15.936 L
35.375 -2.124 L
36.828 -2.124 L
36.828 -1.53 L
34.766 -1.53 L
cp
f
GR
GS
[0 -0.75 0.75 0 30.5 149.24987] CT
0.149 GC
N
42.355 -5.108 M
38.824 -14.53 L
38.684 -14.843 38.309 -14.921 QT
37.934 -14.999 37.355 -14.999 QT
37.355 -15.53 L
41.48 -15.53 L
41.48 -14.999 L
40.246 -14.999 40.246 -14.608 QT
40.246 -14.593 40.246 -14.569 QT
40.246 -14.546 40.246 -14.53 QT
43.137 -6.874 L
45.855 -14.108 L
45.871 -14.171 45.871 -14.296 QT
45.871 -14.655 45.535 -14.827 QT
45.199 -14.999 44.793 -14.999 QT
44.793 -15.53 L
48.027 -15.53 L
48.027 -14.999 L
47.465 -14.999 47.035 -14.788 QT
46.605 -14.577 46.418 -14.108 QT
43.027 -5.108 L
42.98 -4.952 42.793 -4.952 QT
42.59 -4.952 L
42.402 -4.952 42.355 -5.108 QT
cp
f
GR
GS
[0 -0.75 0.75 0 30.5 149.24987] CT
0.149 GC
N
48.402 -1.53 M
48.402 -2.124 L
49.855 -2.124 L
49.855 -15.936 L
48.402 -15.936 L
48.402 -16.53 L
50.465 -16.53 L
50.465 -1.53 L
48.402 -1.53 L
cp
f
GR
GS
[0.75 0 0 0.75 61.26 271.43827] CT
1 0 0 RC
N
1.778 0 M
1.778 0.982 0.982 1.778 0 1.778 C
-0.982 1.778 -1.778 0.982 -1.778 0 C
-1.778 -0.982 -0.982 -1.778 0 -1.778 C
0.982 -1.778 1.778 -0.982 1.778 0 C
cp
f
GR
GS
[0.75 0 0 0.75 67.77 266.4459] CT
1 0 0 RC
N
/f-1290764029{1.778 0 M
1.778 0.982 0.982 1.778 0 1.778 C
-0.982 1.778 -1.778 0.982 -1.778 0 C
-1.778 -0.982 -0.982 -1.778 0 -1.778 C
0.982 -1.778 1.778 -0.982 1.778 0 C
cp}def
f-1290764029
f
GR
GS
[0.75 0 0 0.75 74.28 263.38287] CT
1 0 0 RC
N
f-1290764029
f
GR
GS
[0.75 0 0 0.75 80.79 258.23389] CT
1 0 0 RC
N
f-1290764029
f
GR
GS
[0.75 0 0 0.75 87.3 252.8719] CT
1 0 0 RC
N
f-1290764029
f
GR
GS
[0.75 0 0 0.75 93.81 249.88428] CT
1 0 0 RC
N
f-1290764029
f
GR
GS
[0.75 0 0 0.75 100.32 244.16018] CT
1 0 0 RC
N
f-1290764029
f
GR
GS
[0.75 0 0 0.75 106.83 240.61565] CT
1 0 0 RC
N
f-1290764029
f
GR
GS
[0.75 0 0 0.75 113.34 236.0294] CT
1 0 0 RC
N
f-1290764029
f
GR
GS
[0.75 0 0 0.75 119.85 230.12162] CT
1 0 0 RC
N
f-1290764029
f
GR
GS
[0.75 0 0 0.75 126.36 225.25957] CT
1 0 0 RC
N
f-1290764029
f
GR
GS
[0.75 0 0 0.75 132.87 221.69057] CT
1 0 0 RC
N
f-1290764029
f
GR
GS
[0.75 0 0 0.75 139.38 216.14317] CT
1 0 0 RC
N
f-1290764029
f
GR
GS
[0.75 0 0 0.75 145.89 213.25367] CT
1 0 0 RC
N
f-1290764029
f
GR
GS
[0.75 0 0 0.75 152.4 206.89421] CT
1 0 0 RC
N
f-1290764029
f
GR
GS
[0.75 0 0 0.75 158.91 203.38447] CT
1 0 0 RC
N
f-1290764029
f
GR
GS
[0.75 0 0 0.75 165.42 199.8861] CT
1 0 0 RC
N
f-1290764029
f
GR
GS
[0.75 0 0 0.75 171.93 195.88467] CT
1 0 0 RC
N
f-1290764029
f
GR
GS
[0.75 0 0 0.75 178.44 190.39169] CT
1 0 0 RC
N
f-1290764029
f
GR
GS
[0.75 0 0 0.75 184.95 186.65667] CT
1 0 0 RC
N
f-1290764029
f
GR
GS
[0.75 0 0 0.75 191.46 181.05699] CT
1 0 0 RC
N
f-1290764029
f
GR
GS
[0.75 0 0 0.75 197.96999 177.31899] CT
1 0 0 RC
N
f-1290764029
f
GR
GS
[0.75 0 0 0.75 204.48001 172.40592] CT
1 0 0 RC
N
f-1290764029
f
GR
GS
[0.75 0 0 0.75 210.99001 165.6353] CT
1 0 0 RC
N
f-1290764029
f
GR
GS
[0.75 0 0 0.75 217.5 164.46877] CT
1 0 0 RC
N
f-1290764029
f
GR
GS
[0.75 0 0 0.75 224.00999 158.4851] CT
1 0 0 RC
N
f-1290764029
f
GR
GS
[0.75 0 0 0.75 230.51999 154.37636] CT
1 0 0 RC
N
f-1290764029
f
GR
GS
[0.75 0 0 0.75 237.03001 147.73952] CT
1 0 0 RC
N
f-1290764029
f
GR
GS
[0.75 0 0 0.75 243.54 146.82484] CT
1 0 0 RC
N
f-1290764029
f
GR
GS
[0.75 0 0 0.75 250.05 141.47054] CT
1 0 0 RC
N
f-1290764029
f
GR
GS
[0.75 0 0 0.75 256.55999 135.8603] CT
1 0 0 RC
N
f-1290764029
f
GR
GS
[0.75 0 0 0.75 263.07001 130.53433] CT
1 0 0 RC
N
f-1290764029
f
GR
GS
[0.75 0 0 0.75 269.58 128.63636] CT
1 0 0 RC
N
f-1290764029
f
GR
GS
[0.75 0 0 0.75 276.09 121.15636] CT
1 0 0 RC
N
f-1290764029
f
GR
GS
[0.75 0 0 0.75 282.59999 116.87531] CT
1 0 0 RC
N
f-1290764029
f
GR
GS
[0.75 0 0 0.75 289.11001 111.7313] CT
1 0 0 RC
N
f-1290764029
f
GR
GS
[0.75 0 0 0.75 295.62 108.84893] CT
1 0 0 RC
N
f-1290764029
f
GR
GS
[0.75 0 0 0.75 302.13 102.5378] CT
1 0 0 RC
N
f-1290764029
f
GR
GS
[0.75 0 0 0.75 308.63999 100.59611] CT
1 0 0 RC
N
f-1290764029
f
GR
GS
[0.75 0 0 0.75 315.15001 96.55956] CT
1 0 0 RC
N
f-1290764029
f
GR
GS
[0.75 0 0 0.75 321.66 93.16537] CT
1 0 0 RC
N
f-1290764029
f
GR
GS
[0.75 0 0 0.75 328.17 86.40318] CT
1 0 0 RC
N
f-1290764029
f
GR
GS
[0.75 0 0 0.75 334.67999 82.83979] CT
1 0 0 RC
N
f-1290764029
f
GR
GS
[0.75 0 0 0.75 341.19001 77.7297] CT
1 0 0 RC
N
f-1290764029
f
GR
GS
[0.75 0 0 0.75 347.7 74.74064] CT
1 0 0 RC
N
f-1290764029
f
GR
GS
[0.75 0 0 0.75 354.21 69.55249] CT
1 0 0 RC
N
f-1290764029
f
GR
GS
[0.75 0 0 0.75 360.71999 64.95462] CT
1 0 0 RC
N
f-1290764029
f
GR
GS
[0.75 0 0 0.75 367.23001 57.54447] CT
1 0 0 RC
N
f-1290764029
f
GR
GS
[0.75 0 0 0.75 373.74001 56.67125] CT
1 0 0 RC
N
f-1290764029
f
GR
GS
[0.75 0 0 0.75 380.25 48.88647] CT
1 0 0 RC
N
f-1290764029
f
GR
GS
[0.75 0 0 0.75 0 0] CT
1 GC
N
496 62 M
496 42 L
386 42 L
386 62 L
cp
f
GR
GS
[0.75 0 0 0.75 324.75 39] CT
/Helvetica 12 F
GS
[1 0 0 1 0 0] CT
0 5 moveto 
1 -1 scale
(Messwerte) t 
GR
GR
GS
[0.75 0 0 0.75 307.5 39] CT
1 0 0 RC
N
f-1290764029
f
GR
GS
[0.75 0 0 0.75 0 0] CT
0.149 GC
10.0 ML
0.667 LW
N
386 62 M
386 42 L
496 42 L
496 62 L
cp
S
GR
%%Trailer
%%Pages: 1
%%EOF
