%!PS-Adobe-3.0 EPSF-3.0
%%Creator: (MATLAB, The Mathworks, Inc. Version 9.8.0.1359463 \(R2020a\) Update 1. Operating System: Windows 10)
%%Title: (C:/Users/simon/OneDrive/Dokumente/MATLAB/Examples/R2020a/matlab/Ohmsches Gesetz/polyAnnaeherung.eps)
%%CreationDate: 2020-06-25T16:09:42
%%Pages: (atend)
%%BoundingBox:     0     0   420   315
%%LanguageLevel: 3
%%EndComments
%%BeginProlog
%%BeginResource: procset (Apache XML Graphics Std ProcSet) 1.2 0
%%Version: 1.2 0
%%Copyright: (Copyright 2001-2003,2010 The Apache Software Foundation. License terms: http://www.apache.org/licenses/LICENSE-2.0)
/bd{bind def}bind def
/ld{load def}bd
/GR/grestore ld
/GS/gsave ld
/RM/rmoveto ld
/C/curveto ld
/t/show ld
/L/lineto ld
/ML/setmiterlimit ld
/CT/concat ld
/f/fill ld
/N/newpath ld
/S/stroke ld
/CC/setcmykcolor ld
/A/ashow ld
/cp/closepath ld
/RC/setrgbcolor ld
/LJ/setlinejoin ld
/GC/setgray ld
/LW/setlinewidth ld
/M/moveto ld
/re {4 2 roll M
1 index 0 rlineto
0 exch rlineto
neg 0 rlineto
cp } bd
/_ctm matrix def
/_tm matrix def
/BT { _ctm currentmatrix pop matrix _tm copy pop 0 0 moveto } bd
/ET { _ctm setmatrix } bd
/iTm { _ctm setmatrix _tm concat } bd
/Tm { _tm astore pop iTm 0 0 moveto } bd
/ux 0.0 def
/uy 0.0 def
/F {
  /Tp exch def
  /Tf exch def
  Tf findfont Tp scalefont setfont
  /cf Tf def  /cs Tp def
} bd
/ULS {currentpoint /uy exch def /ux exch def} bd
/ULE {
  /Tcx currentpoint pop def
  gsave
  newpath
  cf findfont cs scalefont dup
  /FontMatrix get 0 get /Ts exch def /FontInfo get dup
  /UnderlinePosition get Ts mul /To exch def
  /UnderlineThickness get Ts mul /Tt exch def
  ux uy To add moveto  Tcx uy To add lineto
  Tt setlinewidth stroke
  grestore
} bd
/OLE {
  /Tcx currentpoint pop def
  gsave
  newpath
  cf findfont cs scalefont dup
  /FontMatrix get 0 get /Ts exch def /FontInfo get dup
  /UnderlinePosition get Ts mul /To exch def
  /UnderlineThickness get Ts mul /Tt exch def
  ux uy To add cs add moveto Tcx uy To add cs add lineto
  Tt setlinewidth stroke
  grestore
} bd
/SOE {
  /Tcx currentpoint pop def
  gsave
  newpath
  cf findfont cs scalefont dup
  /FontMatrix get 0 get /Ts exch def /FontInfo get dup
  /UnderlinePosition get Ts mul /To exch def
  /UnderlineThickness get Ts mul /Tt exch def
  ux uy To add cs 10 mul 26 idiv add moveto Tcx uy To add cs 10 mul 26 idiv add lineto
  Tt setlinewidth stroke
  grestore
} bd
/QT {
/Y22 exch store
/X22 exch store
/Y21 exch store
/X21 exch store
currentpoint
/Y21 load 2 mul add 3 div exch
/X21 load 2 mul add 3 div exch
/X21 load 2 mul /X22 load add 3 div
/Y21 load 2 mul /Y22 load add 3 div
/X22 load /Y22 load curveto
} bd
/SSPD {
dup length /d exch dict def
{
/v exch def
/k exch def
currentpagedevice k known {
/cpdv currentpagedevice k get def
v cpdv ne {
/upd false def
/nullv v type /nulltype eq def
/nullcpdv cpdv type /nulltype eq def
nullv nullcpdv or
{
/upd true def
} {
/sametype v type cpdv type eq def
sametype {
v type /arraytype eq {
/vlen v length def
/cpdvlen cpdv length def
vlen cpdvlen eq {
0 1 vlen 1 sub {
/i exch def
/obj v i get def
/cpdobj cpdv i get def
obj cpdobj ne {
/upd true def
exit
} if
} for
} {
/upd true def
} ifelse
} {
v type /dicttype eq {
v {
/dv exch def
/dk exch def
/cpddv cpdv dk get def
dv cpddv ne {
/upd true def
exit
} if
} forall
} {
/upd true def
} ifelse
} ifelse
} if
} ifelse
upd true eq {
d k v put
} if
} if
} if
} forall
d length 0 gt {
d setpagedevice
} if
} bd
/RE { % /NewFontName [NewEncodingArray] /FontName RE -
  findfont dup length dict begin
  {
    1 index /FID ne
    {def} {pop pop} ifelse
  } forall
  /Encoding exch def
  /FontName 1 index def
  currentdict definefont pop
  end
} bind def
%%EndResource
%%BeginResource: procset (Apache XML Graphics EPS ProcSet) 1.0 0
%%Version: 1.0 0
%%Copyright: (Copyright 2002-2003 The Apache Software Foundation. License terms: http://www.apache.org/licenses/LICENSE-2.0)
/BeginEPSF { %def
/b4_Inc_state save def         % Save state for cleanup
/dict_count countdictstack def % Count objects on dict stack
/op_count count 1 sub def      % Count objects on operand stack
userdict begin                 % Push userdict on dict stack
/showpage { } def              % Redefine showpage, { } = null proc
0 setgray 0 setlinecap         % Prepare graphics state
1 setlinewidth 0 setlinejoin
10 setmiterlimit [ ] 0 setdash newpath
/languagelevel where           % If level not equal to 1 then
{pop languagelevel             % set strokeadjust and
1 ne                           % overprint to their defaults.
{false setstrokeadjust false setoverprint
} if
} if
} bd
/EndEPSF { %def
count op_count sub {pop} repeat            % Clean up stacks
countdictstack dict_count sub {end} repeat
b4_Inc_state restore
} bd
%%EndResource
%FOPBeginFontDict
%%IncludeResource: font Courier-Oblique
%%IncludeResource: font Courier-BoldOblique
%%IncludeResource: font Courier-Bold
%%IncludeResource: font ZapfDingbats
%%IncludeResource: font Symbol
%%IncludeResource: font Helvetica
%%IncludeResource: font Helvetica-Oblique
%%IncludeResource: font Helvetica-Bold
%%IncludeResource: font Helvetica-BoldOblique
%%IncludeResource: font Times-Roman
%%IncludeResource: font Times-Italic
%%IncludeResource: font Times-Bold
%%IncludeResource: font Times-BoldItalic
%%IncludeResource: font Courier
%FOPEndFontDict
%%BeginResource: encoding WinAnsiEncoding
/WinAnsiEncoding [
/.notdef /.notdef /.notdef /.notdef /.notdef
/.notdef /.notdef /.notdef /.notdef /.notdef
/.notdef /.notdef /.notdef /.notdef /.notdef
/.notdef /.notdef /.notdef /.notdef /.notdef
/.notdef /.notdef /.notdef /.notdef /.notdef
/.notdef /.notdef /.notdef /.notdef /.notdef
/.notdef /.notdef /space /exclam /quotedbl
/numbersign /dollar /percent /ampersand /quotesingle
/parenleft /parenright /asterisk /plus /comma
/hyphen /period /slash /zero /one
/two /three /four /five /six
/seven /eight /nine /colon /semicolon
/less /equal /greater /question /at
/A /B /C /D /E
/F /G /H /I /J
/K /L /M /N /O
/P /Q /R /S /T
/U /V /W /X /Y
/Z /bracketleft /backslash /bracketright /asciicircum
/underscore /quoteleft /a /b /c
/d /e /f /g /h
/i /j /k /l /m
/n /o /p /q /r
/s /t /u /v /w
/x /y /z /braceleft /bar
/braceright /asciitilde /bullet /Euro /bullet
/quotesinglbase /florin /quotedblbase /ellipsis /dagger
/daggerdbl /circumflex /perthousand /Scaron /guilsinglleft
/OE /bullet /Zcaron /bullet /bullet
/quoteleft /quoteright /quotedblleft /quotedblright /bullet
/endash /emdash /asciitilde /trademark /scaron
/guilsinglright /oe /bullet /zcaron /Ydieresis
/space /exclamdown /cent /sterling /currency
/yen /brokenbar /section /dieresis /copyright
/ordfeminine /guillemotleft /logicalnot /sfthyphen /registered
/macron /degree /plusminus /twosuperior /threesuperior
/acute /mu /paragraph /middot /cedilla
/onesuperior /ordmasculine /guillemotright /onequarter /onehalf
/threequarters /questiondown /Agrave /Aacute /Acircumflex
/Atilde /Adieresis /Aring /AE /Ccedilla
/Egrave /Eacute /Ecircumflex /Edieresis /Igrave
/Iacute /Icircumflex /Idieresis /Eth /Ntilde
/Ograve /Oacute /Ocircumflex /Otilde /Odieresis
/multiply /Oslash /Ugrave /Uacute /Ucircumflex
/Udieresis /Yacute /Thorn /germandbls /agrave
/aacute /acircumflex /atilde /adieresis /aring
/ae /ccedilla /egrave /eacute /ecircumflex
/edieresis /igrave /iacute /icircumflex /idieresis
/eth /ntilde /ograve /oacute /ocircumflex
/otilde /odieresis /divide /oslash /ugrave
/uacute /ucircumflex /udieresis /yacute /thorn
/ydieresis
] def
%%EndResource
%FOPBeginFontReencode
/Courier-Oblique findfont
dup length dict begin
  {1 index /FID ne {def} {pop pop} ifelse} forall
  /Encoding WinAnsiEncoding def
  currentdict
end
/Courier-Oblique exch definefont pop
/Courier-BoldOblique findfont
dup length dict begin
  {1 index /FID ne {def} {pop pop} ifelse} forall
  /Encoding WinAnsiEncoding def
  currentdict
end
/Courier-BoldOblique exch definefont pop
/Courier-Bold findfont
dup length dict begin
  {1 index /FID ne {def} {pop pop} ifelse} forall
  /Encoding WinAnsiEncoding def
  currentdict
end
/Courier-Bold exch definefont pop
/Helvetica findfont
dup length dict begin
  {1 index /FID ne {def} {pop pop} ifelse} forall
  /Encoding WinAnsiEncoding def
  currentdict
end
/Helvetica exch definefont pop
/Helvetica-Oblique findfont
dup length dict begin
  {1 index /FID ne {def} {pop pop} ifelse} forall
  /Encoding WinAnsiEncoding def
  currentdict
end
/Helvetica-Oblique exch definefont pop
/Helvetica-Bold findfont
dup length dict begin
  {1 index /FID ne {def} {pop pop} ifelse} forall
  /Encoding WinAnsiEncoding def
  currentdict
end
/Helvetica-Bold exch definefont pop
/Helvetica-BoldOblique findfont
dup length dict begin
  {1 index /FID ne {def} {pop pop} ifelse} forall
  /Encoding WinAnsiEncoding def
  currentdict
end
/Helvetica-BoldOblique exch definefont pop
/Times-Roman findfont
dup length dict begin
  {1 index /FID ne {def} {pop pop} ifelse} forall
  /Encoding WinAnsiEncoding def
  currentdict
end
/Times-Roman exch definefont pop
/Times-Italic findfont
dup length dict begin
  {1 index /FID ne {def} {pop pop} ifelse} forall
  /Encoding WinAnsiEncoding def
  currentdict
end
/Times-Italic exch definefont pop
/Times-Bold findfont
dup length dict begin
  {1 index /FID ne {def} {pop pop} ifelse} forall
  /Encoding WinAnsiEncoding def
  currentdict
end
/Times-Bold exch definefont pop
/Times-BoldItalic findfont
dup length dict begin
  {1 index /FID ne {def} {pop pop} ifelse} forall
  /Encoding WinAnsiEncoding def
  currentdict
end
/Times-BoldItalic exch definefont pop
/Courier findfont
dup length dict begin
  {1 index /FID ne {def} {pop pop} ifelse} forall
  /Encoding WinAnsiEncoding def
  currentdict
end
/Courier exch definefont pop
%FOPEndFontReencode
%%EndProlog
%%Page: 1 1
%%PageBoundingBox: 0 0 420 315
%%BeginPageSetup
[1 0 0 -1 0 315] CT
%%EndPageSetup
GS
[0.75 0 0 0.75 0 0] CT
1 GC
N
0 0 560 420 re
f
GR
GS
[0.75 0 0 0.75 0 0] CT
1 GC
N
0 0 560 420 re
f
GR
GS
[0.75 0 0 0.75 0 0] CT
1 GC
N
73 374 M
507 374 L
507 31 L
73 31 L
cp
f
GR
GS
[0.75 0 0 0.75 0 0] CT
0.873 GC
1 LJ
0.667 LW
N
73 374 M
73 31 L
S
GR
GS
[0.75 0 0 0.75 0 0] CT
0.873 GC
1 LJ
0.667 LW
N
135 374 M
135 31 L
S
GR
GS
[0.75 0 0 0.75 0 0] CT
0.873 GC
1 LJ
0.667 LW
N
197 374 M
197 31 L
S
GR
GS
[0.75 0 0 0.75 0 0] CT
0.873 GC
1 LJ
0.667 LW
N
259 374 M
259 31 L
S
GR
GS
[0.75 0 0 0.75 0 0] CT
0.873 GC
1 LJ
0.667 LW
N
321 374 M
321 31 L
S
GR
GS
[0.75 0 0 0.75 0 0] CT
0.873 GC
1 LJ
0.667 LW
N
383 374 M
383 31 L
S
GR
GS
[0.75 0 0 0.75 0 0] CT
0.873 GC
1 LJ
0.667 LW
N
445 374 M
445 31 L
S
GR
GS
[0.75 0 0 0.75 0 0] CT
0.873 GC
1 LJ
0.667 LW
N
507 374 M
507 31 L
S
GR
GS
[0.75 0 0 0.75 0 0] CT
0.873 GC
1 LJ
0.667 LW
N
507 374 M
73 374 L
S
GR
GS
[0.75 0 0 0.75 0 0] CT
0.873 GC
1 LJ
0.667 LW
N
507 305.4 M
73 305.4 L
S
GR
GS
[0.75 0 0 0.75 0 0] CT
0.873 GC
1 LJ
0.667 LW
N
507 236.8 M
73 236.8 L
S
GR
GS
[0.75 0 0 0.75 0 0] CT
0.873 GC
1 LJ
0.667 LW
N
507 168.2 M
73 168.2 L
S
GR
GS
[0.75 0 0 0.75 0 0] CT
0.873 GC
1 LJ
0.667 LW
N
507 99.6 M
73 99.6 L
S
GR
GS
[0.75 0 0 0.75 0 0] CT
0.873 GC
1 LJ
0.667 LW
N
507 31 M
73 31 L
S
GR
GS
[0.75 0 0 0.75 0 0] CT
0.149 GC
2 setlinecap
1 LJ
0.667 LW
N
73 374 M
507 374 L
S
GR
GS
[0.75 0 0 0.75 0 0] CT
0.149 GC
2 setlinecap
1 LJ
0.667 LW
N
73 374 M
73 369.66 L
S
GR
GS
[0.75 0 0 0.75 0 0] CT
0.149 GC
2 setlinecap
1 LJ
0.667 LW
N
135 374 M
135 369.66 L
S
GR
GS
[0.75 0 0 0.75 0 0] CT
0.149 GC
2 setlinecap
1 LJ
0.667 LW
N
197 374 M
197 369.66 L
S
GR
GS
[0.75 0 0 0.75 0 0] CT
0.149 GC
2 setlinecap
1 LJ
0.667 LW
N
259 374 M
259 369.66 L
S
GR
GS
[0.75 0 0 0.75 0 0] CT
0.149 GC
2 setlinecap
1 LJ
0.667 LW
N
321 374 M
321 369.66 L
S
GR
GS
[0.75 0 0 0.75 0 0] CT
0.149 GC
2 setlinecap
1 LJ
0.667 LW
N
383 374 M
383 369.66 L
S
GR
GS
[0.75 0 0 0.75 0 0] CT
0.149 GC
2 setlinecap
1 LJ
0.667 LW
N
445 374 M
445 369.66 L
S
GR
GS
[0.75 0 0 0.75 0 0] CT
0.149 GC
2 setlinecap
1 LJ
0.667 LW
N
507 374 M
507 369.66 L
S
GR
GS
[0.75 0 0 0.75 54.75 284.50001] CT
0.149 GC
/Helvetica 13.333 F
GS
[1 0 0 1 0 0] CT
-4 14 moveto 
1 -1 scale
(0) t 
GR
GR
GS
[0.75 0 0 0.75 101.25 284.50001] CT
0.149 GC
/Helvetica 13.333 F
GS
[1 0 0 1 0 0] CT
-9.5 14 moveto 
1 -1 scale
(0.5) t 
GR
GR
GS
[0.75 0 0 0.75 147.75 284.50001] CT
0.149 GC
/Helvetica 13.333 F
GS
[1 0 0 1 0 0] CT
-4 14 moveto 
1 -1 scale
(1) t 
GR
GR
GS
[0.75 0 0 0.75 194.25 284.50001] CT
0.149 GC
/Helvetica 13.333 F
GS
[1 0 0 1 0 0] CT
-9.5 14 moveto 
1 -1 scale
(1.5) t 
GR
GR
GS
[0.75 0 0 0.75 240.75 284.50001] CT
0.149 GC
/Helvetica 13.333 F
GS
[1 0 0 1 0 0] CT
-4 14 moveto 
1 -1 scale
(2) t 
GR
GR
GS
[0.75 0 0 0.75 287.25 284.50001] CT
0.149 GC
/Helvetica 13.333 F
GS
[1 0 0 1 0 0] CT
-9.5 14 moveto 
1 -1 scale
(2.5) t 
GR
GR
GS
[0.75 0 0 0.75 333.75 284.50001] CT
0.149 GC
/Helvetica 13.333 F
GS
[1 0 0 1 0 0] CT
-4 14 moveto 
1 -1 scale
(3) t 
GR
GR
GS
[0.75 0 0 0.75 380.25 284.50001] CT
0.149 GC
/Helvetica 13.333 F
GS
[1 0 0 1 0 0] CT
-9.5 14 moveto 
1 -1 scale
(3.5) t 
GR
GR
GS
[0.75 0 0 0.75 217.50016 298.24999] CT
0.149 GC
/Helvetica 14.667 F
GS
[1 0 0 1 0 0] CT
-4 15 moveto 
1 -1 scale
(x) t 
GR
GR
GS
[0.75 0 0 0.75 0 0] CT
0.149 GC
2 setlinecap
1 LJ
0.667 LW
N
73 374 M
73 31 L
S
GR
GS
[0.75 0 0 0.75 0 0] CT
0.149 GC
2 setlinecap
1 LJ
0.667 LW
N
73 374 M
77.34 374 L
S
GR
GS
[0.75 0 0 0.75 0 0] CT
0.149 GC
2 setlinecap
1 LJ
0.667 LW
N
73 305.4 M
77.34 305.4 L
S
GR
GS
[0.75 0 0 0.75 0 0] CT
0.149 GC
2 setlinecap
1 LJ
0.667 LW
N
73 236.8 M
77.34 236.8 L
S
GR
GS
[0.75 0 0 0.75 0 0] CT
0.149 GC
2 setlinecap
1 LJ
0.667 LW
N
73 168.2 M
77.34 168.2 L
S
GR
GS
[0.75 0 0 0.75 0 0] CT
0.149 GC
2 setlinecap
1 LJ
0.667 LW
N
73 99.6 M
77.34 99.6 L
S
GR
GS
[0.75 0 0 0.75 0 0] CT
0.149 GC
2 setlinecap
1 LJ
0.667 LW
N
73 31 M
77.34 31 L
S
GR
GS
[0.75 0 0 0.75 50.75 280.5] CT
0.149 GC
/Helvetica 13.333 F
GS
[1 0 0 1 0 0] CT
-20 5.5 moveto 
1 -1 scale
(-10) t 
GR
GR
GS
[0.75 0 0 0.75 50.75 229.05] CT
0.149 GC
/Helvetica 13.333 F
GS
[1 0 0 1 0 0] CT
-12 5.5 moveto 
1 -1 scale
(-5) t 
GR
GR
GS
[0.75 0 0 0.75 50.75 177.6] CT
0.149 GC
/Helvetica 13.333 F
GS
[1 0 0 1 0 0] CT
-8 5.5 moveto 
1 -1 scale
(0) t 
GR
GR
GS
[0.75 0 0 0.75 50.75 126.15] CT
0.149 GC
/Helvetica 13.333 F
GS
[1 0 0 1 0 0] CT
-8 5.5 moveto 
1 -1 scale
(5) t 
GR
GR
GS
[0.75 0 0 0.75 50.75 74.7] CT
0.149 GC
/Helvetica 13.333 F
GS
[1 0 0 1 0 0] CT
-15 5.5 moveto 
1 -1 scale
(10) t 
GR
GR
GS
[0.75 0 0 0.75 50.75 23.25] CT
0.149 GC
/Helvetica 13.333 F
GS
[1 0 0 1 0 0] CT
-15 5.5 moveto 
1 -1 scale
(15) t 
GR
GR
GS
[0 -0.75 0.75 0 32.75 151.87487] CT
0.149 GC
/Helvetica 14.667 F
GS
[1 0 0 1 0 0] CT
-4 -4 moveto 
1 -1 scale
(y) t 
GR
GR
GS
[0.75 0 0 0.75 64.05 156.11337] CT
1 0 0 RC
N
2.222 0 M
2.222 1.227 1.227 2.222 0 2.222 C
-1.227 2.222 -2.222 1.227 -2.222 0 C
-2.222 -1.227 -1.227 -2.222 0 -2.222 C
1.227 -2.222 2.222 -1.227 2.222 0 C
cp
f
GR
GS
[0.75 0 0 0.75 73.35 162.89081] CT
1 0 0 RC
N
/f-1759579234{2.222 0 M
2.222 1.227 1.227 2.222 0 2.222 C
-1.227 2.222 -2.222 1.227 -2.222 0 C
-2.222 -1.227 -1.227 -2.222 0 -2.222 C
1.227 -2.222 2.222 -1.227 2.222 0 C
cp}def
f-1759579234
f
GR
GS
[0.75 0 0 0.75 82.65 159.77439] CT
1 0 0 RC
N
f-1759579234
f
GR
GS
[0.75 0 0 0.75 91.95 145.04929] CT
1 0 0 RC
N
f-1759579234
f
GR
GS
[0.75 0 0 0.75 101.25 156.62882] CT
1 0 0 RC
N
f-1759579234
f
GR
GS
[0.75 0 0 0.75 110.55001 146.42308] CT
1 0 0 RC
N
f-1759579234
f
GR
GS
[0.75 0 0 0.75 119.85 137.55774] CT
1 0 0 RC
N
f-1759579234
f
GR
GS
[0.75 0 0 0.75 129.15 128.67431] CT
1 0 0 RC
N
f-1759579234
f
GR
GS
[0.75 0 0 0.75 138.44999 127.57539] CT
1 0 0 RC
N
f-1759579234
f
GR
GS
[0.75 0 0 0.75 147.75 116.67941] CT
1 0 0 RC
N
f-1759579234
f
GR
GS
[0.75 0 0 0.75 157.05001 103.58752] CT
1 0 0 RC
N
f-1759579234
f
GR
GS
[0.75 0 0 0.75 166.35 106.33519] CT
1 0 0 RC
N
f-1759579234
f
GR
GS
[0.75 0 0 0.75 175.65 91.76856] CT
1 0 0 RC
N
f-1759579234
f
GR
GS
[0.75 0 0 0.75 184.94999 87.79648] CT
1 0 0 RC
N
f-1759579234
f
GR
GS
[0.75 0 0 0.75 194.25 91.41283] CT
1 0 0 RC
N
f-1759579234
f
GR
GS
[0.75 0 0 0.75 203.55 76.57211] CT
1 0 0 RC
N
f-1759579234
f
GR
GS
[0.75 0 0 0.75 212.85001 78.45871] CT
1 0 0 RC
N
f-1759579234
f
GR
GS
[0.75 0 0 0.75 222.14999 72.80681] CT
1 0 0 RC
N
f-1759579234
f
GR
GS
[0.75 0 0 0.75 231.45 59.18012] CT
1 0 0 RC
N
f-1759579234
f
GR
GS
[0.75 0 0 0.75 240.75 62.39211] CT
1 0 0 RC
N
f-1759579234
f
GR
GS
[0.75 0 0 0.75 250.05 49.46891] CT
1 0 0 RC
N
f-1759579234
f
GR
GS
[0.75 0 0 0.75 259.35001 54.76564] CT
1 0 0 RC
N
f-1759579234
f
GR
GS
[0.75 0 0 0.75 268.64999 60.99569] CT
1 0 0 RC
N
f-1759579234
f
GR
GS
[0.75 0 0 0.75 277.95 62.01456] CT
1 0 0 RC
N
f-1759579234
f
GR
GS
[0.75 0 0 0.75 287.25 58.4254] CT
1 0 0 RC
N
f-1759579234
f
GR
GS
[0.75 0 0 0.75 296.55 70.30437] CT
1 0 0 RC
N
f-1759579234
f
GR
GS
[0.75 0 0 0.75 305.85001 82.34914] CT
1 0 0 RC
N
f-1759579234
f
GR
GS
[0.75 0 0 0.75 315.14999 90.94135] CT
1 0 0 RC
N
f-1759579234
f
GR
GS
[0.75 0 0 0.75 324.45 106.5687] CT
1 0 0 RC
N
f-1759579234
f
GR
GS
[0.75 0 0 0.75 333.75 123.32766] CT
1 0 0 RC
N
f-1759579234
f
GR
GS
[0.75 0 0 0.75 343.05 146.59933] CT
1 0 0 RC
N
f-1759579234
f
GR
GS
[0.75 0 0 0.75 352.35001 176.81961] CT
1 0 0 RC
N
f-1759579234
f
GR
GS
[0.75 0 0 0.75 361.64999 191.32317] CT
1 0 0 RC
N
f-1759579234
f
GR
GS
[0.75 0 0 0.75 370.95 230.14034] CT
1 0 0 RC
N
f-1759579234
f
GR
GS
[0.75 0 0 0.75 380.25 267.27807] CT
1 0 0 RC
N
f-1759579234
f
GR
GS
[0.75 0 0 0.75 0 0] CT
0 0 1 RC
1 LJ
2.667 LW
N
73 215.898 M
77.384 215.549 L
81.768 215.049 L
86.152 214.398 L
90.535 213.6 L
94.919 212.657 L
99.303 211.572 L
103.687 210.348 L
108.071 208.987 L
112.455 207.494 L
116.838 205.871 L
121.222 204.121 L
125.606 202.249 L
129.99 200.258 L
134.374 198.152 L
138.758 195.935 L
143.141 193.611 L
147.525 191.186 L
151.909 188.662 L
156.293 186.045 L
160.677 183.34 L
165.061 180.551 L
169.444 177.684 L
173.828 174.744 L
178.212 171.737 L
182.596 168.667 L
186.98 165.54 L
191.364 162.363 L
195.747 159.141 L
200.131 155.881 L
204.515 152.588 L
208.899 149.269 L
213.283 145.931 L
217.667 142.58 L
222.051 139.223 L
226.434 135.867 L
230.818 132.52 L
235.202 129.188 L
239.586 125.879 L
243.97 122.601 L
248.354 119.361 L
252.737 116.167 L
257.121 113.027 L
261.505 109.95 L
265.889 106.943 L
270.273 104.016 L
274.657 101.176 L
279.04 98.433 L
283.424 95.794 L
287.808 93.271 L
292.192 90.871 L
296.576 88.603 L
300.96 86.479 L
305.343 84.506 L
309.727 82.695 L
314.111 81.056 L
318.495 79.598 L
322.879 78.333 L
327.263 77.27 L
331.646 76.42 L
336.03 75.793 L
340.414 75.401 L
344.798 75.253 L
349.182 75.363 L
353.566 75.74 L
357.949 76.396 L
362.333 77.342 L
366.717 78.591 L
371.101 80.153 L
375.485 82.042 L
379.869 84.269 L
384.253 86.846 L
388.636 89.786 L
393.02 93.101 L
397.404 96.804 L
401.788 100.909 L
406.172 105.427 L
410.556 110.372 L
414.939 115.757 L
419.323 121.597 L
423.707 127.903 L
428.091 134.691 L
432.475 141.974 L
436.859 149.765 L
441.242 158.08 L
445.626 166.933 L
450.01 176.337 L
454.394 186.308 L
458.778 196.86 L
463.162 208.008 L
467.545 219.767 L
471.929 232.153 L
476.313 245.181 L
480.697 258.866 L
485.081 273.224 L
489.465 288.271 L
493.849 304.022 L
498.232 320.494 L
502.616 337.702 L
507 355.664 L
S
GR
GS
[0.75 0 0 0.75 0 0] CT
1 GC
N
244 80 M
244 44 L
90 44 L
90 80 L
cp
f
GR
GS
[0.75 0 0 0.75 102.75 40.39726] CT
/Helvetica 12 F
GS
[1 0 0 1 0 0] CT
0 5 moveto 
1 -1 scale
(Messwerte) t 
GR
GR
GS
[0.75 0 0 0.75 85.5 40.39726] CT
1 0 0 RC
N
f-1759579234
f
GR
GS
[0.75 0 0 0.75 102.75 52.60274] CT
/Helvetica 12 F
GS
[1 0 0 1 0 0] CT
0 5 moveto 
1 -1 scale
(Polynom 4. Grades) t 
GR
GR
GS
[0.75 0 0 0.75 0 0] CT
0 0 1 RC
1 LJ
2.667 LW
N
94 70.137 M
134 70.137 L
S
GR
GS
[0.75 0 0 0.75 0 0] CT
0.149 GC
10.0 ML
0.667 LW
N
90 80 M
90 44 L
244 44 L
244 80 L
cp
S
GR
%%Trailer
%%Pages: 1
%%EOF
