%!PS-Adobe-3.0 EPSF-3.0
%%Creator: (MATLAB, The Mathworks, Inc. Version 9.8.0.1323502 \(R2020a\). Operating System: Windows 10)
%%Title: C:/Users/magdi/git/eces-ii/elevatorBad.eps
%%CreationDate: 2020-06-09T19:18:36
%%Pages: (atend)
%%BoundingBox:     0     0   420   315
%%LanguageLevel: 3
%%EndComments
%%BeginProlog
%%BeginResource: procset (Apache XML Graphics Std ProcSet) 1.2 0
%%Version: 1.2 0
%%Copyright: (Copyright 2001-2003,2010 The Apache Software Foundation. License terms: http://www.apache.org/licenses/LICENSE-2.0)
/bd{bind def}bind def
/ld{load def}bd
/GR/grestore ld
/GS/gsave ld
/RM/rmoveto ld
/C/curveto ld
/t/show ld
/L/lineto ld
/ML/setmiterlimit ld
/CT/concat ld
/f/fill ld
/N/newpath ld
/S/stroke ld
/CC/setcmykcolor ld
/A/ashow ld
/cp/closepath ld
/RC/setrgbcolor ld
/LJ/setlinejoin ld
/GC/setgray ld
/LW/setlinewidth ld
/M/moveto ld
/re {4 2 roll M
1 index 0 rlineto
0 exch rlineto
neg 0 rlineto
cp } bd
/_ctm matrix def
/_tm matrix def
/BT { _ctm currentmatrix pop matrix _tm copy pop 0 0 moveto } bd
/ET { _ctm setmatrix } bd
/iTm { _ctm setmatrix _tm concat } bd
/Tm { _tm astore pop iTm 0 0 moveto } bd
/ux 0.0 def
/uy 0.0 def
/F {
  /Tp exch def
  /Tf exch def
  Tf findfont Tp scalefont setfont
  /cf Tf def  /cs Tp def
} bd
/ULS {currentpoint /uy exch def /ux exch def} bd
/ULE {
  /Tcx currentpoint pop def
  gsave
  newpath
  cf findfont cs scalefont dup
  /FontMatrix get 0 get /Ts exch def /FontInfo get dup
  /UnderlinePosition get Ts mul /To exch def
  /UnderlineThickness get Ts mul /Tt exch def
  ux uy To add moveto  Tcx uy To add lineto
  Tt setlinewidth stroke
  grestore
} bd
/OLE {
  /Tcx currentpoint pop def
  gsave
  newpath
  cf findfont cs scalefont dup
  /FontMatrix get 0 get /Ts exch def /FontInfo get dup
  /UnderlinePosition get Ts mul /To exch def
  /UnderlineThickness get Ts mul /Tt exch def
  ux uy To add cs add moveto Tcx uy To add cs add lineto
  Tt setlinewidth stroke
  grestore
} bd
/SOE {
  /Tcx currentpoint pop def
  gsave
  newpath
  cf findfont cs scalefont dup
  /FontMatrix get 0 get /Ts exch def /FontInfo get dup
  /UnderlinePosition get Ts mul /To exch def
  /UnderlineThickness get Ts mul /Tt exch def
  ux uy To add cs 10 mul 26 idiv add moveto Tcx uy To add cs 10 mul 26 idiv add lineto
  Tt setlinewidth stroke
  grestore
} bd
/QT {
/Y22 exch store
/X22 exch store
/Y21 exch store
/X21 exch store
currentpoint
/Y21 load 2 mul add 3 div exch
/X21 load 2 mul add 3 div exch
/X21 load 2 mul /X22 load add 3 div
/Y21 load 2 mul /Y22 load add 3 div
/X22 load /Y22 load curveto
} bd
/SSPD {
dup length /d exch dict def
{
/v exch def
/k exch def
currentpagedevice k known {
/cpdv currentpagedevice k get def
v cpdv ne {
/upd false def
/nullv v type /nulltype eq def
/nullcpdv cpdv type /nulltype eq def
nullv nullcpdv or
{
/upd true def
} {
/sametype v type cpdv type eq def
sametype {
v type /arraytype eq {
/vlen v length def
/cpdvlen cpdv length def
vlen cpdvlen eq {
0 1 vlen 1 sub {
/i exch def
/obj v i get def
/cpdobj cpdv i get def
obj cpdobj ne {
/upd true def
exit
} if
} for
} {
/upd true def
} ifelse
} {
v type /dicttype eq {
v {
/dv exch def
/dk exch def
/cpddv cpdv dk get def
dv cpddv ne {
/upd true def
exit
} if
} forall
} {
/upd true def
} ifelse
} ifelse
} if
} ifelse
upd true eq {
d k v put
} if
} if
} if
} forall
d length 0 gt {
d setpagedevice
} if
} bd
/RE { % /NewFontName [NewEncodingArray] /FontName RE -
  findfont dup length dict begin
  {
    1 index /FID ne
    {def} {pop pop} ifelse
  } forall
  /Encoding exch def
  /FontName 1 index def
  currentdict definefont pop
  end
} bind def
%%EndResource
%%BeginResource: procset (Apache XML Graphics EPS ProcSet) 1.0 0
%%Version: 1.0 0
%%Copyright: (Copyright 2002-2003 The Apache Software Foundation. License terms: http://www.apache.org/licenses/LICENSE-2.0)
/BeginEPSF { %def
/b4_Inc_state save def         % Save state for cleanup
/dict_count countdictstack def % Count objects on dict stack
/op_count count 1 sub def      % Count objects on operand stack
userdict begin                 % Push userdict on dict stack
/showpage { } def              % Redefine showpage, { } = null proc
0 setgray 0 setlinecap         % Prepare graphics state
1 setlinewidth 0 setlinejoin
10 setmiterlimit [ ] 0 setdash newpath
/languagelevel where           % If level not equal to 1 then
{pop languagelevel             % set strokeadjust and
1 ne                           % overprint to their defaults.
{false setstrokeadjust false setoverprint
} if
} if
} bd
/EndEPSF { %def
count op_count sub {pop} repeat            % Clean up stacks
countdictstack dict_count sub {end} repeat
b4_Inc_state restore
} bd
%%EndResource
%FOPBeginFontDict
%%IncludeResource: font Courier-Oblique
%%IncludeResource: font Courier-BoldOblique
%%IncludeResource: font Courier-Bold
%%IncludeResource: font ZapfDingbats
%%IncludeResource: font Symbol
%%IncludeResource: font Helvetica
%%IncludeResource: font Helvetica-Oblique
%%IncludeResource: font Helvetica-Bold
%%IncludeResource: font Helvetica-BoldOblique
%%IncludeResource: font Times-Roman
%%IncludeResource: font Times-Italic
%%IncludeResource: font Times-Bold
%%IncludeResource: font Times-BoldItalic
%%IncludeResource: font Courier
%FOPEndFontDict
%%BeginResource: encoding WinAnsiEncoding
/WinAnsiEncoding [
/.notdef /.notdef /.notdef /.notdef /.notdef
/.notdef /.notdef /.notdef /.notdef /.notdef
/.notdef /.notdef /.notdef /.notdef /.notdef
/.notdef /.notdef /.notdef /.notdef /.notdef
/.notdef /.notdef /.notdef /.notdef /.notdef
/.notdef /.notdef /.notdef /.notdef /.notdef
/.notdef /.notdef /space /exclam /quotedbl
/numbersign /dollar /percent /ampersand /quotesingle
/parenleft /parenright /asterisk /plus /comma
/hyphen /period /slash /zero /one
/two /three /four /five /six
/seven /eight /nine /colon /semicolon
/less /equal /greater /question /at
/A /B /C /D /E
/F /G /H /I /J
/K /L /M /N /O
/P /Q /R /S /T
/U /V /W /X /Y
/Z /bracketleft /backslash /bracketright /asciicircum
/underscore /quoteleft /a /b /c
/d /e /f /g /h
/i /j /k /l /m
/n /o /p /q /r
/s /t /u /v /w
/x /y /z /braceleft /bar
/braceright /asciitilde /bullet /Euro /bullet
/quotesinglbase /florin /quotedblbase /ellipsis /dagger
/daggerdbl /circumflex /perthousand /Scaron /guilsinglleft
/OE /bullet /Zcaron /bullet /bullet
/quoteleft /quoteright /quotedblleft /quotedblright /bullet
/endash /emdash /asciitilde /trademark /scaron
/guilsinglright /oe /bullet /zcaron /Ydieresis
/space /exclamdown /cent /sterling /currency
/yen /brokenbar /section /dieresis /copyright
/ordfeminine /guillemotleft /logicalnot /sfthyphen /registered
/macron /degree /plusminus /twosuperior /threesuperior
/acute /mu /paragraph /middot /cedilla
/onesuperior /ordmasculine /guillemotright /onequarter /onehalf
/threequarters /questiondown /Agrave /Aacute /Acircumflex
/Atilde /Adieresis /Aring /AE /Ccedilla
/Egrave /Eacute /Ecircumflex /Edieresis /Igrave
/Iacute /Icircumflex /Idieresis /Eth /Ntilde
/Ograve /Oacute /Ocircumflex /Otilde /Odieresis
/multiply /Oslash /Ugrave /Uacute /Ucircumflex
/Udieresis /Yacute /Thorn /germandbls /agrave
/aacute /acircumflex /atilde /adieresis /aring
/ae /ccedilla /egrave /eacute /ecircumflex
/edieresis /igrave /iacute /icircumflex /idieresis
/eth /ntilde /ograve /oacute /ocircumflex
/otilde /odieresis /divide /oslash /ugrave
/uacute /ucircumflex /udieresis /yacute /thorn
/ydieresis
] def
%%EndResource
%FOPBeginFontReencode
/Courier-Oblique findfont
dup length dict begin
  {1 index /FID ne {def} {pop pop} ifelse} forall
  /Encoding WinAnsiEncoding def
  currentdict
end
/Courier-Oblique exch definefont pop
/Courier-BoldOblique findfont
dup length dict begin
  {1 index /FID ne {def} {pop pop} ifelse} forall
  /Encoding WinAnsiEncoding def
  currentdict
end
/Courier-BoldOblique exch definefont pop
/Courier-Bold findfont
dup length dict begin
  {1 index /FID ne {def} {pop pop} ifelse} forall
  /Encoding WinAnsiEncoding def
  currentdict
end
/Courier-Bold exch definefont pop
/Helvetica findfont
dup length dict begin
  {1 index /FID ne {def} {pop pop} ifelse} forall
  /Encoding WinAnsiEncoding def
  currentdict
end
/Helvetica exch definefont pop
/Helvetica-Oblique findfont
dup length dict begin
  {1 index /FID ne {def} {pop pop} ifelse} forall
  /Encoding WinAnsiEncoding def
  currentdict
end
/Helvetica-Oblique exch definefont pop
/Helvetica-Bold findfont
dup length dict begin
  {1 index /FID ne {def} {pop pop} ifelse} forall
  /Encoding WinAnsiEncoding def
  currentdict
end
/Helvetica-Bold exch definefont pop
/Helvetica-BoldOblique findfont
dup length dict begin
  {1 index /FID ne {def} {pop pop} ifelse} forall
  /Encoding WinAnsiEncoding def
  currentdict
end
/Helvetica-BoldOblique exch definefont pop
/Times-Roman findfont
dup length dict begin
  {1 index /FID ne {def} {pop pop} ifelse} forall
  /Encoding WinAnsiEncoding def
  currentdict
end
/Times-Roman exch definefont pop
/Times-Italic findfont
dup length dict begin
  {1 index /FID ne {def} {pop pop} ifelse} forall
  /Encoding WinAnsiEncoding def
  currentdict
end
/Times-Italic exch definefont pop
/Times-Bold findfont
dup length dict begin
  {1 index /FID ne {def} {pop pop} ifelse} forall
  /Encoding WinAnsiEncoding def
  currentdict
end
/Times-Bold exch definefont pop
/Times-BoldItalic findfont
dup length dict begin
  {1 index /FID ne {def} {pop pop} ifelse} forall
  /Encoding WinAnsiEncoding def
  currentdict
end
/Times-BoldItalic exch definefont pop
/Courier findfont
dup length dict begin
  {1 index /FID ne {def} {pop pop} ifelse} forall
  /Encoding WinAnsiEncoding def
  currentdict
end
/Courier exch definefont pop
%FOPEndFontReencode
%%EndProlog
%%Page: 1 1
%%PageBoundingBox: 0 0 420 315
%%BeginPageSetup
[1 0 0 -1 0 315] CT
%%EndPageSetup
GS
[0.6 0 0 0.6 0 0] CT
1 GC
N
0 0 700 525 re
f
GR
GS
[0.6 0 0 0.6 0 0] CT
1 GC
N
0 0 700 525 re
f
GR
GS
[0.6 0 0 0.6 0 0] CT
1 GC
N
91 467 M
634 467 L
634 39 L
91 39 L
cp
f
GR
GS
[0.6 0 0 0.6 0 0] CT
0.873 GC
1 LJ
0.833 LW
N
91 467 M
91 39 L
S
GR
GS
[0.6 0 0 0.6 0 0] CT
0.873 GC
1 LJ
0.833 LW
N
181.5 467 M
181.5 39 L
S
GR
GS
[0.6 0 0 0.6 0 0] CT
0.873 GC
1 LJ
0.833 LW
N
272 467 M
272 39 L
S
GR
GS
[0.6 0 0 0.6 0 0] CT
0.873 GC
1 LJ
0.833 LW
N
362.5 467 M
362.5 39 L
S
GR
GS
[0.6 0 0 0.6 0 0] CT
0.873 GC
1 LJ
0.833 LW
N
453 467 M
453 39 L
S
GR
GS
[0.6 0 0 0.6 0 0] CT
0.873 GC
1 LJ
0.833 LW
N
543.5 467 M
543.5 39 L
S
GR
GS
[0.6 0 0 0.6 0 0] CT
0.873 GC
1 LJ
0.833 LW
N
634 467 M
634 39 L
S
GR
GS
[0.6 0 0 0.6 0 0] CT
0.873 GC
1 LJ
0.833 LW
N
634 467 M
91 467 L
S
GR
GS
[0.6 0 0 0.6 0 0] CT
0.873 GC
1 LJ
0.833 LW
N
634 413.5 M
91 413.5 L
S
GR
GS
[0.6 0 0 0.6 0 0] CT
0.873 GC
1 LJ
0.833 LW
N
634 360 M
91 360 L
S
GR
GS
[0.6 0 0 0.6 0 0] CT
0.873 GC
1 LJ
0.833 LW
N
634 306.5 M
91 306.5 L
S
GR
GS
[0.6 0 0 0.6 0 0] CT
0.873 GC
1 LJ
0.833 LW
N
634 253 M
91 253 L
S
GR
GS
[0.6 0 0 0.6 0 0] CT
0.873 GC
1 LJ
0.833 LW
N
634 199.5 M
91 199.5 L
S
GR
GS
[0.6 0 0 0.6 0 0] CT
0.873 GC
1 LJ
0.833 LW
N
634 146 M
91 146 L
S
GR
GS
[0.6 0 0 0.6 0 0] CT
0.873 GC
1 LJ
0.833 LW
N
634 92.5 M
91 92.5 L
S
GR
GS
[0.6 0 0 0.6 0 0] CT
0.873 GC
1 LJ
0.833 LW
N
634 39 M
91 39 L
S
GR
GS
[0.6 0 0 0.6 0 0] CT
0.149 GC
2 setlinecap
1 LJ
0.833 LW
N
91 467 M
634 467 L
S
GR
GS
[0.6 0 0 0.6 0 0] CT
0.149 GC
2 setlinecap
1 LJ
0.833 LW
N
91 39 M
634 39 L
S
GR
GS
[0.6 0 0 0.6 0 0] CT
0.149 GC
2 setlinecap
1 LJ
0.833 LW
N
91 467 M
91 461.57 L
S
GR
GS
[0.6 0 0 0.6 0 0] CT
0.149 GC
2 setlinecap
1 LJ
0.833 LW
N
181.5 467 M
181.5 461.57 L
S
GR
GS
[0.6 0 0 0.6 0 0] CT
0.149 GC
2 setlinecap
1 LJ
0.833 LW
N
272 467 M
272 461.57 L
S
GR
GS
[0.6 0 0 0.6 0 0] CT
0.149 GC
2 setlinecap
1 LJ
0.833 LW
N
362.5 467 M
362.5 461.57 L
S
GR
GS
[0.6 0 0 0.6 0 0] CT
0.149 GC
2 setlinecap
1 LJ
0.833 LW
N
453 467 M
453 461.57 L
S
GR
GS
[0.6 0 0 0.6 0 0] CT
0.149 GC
2 setlinecap
1 LJ
0.833 LW
N
543.5 467 M
543.5 461.57 L
S
GR
GS
[0.6 0 0 0.6 0 0] CT
0.149 GC
2 setlinecap
1 LJ
0.833 LW
N
634 467 M
634 461.57 L
S
GR
GS
[0.6 0 0 0.6 0 0] CT
0.149 GC
2 setlinecap
1 LJ
0.833 LW
N
91 39 M
91 44.43 L
S
GR
GS
[0.6 0 0 0.6 0 0] CT
0.149 GC
2 setlinecap
1 LJ
0.833 LW
N
181.5 39 M
181.5 44.43 L
S
GR
GS
[0.6 0 0 0.6 0 0] CT
0.149 GC
2 setlinecap
1 LJ
0.833 LW
N
272 39 M
272 44.43 L
S
GR
GS
[0.6 0 0 0.6 0 0] CT
0.149 GC
2 setlinecap
1 LJ
0.833 LW
N
362.5 39 M
362.5 44.43 L
S
GR
GS
[0.6 0 0 0.6 0 0] CT
0.149 GC
2 setlinecap
1 LJ
0.833 LW
N
453 39 M
453 44.43 L
S
GR
GS
[0.6 0 0 0.6 0 0] CT
0.149 GC
2 setlinecap
1 LJ
0.833 LW
N
543.5 39 M
543.5 44.43 L
S
GR
GS
[0.6 0 0 0.6 0 0] CT
0.149 GC
2 setlinecap
1 LJ
0.833 LW
N
634 39 M
634 44.43 L
S
GR
GS
[0.6 0 0 0.6 54.6 284.19999] CT
0.149 GC
/Helvetica 16.667 F
GS
[1 0 0 1 0 0] CT
-5 17 moveto 
1 -1 scale
(0) t 
GR
GR
GS
[0.6 0 0 0.6 108.9 284.19999] CT
0.149 GC
/Helvetica 16.667 F
GS
[1 0 0 1 0 0] CT
-5 17 moveto 
1 -1 scale
(5) t 
GR
GR
GS
[0.6 0 0 0.6 163.2 284.19999] CT
0.149 GC
/Helvetica 16.667 F
GS
[1 0 0 1 0 0] CT
-9.5 17 moveto 
1 -1 scale
(10) t 
GR
GR
GS
[0.6 0 0 0.6 217.5 284.19999] CT
0.149 GC
/Helvetica 16.667 F
GS
[1 0 0 1 0 0] CT
-9.5 17 moveto 
1 -1 scale
(15) t 
GR
GR
GS
[0.6 0 0 0.6 271.8 284.19999] CT
0.149 GC
/Helvetica 16.667 F
GS
[1 0 0 1 0 0] CT
-9.5 17 moveto 
1 -1 scale
(20) t 
GR
GR
GS
[0.6 0 0 0.6 326.1 284.19999] CT
0.149 GC
/Helvetica 16.667 F
GS
[1 0 0 1 0 0] CT
-9.5 17 moveto 
1 -1 scale
(25) t 
GR
GR
GS
[0.6 0 0 0.6 380.4 284.19999] CT
0.149 GC
/Helvetica 16.667 F
GS
[1 0 0 1 0 0] CT
-9.5 17 moveto 
1 -1 scale
(30) t 
GR
GR
GS
[0.6 0 0 0.6 0 0] CT
0.149 GC
2 setlinecap
1 LJ
0.833 LW
N
91 467 M
91 39 L
S
GR
GS
[0.6 0 0 0.6 0 0] CT
0.149 GC
2 setlinecap
1 LJ
0.833 LW
N
634 467 M
634 39 L
S
GR
GS
[0.6 0 0 0.6 0 0] CT
0.149 GC
2 setlinecap
1 LJ
0.833 LW
N
91 467 M
96.43 467 L
S
GR
GS
[0.6 0 0 0.6 0 0] CT
0.149 GC
2 setlinecap
1 LJ
0.833 LW
N
91 413.5 M
96.43 413.5 L
S
GR
GS
[0.6 0 0 0.6 0 0] CT
0.149 GC
2 setlinecap
1 LJ
0.833 LW
N
91 360 M
96.43 360 L
S
GR
GS
[0.6 0 0 0.6 0 0] CT
0.149 GC
2 setlinecap
1 LJ
0.833 LW
N
91 306.5 M
96.43 306.5 L
S
GR
GS
[0.6 0 0 0.6 0 0] CT
0.149 GC
2 setlinecap
1 LJ
0.833 LW
N
91 253 M
96.43 253 L
S
GR
GS
[0.6 0 0 0.6 0 0] CT
0.149 GC
2 setlinecap
1 LJ
0.833 LW
N
91 199.5 M
96.43 199.5 L
S
GR
GS
[0.6 0 0 0.6 0 0] CT
0.149 GC
2 setlinecap
1 LJ
0.833 LW
N
91 146 M
96.43 146 L
S
GR
GS
[0.6 0 0 0.6 0 0] CT
0.149 GC
2 setlinecap
1 LJ
0.833 LW
N
91 92.5 M
96.43 92.5 L
S
GR
GS
[0.6 0 0 0.6 0 0] CT
0.149 GC
2 setlinecap
1 LJ
0.833 LW
N
91 39 M
96.43 39 L
S
GR
GS
[0.6 0 0 0.6 0 0] CT
0.149 GC
2 setlinecap
1 LJ
0.833 LW
N
634 467 M
628.57 467 L
S
GR
GS
[0.6 0 0 0.6 0 0] CT
0.149 GC
2 setlinecap
1 LJ
0.833 LW
N
634 413.5 M
628.57 413.5 L
S
GR
GS
[0.6 0 0 0.6 0 0] CT
0.149 GC
2 setlinecap
1 LJ
0.833 LW
N
634 360 M
628.57 360 L
S
GR
GS
[0.6 0 0 0.6 0 0] CT
0.149 GC
2 setlinecap
1 LJ
0.833 LW
N
634 306.5 M
628.57 306.5 L
S
GR
GS
[0.6 0 0 0.6 0 0] CT
0.149 GC
2 setlinecap
1 LJ
0.833 LW
N
634 253 M
628.57 253 L
S
GR
GS
[0.6 0 0 0.6 0 0] CT
0.149 GC
2 setlinecap
1 LJ
0.833 LW
N
634 199.5 M
628.57 199.5 L
S
GR
GS
[0.6 0 0 0.6 0 0] CT
0.149 GC
2 setlinecap
1 LJ
0.833 LW
N
634 146 M
628.57 146 L
S
GR
GS
[0.6 0 0 0.6 0 0] CT
0.149 GC
2 setlinecap
1 LJ
0.833 LW
N
634 92.5 M
628.57 92.5 L
S
GR
GS
[0.6 0 0 0.6 0 0] CT
0.149 GC
2 setlinecap
1 LJ
0.833 LW
N
634 39 M
628.57 39 L
S
GR
GS
[0.6 0 0 0.6 50.6 280.2] CT
0.149 GC
/Helvetica 16.667 F
GS
[1 0 0 1 0 0] CT
-34 6.5 moveto 
1 -1 scale
(-200) t 
GR
GR
GS
[0.6 0 0 0.6 50.6 248.1] CT
0.149 GC
/Helvetica 16.667 F
GS
[1 0 0 1 0 0] CT
-34 6.5 moveto 
1 -1 scale
(-150) t 
GR
GR
GS
[0.6 0 0 0.6 50.6 216] CT
0.149 GC
/Helvetica 16.667 F
GS
[1 0 0 1 0 0] CT
-34 6.5 moveto 
1 -1 scale
(-100) t 
GR
GR
GS
[0.6 0 0 0.6 50.6 183.9] CT
0.149 GC
/Helvetica 16.667 F
GS
[1 0 0 1 0 0] CT
-25 6.5 moveto 
1 -1 scale
(-50) t 
GR
GR
GS
[0.6 0 0 0.6 50.6 151.8] CT
0.149 GC
/Helvetica 16.667 F
GS
[1 0 0 1 0 0] CT
-10 6.5 moveto 
1 -1 scale
(0) t 
GR
GR
GS
[0.6 0 0 0.6 50.6 119.7] CT
0.149 GC
/Helvetica 16.667 F
GS
[1 0 0 1 0 0] CT
-19 6.5 moveto 
1 -1 scale
(50) t 
GR
GR
GS
[0.6 0 0 0.6 50.6 87.6] CT
0.149 GC
/Helvetica 16.667 F
GS
[1 0 0 1 0 0] CT
-28 6.5 moveto 
1 -1 scale
(100) t 
GR
GR
GS
[0.6 0 0 0.6 50.6 55.5] CT
0.149 GC
/Helvetica 16.667 F
GS
[1 0 0 1 0 0] CT
-28 6.5 moveto 
1 -1 scale
(150) t 
GR
GR
GS
[0.6 0 0 0.6 50.6 23.4] CT
0.149 GC
/Helvetica 16.667 F
GS
[1 0 0 1 0 0] CT
-28 6.5 moveto 
1 -1 scale
(200) t 
GR
GR
GS
[0.6 0 0 0.6 54.6 151.8] CT
1 0 0 RC
10.0 ML
0.833 LW
N
0 -5 M
0 5 L
-5 0 M
5 0 L
-3.536 -3.536 M
3.536 3.536 L
-3.536 3.536 M
3.536 -3.536 L
S
GR
GS
[0.6 0 0 0.6 76.32 151.8] CT
1 0 0 RC
10.0 ML
0.833 LW
N
0 -5 M
0 5 L
-5 0 M
5 0 L
-3.536 -3.536 M
3.536 3.536 L
-3.536 3.536 M
3.536 -3.536 L
S
GR
GS
[0.6 0 0 0.6 98.04 150.837] CT
1 0 0 RC
10.0 ML
0.833 LW
N
0 -5 M
0 5 L
-5 0 M
5 0 L
-3.536 -3.536 M
3.536 3.536 L
-3.536 3.536 M
3.536 -3.536 L
S
GR
GS
[0.6 0 0 0.6 119.76 150.837] CT
1 0 0 RC
10.0 ML
0.833 LW
N
0 -5 M
0 5 L
-5 0 M
5 0 L
-3.536 -3.536 M
3.536 3.536 L
-3.536 3.536 M
3.536 -3.536 L
S
GR
GS
[0.6 0 0 0.6 141.48 151.8] CT
1 0 0 RC
10.0 ML
0.833 LW
N
0 -5 M
0 5 L
-5 0 M
5 0 L
-3.536 -3.536 M
3.536 3.536 L
-3.536 3.536 M
3.536 -3.536 L
S
GR
GS
[0.6 0 0 0.6 163.2 151.8] CT
1 0 0 RC
10.0 ML
0.833 LW
N
0 -5 M
0 5 L
-5 0 M
5 0 L
-3.536 -3.536 M
3.536 3.536 L
-3.536 3.536 M
3.536 -3.536 L
S
GR
GS
[0.6 0 0 0.6 184.92001 151.8] CT
1 0 0 RC
10.0 ML
0.833 LW
N
0 -5 M
0 5 L
-5 0 M
5 0 L
-3.536 -3.536 M
3.536 3.536 L
-3.536 3.536 M
3.536 -3.536 L
S
GR
GS
[0.6 0 0 0.6 206.64 150.837] CT
1 0 0 RC
10.0 ML
0.833 LW
N
0 -5 M
0 5 L
-5 0 M
5 0 L
-3.536 -3.536 M
3.536 3.536 L
-3.536 3.536 M
3.536 -3.536 L
S
GR
GS
[0.6 0 0 0.6 228.36 151.8] CT
1 0 0 RC
10.0 ML
0.833 LW
N
0 -5 M
0 5 L
-5 0 M
5 0 L
-3.536 -3.536 M
3.536 3.536 L
-3.536 3.536 M
3.536 -3.536 L
S
GR
GS
[0.6 0 0 0.6 250.07999 151.8] CT
1 0 0 RC
10.0 ML
0.833 LW
N
0 -5 M
0 5 L
-5 0 M
5 0 L
-3.536 -3.536 M
3.536 3.536 L
-3.536 3.536 M
3.536 -3.536 L
S
GR
GS
[0.6 0 0 0.6 271.8 152.763] CT
1 0 0 RC
10.0 ML
0.833 LW
N
0 -5 M
0 5 L
-5 0 M
5 0 L
-3.536 -3.536 M
3.536 3.536 L
-3.536 3.536 M
3.536 -3.536 L
S
GR
GS
[0.6 0 0 0.6 293.52001 152.763] CT
1 0 0 RC
10.0 ML
0.833 LW
N
0 -5 M
0 5 L
-5 0 M
5 0 L
-3.536 -3.536 M
3.536 3.536 L
-3.536 3.536 M
3.536 -3.536 L
S
GR
GS
[0.6 0 0 0.6 315.24001 151.8] CT
1 0 0 RC
10.0 ML
0.833 LW
N
0 -5 M
0 5 L
-5 0 M
5 0 L
-3.536 -3.536 M
3.536 3.536 L
-3.536 3.536 M
3.536 -3.536 L
S
GR
GS
[0.6 0 0 0.6 336.95999 151.8] CT
1 0 0 RC
10.0 ML
0.833 LW
N
0 -5 M
0 5 L
-5 0 M
5 0 L
-3.536 -3.536 M
3.536 3.536 L
-3.536 3.536 M
3.536 -3.536 L
S
GR
GS
[0.6 0 0 0.6 358.67999 150.837] CT
1 0 0 RC
10.0 ML
0.833 LW
N
0 -5 M
0 5 L
-5 0 M
5 0 L
-3.536 -3.536 M
3.536 3.536 L
-3.536 3.536 M
3.536 -3.536 L
S
GR
GS
[0.6 0 0 0.6 380.4 151.8] CT
1 0 0 RC
10.0 ML
0.833 LW
N
0 -5 M
0 5 L
-5 0 M
5 0 L
-3.536 -3.536 M
3.536 3.536 L
-3.536 3.536 M
3.536 -3.536 L
S
GR
GS
[0.6 0 0 0.6 0 0] CT
0 0 1 RC
1 LJ
3.333 LW
N
91 253 M
95.022 253 L
99.044 253 L
103.067 253 L
107.089 253 L
111.111 253 L
115.133 253 L
119.156 253 L
123.178 253 L
127.2 253 L
S
GR
GS
[0.6 0 0 0.6 0 0] CT
0 0 1 RC
1 LJ
3.333 LW
N
127.2 253 M
131.222 252.822 L
135.244 252.643 L
139.267 252.465 L
143.289 252.287 L
147.311 252.108 L
151.333 251.93 L
155.356 251.752 L
159.378 251.573 L
163.4 251.395 L
S
GR
GS
[0.6 0 0 0.6 0 0] CT
0 0 1 RC
1 LJ
3.333 LW
N
163.4 251.395 M
167.422 251.395 L
171.444 251.395 L
175.467 251.395 L
179.489 251.395 L
183.511 251.395 L
187.533 251.395 L
191.556 251.395 L
195.578 251.395 L
199.6 251.395 L
S
GR
GS
[0.6 0 0 0.6 0 0] CT
0 0 1 RC
1 LJ
3.333 LW
N
199.6 251.395 M
203.622 251.573 L
207.644 251.752 L
211.667 251.93 L
215.689 252.108 L
219.711 252.287 L
223.733 252.465 L
227.756 252.643 L
231.778 252.822 L
235.8 253 L
S
GR
GS
[0.6 0 0 0.6 0 0] CT
0 0 1 RC
1 LJ
3.333 LW
N
235.8 253 M
239.822 253 L
243.844 253 L
247.867 253 L
251.889 253 L
255.911 253 L
259.933 253 L
263.956 253 L
267.978 253 L
272 253 L
S
GR
GS
[0.6 0 0 0.6 0 0] CT
0 0 1 RC
1 LJ
3.333 LW
N
272 253 M
276.022 253 L
280.044 253 L
284.067 253 L
288.089 253 L
292.111 253 L
296.133 253 L
300.156 253 L
304.178 253 L
308.2 253 L
S
GR
GS
[0.6 0 0 0.6 0 0] CT
0 0 1 RC
1 LJ
3.333 LW
N
308.2 253 M
312.222 252.822 L
316.244 252.643 L
320.267 252.465 L
324.289 252.287 L
328.311 252.108 L
332.333 251.93 L
336.356 251.752 L
340.378 251.573 L
344.4 251.395 L
S
GR
GS
[0.6 0 0 0.6 0 0] CT
0 0 1 RC
1 LJ
3.333 LW
N
344.4 251.395 M
348.422 251.573 L
352.444 251.752 L
356.467 251.93 L
360.489 252.108 L
364.511 252.287 L
368.533 252.465 L
372.556 252.643 L
376.578 252.822 L
380.6 253 L
S
GR
GS
[0.6 0 0 0.6 0 0] CT
0 0 1 RC
1 LJ
3.333 LW
N
380.6 253 M
384.622 253 L
388.644 253 L
392.667 253 L
396.689 253 L
400.711 253 L
404.733 253 L
408.756 253 L
412.778 253 L
416.8 253 L
S
GR
GS
[0.6 0 0 0.6 0 0] CT
0 0 1 RC
1 LJ
3.333 LW
N
416.8 253 M
420.822 253.178 L
424.844 253.357 L
428.867 253.535 L
432.889 253.713 L
436.911 253.892 L
440.933 254.07 L
444.956 254.248 L
448.978 254.427 L
453 254.605 L
S
GR
GS
[0.6 0 0 0.6 0 0] CT
0 0 1 RC
1 LJ
3.333 LW
N
453 254.605 M
457.022 254.605 L
461.044 254.605 L
465.067 254.605 L
469.089 254.605 L
473.111 254.605 L
477.133 254.605 L
481.156 254.605 L
485.178 254.605 L
489.2 254.605 L
S
GR
GS
[0.6 0 0 0.6 0 0] CT
0 0 1 RC
1 LJ
3.333 LW
N
489.2 254.605 M
493.222 254.427 L
497.244 254.248 L
501.267 254.07 L
505.289 253.892 L
509.311 253.713 L
513.333 253.535 L
517.356 253.357 L
521.378 253.178 L
525.4 253 L
S
GR
GS
[0.6 0 0 0.6 0 0] CT
0 0 1 RC
1 LJ
3.333 LW
N
525.4 253 M
529.422 253 L
533.444 253 L
537.467 253 L
541.489 253 L
545.511 253 L
549.533 253 L
553.556 253 L
557.578 253 L
561.6 253 L
S
GR
GS
[0.6 0 0 0.6 0 0] CT
0 0 1 RC
1 LJ
3.333 LW
N
561.6 253 M
565.622 252.822 L
569.644 252.643 L
573.667 252.465 L
577.689 252.287 L
581.711 252.108 L
585.733 251.93 L
589.756 251.752 L
593.778 251.573 L
597.8 251.395 L
S
GR
GS
[0.6 0 0 0.6 0 0] CT
0 0 1 RC
1 LJ
3.333 LW
N
597.8 251.395 M
601.822 251.573 L
605.844 251.752 L
609.867 251.93 L
613.889 252.108 L
617.911 252.287 L
621.933 252.465 L
625.956 252.643 L
629.978 252.822 L
634 253 L
S
GR
GS
[0.6 0 0 0.6 0 0] CT
1 LJ
3.333 LW
N
91 253 M
92.81 171.427 L
94.62 114.647 L
96.43 77.817 L
98.24 56.819 L
100.05 48.175 L
101.86 48.964 L
103.67 56.752 L
105.48 69.53 L
107.29 85.654 L
109.1 103.795 L
110.91 122.896 L
112.72 142.128 L
114.53 160.858 L
116.34 178.618 L
118.15 195.075 L
119.96 210.009 L
121.77 223.294 L
123.58 234.876 L
125.39 244.761 L
127.2 253 L
129.01 259.678 L
130.82 264.905 L
132.63 268.809 L
134.44 271.525 L
136.25 273.195 L
138.06 273.961 L
139.87 273.961 L
141.68 273.328 L
143.49 272.186 L
145.3 270.651 L
147.11 268.827 L
148.92 266.809 L
150.73 264.679 L
152.54 262.51 L
154.35 260.362 L
156.16 258.286 L
157.97 256.324 L
159.78 254.506 L
161.59 252.858 L
163.4 251.395 L
165.21 250.127 L
167.02 249.058 L
168.83 248.187 L
170.64 247.507 L
172.45 247.012 L
174.26 246.687 L
176.07 246.521 L
177.88 246.496 L
179.69 246.597 L
181.5 246.807 L
183.31 247.108 L
185.12 247.483 L
186.93 247.916 L
188.74 248.391 L
190.55 248.894 L
192.36 249.411 L
194.17 249.929 L
195.98 250.439 L
197.79 250.93 L
199.6 251.395 L
201.41 251.827 L
203.22 252.221 L
205.03 252.574 L
206.84 252.882 L
208.65 253.145 L
210.46 253.361 L
212.27 253.533 L
214.08 253.66 L
215.89 253.747 L
217.7 253.794 L
219.51 253.807 L
221.32 253.787 L
223.13 253.741 L
224.94 253.671 L
226.75 253.582 L
228.56 253.479 L
230.37 253.365 L
232.18 253.245 L
233.99 253.122 L
235.8 253 L
237.61 252.882 L
239.42 252.772 L
241.23 252.671 L
243.04 252.581 L
244.85 252.505 L
246.66 252.444 L
248.47 252.398 L
250.28 252.368 L
252.09 252.354 L
253.9 252.356 L
255.71 252.373 L
257.52 252.405 L
259.33 252.45 L
261.14 252.507 L
262.95 252.574 L
264.76 252.649 L
266.57 252.732 L
268.38 252.819 L
270.19 252.909 L
272 253 L
273.81 253.09 L
275.62 253.177 L
277.43 253.259 L
279.24 253.335 L
281.05 253.403 L
282.86 253.461 L
284.67 253.509 L
286.48 253.546 L
288.29 253.57 L
290.1 253.581 L
291.91 253.578 L
293.72 253.563 L
295.53 253.534 L
297.34 253.491 L
299.15 253.436 L
300.96 253.369 L
302.77 253.291 L
304.58 253.203 L
306.39 253.105 L
308.2 253 L
310.01 252.888 L
311.82 252.771 L
313.63 252.651 L
315.44 252.529 L
317.25 252.406 L
319.06 252.284 L
320.87 252.165 L
322.68 252.05 L
324.49 251.941 L
326.3 251.839 L
328.11 251.744 L
329.92 251.659 L
331.73 251.584 L
333.54 251.52 L
335.35 251.468 L
337.16 251.428 L
338.97 251.401 L
340.78 251.386 L
342.59 251.384 L
344.4 251.395 L
346.21 251.418 L
348.02 251.453 L
349.83 251.5 L
351.64 251.557 L
353.45 251.623 L
355.26 251.699 L
357.07 251.782 L
358.88 251.872 L
360.69 251.967 L
362.5 252.066 L
364.31 252.167 L
366.12 252.27 L
367.93 252.374 L
369.74 252.476 L
371.55 252.575 L
373.36 252.671 L
375.17 252.763 L
376.98 252.849 L
378.79 252.928 L
380.6 253 L
382.41 253.064 L
384.22 253.12 L
386.03 253.167 L
387.84 253.205 L
389.65 253.234 L
391.46 253.254 L
393.27 253.265 L
395.08 253.268 L
396.89 253.264 L
398.7 253.253 L
400.51 253.236 L
402.32 253.214 L
404.13 253.188 L
405.94 253.159 L
407.75 253.129 L
409.56 253.098 L
411.37 253.069 L
413.18 253.042 L
414.99 253.018 L
416.8 253 L
418.61 252.988 L
420.42 252.983 L
422.23 252.987 L
424.04 253.001 L
425.85 253.024 L
427.66 253.059 L
429.47 253.105 L
431.28 253.163 L
433.09 253.232 L
434.9 253.314 L
436.71 253.407 L
438.52 253.511 L
440.33 253.625 L
442.14 253.748 L
443.95 253.88 L
445.76 254.018 L
447.57 254.162 L
449.38 254.309 L
451.19 254.457 L
453 254.605 L
454.81 254.75 L
456.62 254.891 L
458.43 255.025 L
460.24 255.149 L
462.05 255.263 L
463.86 255.362 L
465.67 255.446 L
467.48 255.512 L
469.29 255.56 L
471.1 255.586 L
472.91 255.59 L
474.72 255.572 L
476.53 255.53 L
478.34 255.464 L
480.15 255.374 L
481.96 255.262 L
483.77 255.127 L
485.58 254.971 L
487.39 254.796 L
489.2 254.605 L
491.01 254.4 L
492.82 254.183 L
494.63 253.959 L
496.44 253.732 L
498.25 253.505 L
500.06 253.282 L
501.87 253.07 L
503.68 252.871 L
505.49 252.69 L
507.3 252.533 L
509.11 252.404 L
510.92 252.307 L
512.73 252.245 L
514.54 252.222 L
516.35 252.241 L
518.16 252.304 L
519.97 252.411 L
521.78 252.564 L
523.59 252.761 L
525.4 253 L
527.21 253.278 L
529.02 253.591 L
530.83 253.933 L
532.64 254.296 L
534.45 254.673 L
536.26 255.051 L
538.07 255.422 L
539.88 255.771 L
541.69 256.086 L
543.5 256.352 L
545.31 256.552 L
547.12 256.673 L
548.93 256.697 L
550.74 256.609 L
552.55 256.394 L
554.36 256.038 L
556.17 255.529 L
557.98 254.857 L
559.79 254.015 L
561.6 253 L
563.41 251.812 L
565.22 250.458 L
567.03 248.949 L
568.84 247.303 L
570.65 245.547 L
572.46 243.714 L
574.27 241.848 L
576.08 239.999 L
577.89 238.231 L
579.7 236.615 L
581.51 235.235 L
583.32 234.182 L
585.13 233.561 L
586.94 233.482 L
588.75 234.066 L
590.56 235.439 L
592.37 237.73 L
594.18 241.069 L
595.99 245.585 L
597.8 251.395 L
599.61 258.605 L
601.42 267.299 L
603.23 277.531 L
605.04 289.314 L
606.85 302.609 L
608.66 317.311 L
610.47 333.233 L
612.28 350.082 L
614.09 367.445 L
615.9 384.757 L
617.71 401.277 L
619.52 416.05 L
621.33 427.875 L
623.14 435.262 L
624.95 436.379 L
626.76 429.008 L
628.57 410.477 L
630.38 377.598 L
632.19 326.591 L
634 253 L
S
GR
GS
[0.6 0 0 0.6 0 0] CT
1 GC
N
621 77 M
621 52 L
413 52 L
413 77 L
cp
f
GR
GS
[0.6 0 0 0.6 283.09243 38.7] CT
/Helvetica 15 F
GS
[1 0 0 1 0 0] CT
0 6 moveto 
1 -1 scale
(Interpoationspolynom) t 
GR
GR
GS
[0.6 0 0 0.6 0 0] CT
1 LJ
3.333 LW
N
418.006 64.5 M
468.066 64.5 L
S
GR
GS
[0.6 0 0 0.6 0 0] CT
0.149 GC
10.0 ML
0.833 LW
N
413 77 M
413 52 L
621 52 L
621 77 L
cp
S
GR
%%Trailer
%%Pages: 1
%%EOF
