\relax 
\providecommand\hyper@newdestlabel[2]{}
\providecommand*\new@tpo@label[2]{}
\providecommand\HyperFirstAtBeginDocument{\AtBeginDocument}
\HyperFirstAtBeginDocument{\ifx\hyper@anchor\@undefined
\global\let\oldcontentsline\contentsline
\gdef\contentsline#1#2#3#4{\oldcontentsline{#1}{#2}{#3}}
\global\let\oldnewlabel\newlabel
\gdef\newlabel#1#2{\newlabelxx{#1}#2}
\gdef\newlabelxx#1#2#3#4#5#6{\oldnewlabel{#1}{{#2}{#3}}}
\AtEndDocument{\ifx\hyper@anchor\@undefined
\let\contentsline\oldcontentsline
\let\newlabel\oldnewlabel
\fi}
\fi}
\global\let\hyper@last\relax 
\gdef\HyperFirstAtBeginDocument#1{#1}
\providecommand\HyField@AuxAddToFields[1]{}
\providecommand\HyField@AuxAddToCoFields[2]{}
\providecommand\BKM@entry[2]{}
\bbl@cs{beforestart}
\catcode `"\active 
\abx@aux@refcontext{nty/global//global/global}
\@writefile{toc}{\boolfalse {citerequest}\boolfalse {citetracker}\boolfalse {pagetracker}\boolfalse {backtracker}\relax }
\@writefile{lof}{\boolfalse {citerequest}\boolfalse {citetracker}\boolfalse {pagetracker}\boolfalse {backtracker}\relax }
\@writefile{lot}{\boolfalse {citerequest}\boolfalse {citetracker}\boolfalse {pagetracker}\boolfalse {backtracker}\relax }
\babel@aux{ngerman}{}
\BKM@entry{id=1,dest={73656374696F6E2E31},srcline={28}}{5C3337365C3337375C303030535C303030655C3030306C5C303030625C303030735C303030745C303030735C303030745C3030305C3334345C3030306E5C303030645C303030695C303030675C3030306B5C303030655C303030695C303030745C303030735C303030655C303030725C3030306B5C3030306C5C3030305C3334345C303030725C303030755C3030306E5C30303067}
\BKM@entry{id=2,dest={73656374696F6E2E32},srcline={41}}{5C3337365C3337375C303030415C303030625C303030735C303030745C303030725C303030615C303030635C30303074}
\@writefile{toc}{\contentsline {section}{\numberline {1}Selbstständigkeitserklärung}{2}{section.1}\protected@file@percent }
\@writefile{toc}{\contentsline {section}{\numberline {2}Abstract}{2}{section.2}\protected@file@percent }
\BKM@entry{id=3,dest={73656374696F6E2E33},srcline={53}}{5C3337365C3337375C303030455C303030695C3030306E5C303030665C3030305C3337345C303030685C303030725C303030755C3030306E5C30303067}
\BKM@entry{id=4,dest={73656374696F6E2E34},srcline={72}}{5C3337365C3337375C303030485C303030615C303030755C303030705C303030745C303030745C303030655C303030695C3030306C}
\BKM@entry{id=5,dest={73756273656374696F6E2E342E31},srcline={73}}{5C3337365C3337375C303030415C3030306C5C3030306C5C303030675C303030655C3030306D5C303030655C303030695C3030306E5C303030655C3030305C3034305C303030445C303030695C303030735C3030306B5C303030755C303030735C303030735C303030695C3030306F5C3030306E}
\abx@aux@cite{Estep.2005}
\abx@aux@segm{0}{0}{Estep.2005}
\@writefile{toc}{\contentsline {section}{\numberline {3}Einführung}{3}{section.3}\protected@file@percent }
\@writefile{toc}{\contentsline {section}{\numberline {4}Hauptteil}{3}{section.4}\protected@file@percent }
\@writefile{toc}{\contentsline {subsection}{\numberline {4.1}Allgemeine Diskussion}{3}{subsection.4.1}\protected@file@percent }
\abx@aux@cite{Papula.2008}
\abx@aux@segm{0}{0}{Papula.2008}
\BKM@entry{id=6,dest={73756273656374696F6E2E342E32},srcline={98}}{5C3337365C3337375C303030545C303030615C303030795C3030306C5C3030306F5C303030725C3030302D5C303030415C303030705C303030705C303030725C3030306F5C303030785C303030695C3030306D5C303030615C303030745C303030695C3030306F5C3030306E}
\abx@aux@cite{Strampp.2015}
\abx@aux@segm{0}{0}{Strampp.2015}
\@writefile{toc}{\contentsline {subsection}{\numberline {4.2}Taylor-Approximation}{4}{subsection.4.2}\protected@file@percent }
\abx@aux@cite{Kerner.2013}
\abx@aux@segm{0}{0}{Kerner.2013}
\abx@aux@cite{Estep.2005}
\abx@aux@segm{0}{0}{Estep.2005}
\newlabel{TaylorKosinus}{{4.2}{5}{Taylor-Approximation}{equation.4.7}{}}
\newlabel{Taylor3D}{{4.2}{5}{Taylor-Approximation}{equation.4.7}{}}
\abx@aux@cite{Estep.2005}
\abx@aux@segm{0}{0}{Estep.2005}
\BKM@entry{id=7,dest={73756273656374696F6E2E342E33},srcline={226}}{5C3337365C3337375C303030495C3030306E5C303030745C303030655C303030725C303030705C3030306F5C3030306C5C303030615C303030745C303030695C3030306F5C3030306E}
\abx@aux@cite{Quarteroni.2006}
\abx@aux@segm{0}{0}{Quarteroni.2006}
\BKM@entry{id=8,dest={73756273756273656374696F6E2E342E332E31},srcline={235}}{5C3337365C3337375C3030304C5C303030615C303030675C303030725C303030615C3030306E5C303030675C303030655C3030302D5C303030465C3030306F5C303030725C3030306D5C303030655C3030306C}
\newlabel{fig:ln-plot}{{4.2}{6}{Taylor-Approximation}{equation.4.7}{}}
\@writefile{toc}{\contentsline {subsection}{\numberline {4.3}Interpolation}{6}{subsection.4.3}\protected@file@percent }
\newlabel{eq:InterPolBed}{{8}{6}{Interpolation}{equation.4.8}{}}
\@writefile{toc}{\contentsline {subsubsection}{\numberline {4.3.1}Lagrange-Formel}{6}{subsubsection.4.3.1}\protected@file@percent }
\newlabel{sec:lagr}{{4.3.1}{6}{Lagrange-Formel}{subsubsection.4.3.1}{}}
\abx@aux@cite{Quarteroni.2006}
\abx@aux@segm{0}{0}{Quarteroni.2006}
\BKM@entry{id=9,dest={73756273756273656374696F6E2E342E332E32},srcline={261}}{5C3337365C3337375C3030304E5C303030655C303030775C303030745C3030306F5C3030306E5C303030735C303030635C303030685C303030655C3030305C3034305C303030495C3030306E5C303030745C303030655C303030725C303030705C3030306F5C3030306C5C303030615C303030745C303030695C3030306F5C3030306E5C303030735C303030665C3030306F5C303030725C3030306D5C303030655C3030306C}
\abx@aux@cite{Stoer.2005}
\abx@aux@segm{0}{0}{Stoer.2005}
\BKM@entry{id=10,dest={73756273756273656374696F6E2E342E332E33},srcline={288}}{5C3337365C3337375C303030465C303030655C303030685C3030306C5C303030655C303030725C303030615C303030625C303030735C303030635C303030685C3030305C3334345C303030745C3030307A5C303030755C3030306E5C30303067}
\abx@aux@cite{Stoer.2005}
\abx@aux@segm{0}{0}{Stoer.2005}
\newlabel{eq:L_k}{{10}{7}{Lagrange-Formel}{equation.4.10}{}}
\newlabel{eq:Lagrange_formel}{{11}{7}{Lagrange-Formel}{equation.4.11}{}}
\@writefile{toc}{\contentsline {subsubsection}{\numberline {4.3.2}Newtonsche Interpolationsformel}{7}{subsubsection.4.3.2}\protected@file@percent }
\@writefile{toc}{\contentsline {subsubsection}{\numberline {4.3.3}Fehlerabschätzung}{7}{subsubsection.4.3.3}\protected@file@percent }
\abx@aux@cite{Quarteroni.2006}
\abx@aux@segm{0}{0}{Quarteroni.2006}
\BKM@entry{id=11,dest={73756273756273656374696F6E2E342E332E34},srcline={307}}{5C3337365C3337375C303030525C303030755C3030306E5C303030675C303030655C303030735C3030305C3034305C303030505C303030685C3030305C3334345C3030306E5C3030306F5C3030306D5C303030655C3030306E}
\BKM@entry{id=12,dest={73756273756273656374696F6E2E342E332E35},srcline={351}}{5C3337365C3337375C303030435C303030685C303030655C303030625C303030795C303030735C303030685C303030655C303030765C3030302D5C303030495C3030306E5C303030745C303030655C303030725C303030705C3030306F5C3030306C5C303030615C303030745C303030695C3030306F5C3030306E}
\newlabel{eq:FehLagr}{{18}{8}{Fehlerabschätzung}{equation.4.18}{}}
\@writefile{toc}{\contentsline {subsubsection}{\numberline {4.3.4}Runges Phänomen}{8}{subsubsection.4.3.4}\protected@file@percent }
\newlabel{sec:runges}{{4.3.4}{8}{Runges Phänomen}{subsubsection.4.3.4}{}}
\newlabel{eq:Runge}{{19}{8}{Runges Phänomen}{equation.4.19}{}}
\providecommand*\caption@xref[2]{\@setref\relax\@undefined{#1}}
\newlabel{fig:runge_lagrange}{{1a}{8}{Runge-Funktion mit Lagrange interpoliert.\relax }{figure.caption.2}{}}
\newlabel{sub@fig:runge_lagrange}{{a}{8}{Runge-Funktion mit Lagrange interpoliert.\relax }{figure.caption.2}{}}
\newlabel{fig:runge_lag_fehler}{{1b}{8}{Fehler der approximierten Funktion\relax }{figure.caption.2}{}}
\newlabel{sub@fig:runge_lag_fehler}{{b}{8}{Fehler der approximierten Funktion\relax }{figure.caption.2}{}}
\newlabel{fig:runge}{{\caption@xref {fig:runge}{ on input line 348}}{8}{Runges Phänomen}{figure.caption.2}{}}
\@writefile{toc}{\contentsline {subsubsection}{\numberline {4.3.5}Chebyshev-Interpolation}{8}{subsubsection.4.3.5}\protected@file@percent }
\BKM@entry{id=13,dest={73756273756273656374696F6E2E342E332E36},srcline={430}}{5C3337365C3337375C303030545C303030725C303030695C303030675C3030306F5C3030306E5C3030306F5C3030306D5C303030655C303030745C303030725C303030695C303030735C303030635C303030685C303030655C3030305C3034305C303030495C3030306E5C303030745C303030655C303030725C303030705C3030306F5C3030306C5C303030615C303030745C303030695C3030306F5C3030306E}
\newlabel{fig:cheby_plot_cheby}{{2a}{9}{Runge-Funktion mit Chebyschev-Abszissen interpoliert.\relax }{figure.caption.3}{}}
\newlabel{sub@fig:cheby_plot_cheby}{{a}{9}{Runge-Funktion mit Chebyschev-Abszissen interpoliert.\relax }{figure.caption.3}{}}
\newlabel{fig:cheby_plot_pn}{{2b}{9}{Runge-Funktion mit äquidistanten Stützstellen interpoliert.\relax }{figure.caption.3}{}}
\newlabel{sub@fig:cheby_plot_pn}{{b}{9}{Runge-Funktion mit äquidistanten Stützstellen interpoliert.\relax }{figure.caption.3}{}}
\@writefile{lof}{\contentsline {figure}{\numberline {2}{\ignorespaces Interpolation der Runge-Funktion im Vergleich: Chebyschev \& Lagrange. \relax }}{9}{figure.caption.3}\protected@file@percent }
\newlabel{fig:cheby_plot}{{2}{9}{Interpolation der Runge-Funktion im Vergleich: Chebyschev \& Lagrange. \relax }{figure.caption.3}{}}
\newlabel{fig:cheby_plot__fehler_fcheby}{{3a}{9}{Runge-Funktion mit Chebyschev-Abszissen interpoliert.\relax }{figure.caption.4}{}}
\newlabel{sub@fig:cheby_plot__fehler_fcheby}{{a}{9}{Runge-Funktion mit Chebyschev-Abszissen interpoliert.\relax }{figure.caption.4}{}}
\newlabel{fig:cheby_plot_fehler_pn}{{3b}{9}{Runge-Funktion mit äquidistanten Stützstellen interpoliert.\relax }{figure.caption.4}{}}
\newlabel{sub@fig:cheby_plot_fehler_pn}{{b}{9}{Runge-Funktion mit äquidistanten Stützstellen interpoliert.\relax }{figure.caption.4}{}}
\@writefile{lof}{\contentsline {figure}{\numberline {3}{\ignorespaces Interpolation der Runge-Funktion im Vergleich: Chebyschev \& Lagrange. \relax }}{9}{figure.caption.4}\protected@file@percent }
\newlabel{fig:cheby_plot_fehler}{{3}{9}{Interpolation der Runge-Funktion im Vergleich: Chebyschev \& Lagrange. \relax }{figure.caption.4}{}}
\@writefile{toc}{\contentsline {subsubsection}{\numberline {4.3.6}Trigonometrische Interpolation}{9}{subsubsection.4.3.6}\protected@file@percent }
\abx@aux@cite{Quarteroni.2006}
\abx@aux@segm{0}{0}{Quarteroni.2006}
\abx@aux@cite{Quarteroni.2006}
\abx@aux@segm{0}{0}{Quarteroni.2006}
\abx@aux@cite{Quarteroni.2006}
\abx@aux@segm{0}{0}{Quarteroni.2006}
\abx@aux@cite{Quarteroni.2006}
\abx@aux@segm{0}{0}{Quarteroni.2006}
\abx@aux@cite{Quarteroni.2006}
\abx@aux@segm{0}{0}{Quarteroni.2006}
\abx@aux@cite{Quarteroni.2006}
\abx@aux@segm{0}{0}{Quarteroni.2006}
\abx@aux@cite{Quarteroni.2006}
\abx@aux@segm{0}{0}{Quarteroni.2006}
\BKM@entry{id=14,dest={73756273756273656374696F6E2E342E332E37},srcline={508}}{5C3337365C3337375C303030415C3030306E5C303030775C303030655C3030306E5C303030645C303030755C3030306E5C303030675C303030655C3030306E5C3030305C3034305C303030645C303030655C303030725C3030305C3034305C303030505C3030306F5C3030306C5C303030795C3030306E5C3030306F5C3030306D5C303030695C3030306E5C303030745C303030655C303030725C303030705C3030306F5C3030306C5C303030615C303030745C303030695C3030306F5C3030306E}
\newlabel{eq:fourier_ngerade}{{22}{10}{Trigonometrische Interpolation}{equation.4.22}{}}
\newlabel{eq:fourier_nungerade}{{23}{10}{Trigonometrische Interpolation}{equation.4.23}{}}
\newlabel{eq:fourier_c}{{24}{10}{Trigonometrische Interpolation}{equation.4.24}{}}
\newlabel{eq:fourier_koeff}{{26}{10}{Trigonometrische Interpolation}{equation.4.26}{}}
\newlabel{eq:}{{31}{10}{Trigonometrische Interpolation}{equation.4.31}{}}
\BKM@entry{id=15,dest={73756273756273656374696F6E2E342E332E38},srcline={517}}{5C3337365C3337375C303030425C303030655C303030695C303030735C303030705C303030695C303030655C3030306C5C3030303A5C3030305C3034305C303030425C303030655C303030735C303030635C303030685C3030306C5C303030655C303030755C3030306E5C303030695C303030675C303030755C3030306E5C303030675C303030735C3030306B5C303030755C303030725C303030765C30303065}
\abx@aux@cite{Quarteroni.2006}
\abx@aux@segm{0}{0}{Quarteroni.2006}
\@writefile{toc}{\contentsline {subsubsection}{\numberline {4.3.7}Anwendungen der Polynominterpolation}{11}{subsubsection.4.3.7}\protected@file@percent }
\@writefile{toc}{\contentsline {subsubsection}{\numberline {4.3.8}Beispiel: Beschleunigungskurve}{11}{subsubsection.4.3.8}\protected@file@percent }
\@writefile{lot}{\contentsline {table}{\numberline {1}{\ignorespaces Erhobene Werte\relax }}{11}{table.caption.5}\protected@file@percent }
\newlabel{tab:Werte}{{1}{11}{Erhobene Werte\relax }{table.caption.5}{}}
\@writefile{lol}{\contentsline {lstlisting}{\numberline {1}\texttt  {Lpoly}-Funktion}{11}{lstlisting.1}\protected@file@percent }
\@writefile{lol}{\contentsline {lstlisting}{\numberline {2}\texttt  {Lpoly}-Funktion}{11}{lstlisting.2}\protected@file@percent }
\@writefile{lol}{\contentsline {lstlisting}{\numberline {3}\texttt  {Lpoly}-Funktion}{11}{lstlisting.3}\protected@file@percent }
\BKM@entry{id=16,dest={73756273656374696F6E2E342E34},srcline={576}}{5C3337365C3337375C303030535C303030705C3030306C5C303030695C3030306E5C303030655C30303073}
\abx@aux@cite{Barwolff.2016}
\abx@aux@segm{0}{0}{Barwolff.2016}
\abx@aux@cite{Barwolff.2016}
\abx@aux@segm{0}{0}{Barwolff.2016}
\abx@aux@cite{Barwolff.2016}
\abx@aux@segm{0}{0}{Barwolff.2016}
\BKM@entry{id=17,dest={73756273756273656374696F6E2E342E342E31},srcline={590}}{5C3337365C3337375C3030306C5C303030695C3030306E5C303030655C303030615C303030725C303030655C3030305C3034305C303030535C303030705C3030306C5C303030695C3030306E5C303030655C30303073}
\abx@aux@cite{Barwolff.2016}
\abx@aux@segm{0}{0}{Barwolff.2016}
\@writefile{lof}{\contentsline {figure}{\numberline {4}{\ignorespaces Daten aus der Tabelle \ref  {tab:Werte} Interpoliert mit einem Polynom $6.$ Grades\relax }}{12}{figure.caption.6}\protected@file@percent }
\newlabel{fig:Besch_plot}{{4}{12}{Daten aus der Tabelle \ref {tab:Werte} Interpoliert mit einem Polynom $6.$ Grades\relax }{figure.caption.6}{}}
\@writefile{toc}{\contentsline {subsection}{\numberline {4.4}Splines}{12}{subsection.4.4}\protected@file@percent }
\newlabel{sec:splines}{{4.4}{12}{Splines}{subsection.4.4}{}}
\@writefile{toc}{\contentsline {subsubsection}{\numberline {4.4.1}lineare Splines}{12}{subsubsection.4.4.1}\protected@file@percent }
\@writefile{lol}{\contentsline {lstlisting}{\numberline {4}Inhalt der \texttt  {myLSpline}-Funktion}{12}{lstlisting.4}\protected@file@percent }
\BKM@entry{id=18,dest={73756273756273656374696F6E2E342E342E32},srcline={618}}{5C3337365C3337375C303030535C303030705C3030306C5C303030695C3030306E5C303030655C303030735C3030305C3034305C303030685C3030305C3336365C303030685C303030655C303030725C303030655C303030725C3030305C3034305C3030304F5C303030725C303030645C3030306E5C303030755C3030306E5C30303067}
\abx@aux@cite{Barwolff.2016}
\abx@aux@segm{0}{0}{Barwolff.2016}
\abx@aux@cite{Barwolff.2016}
\abx@aux@segm{0}{0}{Barwolff.2016}
\abx@aux@cite{Barwolff.2016}
\abx@aux@segm{0}{0}{Barwolff.2016}
\newlabel{linearCode}{{4.4.1}{13}{lineare Splines}{lstnumber.4.3}{}}
\newlabel{visualize}{{4.4.1}{13}{lineare Splines}{lstnumber.4.3}{}}
\newlabel{fig:lSpline10}{{5a}{13}{linearer Spline mit 10 Knoten\relax }{figure.caption.7}{}}
\newlabel{sub@fig:lSpline10}{{a}{13}{linearer Spline mit 10 Knoten\relax }{figure.caption.7}{}}
\newlabel{fig:lSpline100}{{5b}{13}{linearer Spline mit 100 Knoten\relax }{figure.caption.7}{}}
\newlabel{sub@fig:lSpline100}{{b}{13}{linearer Spline mit 100 Knoten\relax }{figure.caption.7}{}}
\@writefile{lof}{\contentsline {figure}{\numberline {5}{\ignorespaces Linearer Spline der Sinus-Funktion mit verschiedener Knotenanzahl\relax }}{13}{figure.caption.7}\protected@file@percent }
\newlabel{fig:lSplineComparison}{{5}{13}{Linearer Spline der Sinus-Funktion mit verschiedener Knotenanzahl\relax }{figure.caption.7}{}}
\@writefile{toc}{\contentsline {subsubsection}{\numberline {4.4.2}Splines höherer Ordnung}{13}{subsubsection.4.4.2}\protected@file@percent }
\newlabel{cubSpl}{{34}{13}{Splines höherer Ordnung}{equation.4.34}{}}
\newlabel{first}{{36}{13}{Splines höherer Ordnung}{equation.4.36}{}}
\newlabel{last}{{41}{13}{Splines höherer Ordnung}{equation.4.41}{}}
\abx@aux@cite{Barwolff.2016}
\abx@aux@segm{0}{0}{Barwolff.2016}
\newlabel{Randbedingungen}{{46}{14}{Splines höherer Ordnung}{equation.4.46}{}}
\newlabel{EindeutigkeitSpl}{{4.4.2}{14}{Splines höherer Ordnung}{equation.4.46}{}}
\@writefile{lol}{\contentsline {lstlisting}{\numberline {5}Aufruf der \texttt  {csapi}-Funktion}{14}{lstlisting.5}\protected@file@percent }
\newlabel{cSplCode}{{4.4.2}{14}{Splines höherer Ordnung}{lstnumber.5.3}{}}
\newlabel{fig:cSpline10}{{6b}{14}{kubischer Spline mit 10 Knoten\relax }{figure.caption.8}{}}
\newlabel{sub@fig:cSpline10}{{b}{14}{kubischer Spline mit 10 Knoten\relax }{figure.caption.8}{}}
\@writefile{lof}{\contentsline {figure}{\numberline {6}{\ignorespaces Vergleich von linearem und kubischem Spline bei gleicher Knotenanzahl\relax }}{14}{figure.caption.8}\protected@file@percent }
\newlabel{fig:cSplineComparison}{{6}{14}{Vergleich von linearem und kubischem Spline bei gleicher Knotenanzahl\relax }{figure.caption.8}{}}
\abx@aux@cite{Barwolff.2016}
\abx@aux@segm{0}{0}{Barwolff.2016}
\BKM@entry{id=19,dest={73756273756273656374696F6E2E342E342E33},srcline={728}}{5C3337365C3337375C303030465C303030655C303030685C3030306C5C303030655C303030725C303030615C303030625C303030735C303030635C303030685C3030305C3334345C303030745C3030307A5C303030755C3030306E5C303030675C3030305C3034305C303030645C303030655C303030725C3030305C3034305C303030535C303030705C3030306C5C303030695C3030306E5C303030655C3030302D5C303030495C3030306E5C303030745C303030655C303030725C303030705C3030306F5C3030306C5C303030615C303030745C303030695C3030306F5C3030306E}
\abx@aux@cite{Barwolff.2016}
\abx@aux@segm{0}{0}{Barwolff.2016}
\abx@aux@cite{Plato.2000}
\abx@aux@segm{0}{0}{Plato.2000}
\abx@aux@cite{Estep.2005}
\abx@aux@segm{0}{0}{Estep.2005}
\abx@aux@cite{Barwolff.2016}
\abx@aux@segm{0}{0}{Barwolff.2016}
\BKM@entry{id=20,dest={73756273756273656374696F6E2E342E342E34},srcline={746}}{5C3337365C3337375C303030415C3030306E5C303030775C303030655C3030306E5C303030645C303030755C3030306E5C303030675C303030735C303030625C303030655C303030695C303030735C303030705C303030695C303030655C3030306C5C3030305C3034305C3030306C5C303030695C3030306E5C303030655C303030615C303030725C303030655C3030305C3034305C303030535C303030705C3030306C5C303030695C3030306E5C303030655C30303073}
\@writefile{lof}{\contentsline {figure}{\numberline {7}{\ignorespaces Oszillationsverhalten von Interpolationspolynom und kubischem Spline\relax }}{15}{figure.caption.9}\protected@file@percent }
\newlabel{fig:rungeSpline}{{7}{15}{Oszillationsverhalten von Interpolationspolynom und kubischem Spline\relax }{figure.caption.9}{}}
\@writefile{toc}{\contentsline {subsubsection}{\numberline {4.4.3}Fehlerabschätzung der Spline-Interpolation}{15}{subsubsection.4.4.3}\protected@file@percent }
\@writefile{toc}{\contentsline {subsubsection}{\numberline {4.4.4}Anwendungsbeispiel lineare Splines}{15}{subsubsection.4.4.4}\protected@file@percent }
\BKM@entry{id=21,dest={73756273656374696F6E2E342E35},srcline={783}}{5C3337365C3337375C303030465C303030655C303030685C3030306C5C303030655C303030725C303030715C303030755C303030615C303030645C303030725C303030615C303030745C30303065}
\abx@aux@cite{NguyenSchaefer.2017}
\abx@aux@segm{0}{0}{NguyenSchaefer.2017}
\abx@aux@cite{Fahrmeir.2009}
\abx@aux@segm{0}{0}{Fahrmeir.2009}
\BKM@entry{id=22,dest={73756273756273656374696F6E2E342E352E31},srcline={794}}{5C3337365C3337375C3030304C5C303030695C3030306E5C303030655C303030615C303030725C303030655C3030305C3034305C303030525C303030655C303030675C303030725C303030655C303030735C303030735C303030695C3030306F5C3030306E}
\newlabel{fig:elevatorG}{{8a}{16}{lineare Spline-Funktion\relax }{figure.caption.10}{}}
\newlabel{sub@fig:elevatorG}{{a}{16}{lineare Spline-Funktion\relax }{figure.caption.10}{}}
\newlabel{fig:elevatorB}{{8b}{16}{Interpolationspolynom vom Grad 15\relax }{figure.caption.10}{}}
\newlabel{sub@fig:elevatorB}{{b}{16}{Interpolationspolynom vom Grad 15\relax }{figure.caption.10}{}}
\@writefile{lof}{\contentsline {figure}{\numberline {8}{\ignorespaces Geschwindigkeitskurve des Aufzugs\relax }}{16}{figure.caption.10}\protected@file@percent }
\newlabel{fig:elevatorComp}{{8}{16}{Geschwindigkeitskurve des Aufzugs\relax }{figure.caption.10}{}}
\@writefile{toc}{\contentsline {subsection}{\numberline {4.5}Fehlerquadrate}{16}{subsection.4.5}\protected@file@percent }
\abx@aux@cite{NguyenSchaefer.2017}
\abx@aux@segm{0}{0}{NguyenSchaefer.2017}
\BKM@entry{id=23,dest={73756273756273656374696F6E2E342E352E32},srcline={842}}{5C3337365C3337375C303030505C3030306F5C3030306C5C303030795C3030306E5C3030306F5C3030306D5C303030695C303030615C3030306C5C303030655C3030305C3034305C303030525C303030655C303030675C303030725C303030655C303030735C303030735C303030695C3030306F5C3030306E}
\abx@aux@cite{Froehling}
\abx@aux@segm{0}{0}{Froehling}
\@writefile{toc}{\contentsline {subsubsection}{\numberline {4.5.1}Lineare Regression}{17}{subsubsection.4.5.1}\protected@file@percent }
\newlabel{eq:quadrFehler}{{47}{17}{Lineare Regression}{equation.4.47}{}}
\newlabel{eq:sumQuadrFehler}{{48}{17}{Lineare Regression}{equation.4.48}{}}
\@writefile{toc}{\contentsline {subsubsection}{\numberline {4.5.2}Polynomiale Regression}{17}{subsubsection.4.5.2}\protected@file@percent }
\BKM@entry{id=24,dest={73756273756273656374696F6E2E342E352E33},srcline={884}}{5C3337365C3337375C303030425C303030655C303030695C303030735C303030705C303030695C303030655C3030306C5C3030303A5C3030305C3034305C3030304F5C303030685C3030306D5C303030735C303030635C303030685C303030655C3030305C3034305C303030475C303030655C303030735C303030655C303030745C3030307A}
\newlabel{eq:matrixmult}{{56}{18}{Polynomiale Regression}{equation.4.56}{}}
\@writefile{toc}{\contentsline {subsubsection}{\numberline {4.5.3}Beispiel: Ohmsche Gesetz}{18}{subsubsection.4.5.3}\protected@file@percent }
\@writefile{lof}{\contentsline {figure}{\numberline {9}{\ignorespaces Bei der Messung erhobene Spannungswerte\relax }}{18}{figure.caption.11}\protected@file@percent }
\newlabel{fig:messwerte}{{9}{18}{Bei der Messung erhobene Spannungswerte\relax }{figure.caption.11}{}}
\@writefile{lol}{\contentsline {lstlisting}{\numberline {6}Aufruf der \texttt  {myLinearPolyfit}-Funktion}{18}{lstlisting.6}\protected@file@percent }
\abx@aux@cite{Fahrmeir.2009}
\abx@aux@segm{0}{0}{Fahrmeir.2009}
\@writefile{lof}{\contentsline {figure}{\numberline {10}{\ignorespaces Die berechnete Regressionsgerade für die erhobenen Spannungswerte\relax }}{19}{figure.caption.12}\protected@file@percent }
\newlabel{fig:gerade}{{10}{19}{Die berechnete Regressionsgerade für die erhobenen Spannungswerte\relax }{figure.caption.12}{}}
\@writefile{lof}{\contentsline {figure}{\numberline {11}{\ignorespaces Graphische Darstellung der entstehenden Fehlerquadrate zwischen gemessener Spannung und der Regressionsgerade\relax }}{19}{figure.caption.13}\protected@file@percent }
\newlabel{fig:fehlerquadrate}{{11}{19}{Graphische Darstellung der entstehenden Fehlerquadrate zwischen gemessener Spannung und der Regressionsgerade\relax }{figure.caption.13}{}}
\newlabel{eq:guete}{{57}{19}{Beispiel: Ohmsche Gesetz}{equation.4.57}{}}
\BKM@entry{id=25,dest={73656374696F6E2E35},srcline={946}}{5C3337365C3337375C303030535C303030635C303030685C3030306C5C303030755C303030735C303030735C3030302F5C303030465C303030615C3030307A5C303030695C30303074}
\newlabel{fig:wenigeMesswerte}{{12a}{20}{Lineare Regression mit wenigen Messwerten und\\ einem großen Fehler\relax }{figure.caption.14}{}}
\newlabel{sub@fig:wenigeMesswerte}{{a}{20}{Lineare Regression mit wenigen Messwerten und\\ einem großen Fehler\relax }{figure.caption.14}{}}
\newlabel{fig:vieleMesswerte}{{12b}{20}{Lineare Regression mit vielen Messwerten und einem\\ großen Fehler\relax }{figure.caption.14}{}}
\newlabel{sub@fig:vieleMesswerte}{{b}{20}{Lineare Regression mit vielen Messwerten und einem\\ großen Fehler\relax }{figure.caption.14}{}}
\@writefile{lof}{\contentsline {figure}{\numberline {12}{\ignorespaces Vergleich der Auswirkung von großen Messfehlern auf die Annäherung\relax }}{20}{figure.caption.14}\protected@file@percent }
\newlabel{fig:Vergleich}{{12}{20}{Vergleich der Auswirkung von großen Messfehlern auf die Annäherung\relax }{figure.caption.14}{}}
\@writefile{toc}{\contentsline {section}{\numberline {5}Schluss/Fazit}{20}{section.5}\protected@file@percent }
\BKM@entry{id=26,dest={73656374696F6E2E36},srcline={962}}{5C3337365C3337375C303030415C3030306E5C303030685C303030615C3030306E5C30303067}
\@writefile{toc}{\contentsline {section}{\numberline {6}Anhang}{21}{section.6}\protected@file@percent }
\@writefile{lol}{\contentsline {lstlisting}{\numberline {7}Die \texttt  {Lpoly}-Funktion in MatLab}{21}{lstlisting.7}\protected@file@percent }
\@writefile{lol}{\contentsline {lstlisting}{\numberline {8}Die \texttt  {Lpoly}-Funktion in MatLab}{21}{lstlisting.8}\protected@file@percent }
\@writefile{lol}{\contentsline {lstlisting}{\numberline {9}Die \texttt  {Lpoly}-Funktion in MatLab}{22}{lstlisting.9}\protected@file@percent }
\abx@aux@refcontextdefaultsdone
\abx@aux@defaultrefcontext{0}{Barwolff.2016}{nty/global//global/global}
\abx@aux@defaultrefcontext{0}{Froehling}{nty/global//global/global}
\abx@aux@defaultrefcontext{0}{Estep.2005}{nty/global//global/global}
\abx@aux@defaultrefcontext{0}{Fahrmeir.2009}{nty/global//global/global}
\abx@aux@defaultrefcontext{0}{Kerner.2013}{nty/global//global/global}
\abx@aux@defaultrefcontext{0}{NguyenSchaefer.2017}{nty/global//global/global}
\abx@aux@defaultrefcontext{0}{Papula.2008}{nty/global//global/global}
\abx@aux@defaultrefcontext{0}{Plato.2000}{nty/global//global/global}
\abx@aux@defaultrefcontext{0}{Quarteroni.2006}{nty/global//global/global}
\abx@aux@defaultrefcontext{0}{Stoer.2005}{nty/global//global/global}
\abx@aux@defaultrefcontext{0}{Strampp.2015}{nty/global//global/global}
\global\@namedef{scr@dte@section@lastmaxnumwidth}{8.75694pt}
\global\@namedef{scr@dte@subsection@lastmaxnumwidth}{16.10994pt}
\global\@namedef{scr@dte@subsubsection@lastmaxnumwidth}{23.61594pt}
\global\@namedef{scr@dte@figure@lastmaxnumwidth}{13.60794pt}
