x,runge,fxn_5,fxn_9,fehler_fxn9,fehler_fxn5
-1,0.0384615384615385,0.0384615384615385,0.0384615384615385,0,0
-0.989949748743719,0.0392156668574586,0.0254810848796705,-0.050550575109154,0.0897662419666126,0.0137345819777881
-0.979899497487437,0.0399918806413889,0.0135787179131796,-0.120302541949237,0.160294422590626,0.0264131627282093
-0.969849246231156,0.0407910377348773,0.00272559580807702,-0.17314187532982,0.213932913064697,0.0380654419268003
-0.959798994974874,0.0416140374474846,-0.00710682888601385,-0.211225163926722,0.252839201374207,0.0487208663334985
-0.949748743718593,0.0424618228528907,-0.0159468093158577,-0.236528646460207,0.278990469313098,0.0584086321687484
-0.939698492462312,0.0433353833224268,-0.0238223043246067,-0.250858397055436,0.294193780377863,0.0671576876470335
-0.92964824120603,0.0442357572277838,-0.0307609784518012,-0.255860130036502,0.300095887264286,0.074996735679585
-0.919597989949749,0.0451640348256096,-0.0367902019333692,-0.253028632776073,0.298192667601683,0.0819542367589788
-0.909547738693467,0.0461213613377652,-0.0419370507016266,-0.243716835131978,0.289838196469744,0.0880584120393919
-0.899497487437186,0.0471089402421529,-0.0462283063852773,-0.229144523911238,0.276253464153391,0.0933372466274302
-0.889447236180904,0.0481280367902813,-0.0496904563094135,-0.21040671071139,0.258534747501672,0.0978184930996948
-0.879396984924623,0.0491799817690934,-0.0523496934955143,-0.18848166139805,0.237661643167143,0.101529675264608
-0.869346733668342,0.0502661755260679,-0.054231916661447,-0.164238595387059,0.214504770913127,0.104498092187515
-0.85929648241206,0.0513880922782258,-0.0553627302214674,-0.138445062808664,0.18983315508689,0.106750822499693
-0.849246231155779,0.0525472847274377,-0.0557674442862182,-0.11177400754053,0.164321292267967,0.108314729013656
-0.839195979899497,0.0537453890063597,-0.0554710746627307,-0.0848105240055329,0.138555913011893,0.10921646366909
-0.829145728643216,0.0549841299814225,-0.0544983428544242,-0.0580583155396099,0.113042445521032,0.109482472835847
-0.819095477386935,0.056265326941602,-0.0528736760611049,-0.0319458620441051,0.0882111889857072,0.109139003002707
-0.809045226130653,0.0575908997041997,-0.0506212071789679,-0.00683230454634711,0.0644232042505468,0.108212106883168
-0.798994974874372,0.0589628751715985,-0.0477647748005954,0.0169869457985771,0.0419759293730214,0.106727649972194
-0.78894472361809,0.0603833943759473,-0.0443279232149581,0.0392748668226762,0.021108527553271,0.104711317590905
-0.778894472361809,0.0618547200519816,-0.0403339024074144,0.0598477452250696,0.00200697482691203,0.102188622459396
-0.768844221105528,0.0633792447817472,-0.0358056680597101,0.0785703499564991,-0.0151911051747518,0.0991849128414573
-0.758793969849246,0.0649594997588686,-0.0307658815499793,0.0953513519384018,-0.0303918521795332,0.0957253813088478
-0.748743718592965,0.0665981642242351,-0.0252369099527439,0.110138983037386,-0.0435408188131506,0.0918350741769789
-0.738693467336683,0.0682980756295854,-0.0192408260389138,0.122916927306698,-0.0546188516771123,0.0875389016684992
-0.728643216080402,0.0700622405904895,-0.0127994082757866,0.133700437597034,-0.0636381970065447,0.0828616488662761
-0.718592964824121,0.0718938466956898,-0.0059341408270477,0.142532670729809,-0.0706388240341188,0.0778279875227375
-0.708542713567839,0.0737962752457019,0.00133378644722948,0.149481234516738,-0.075684959271036,0.0724624887984724
-0.698492462311558,0.0757731150000191,0.00898347799058352,0.154634940000384,-0.0788618250003651,0.0667896370094356
-0.688442211055276,0.0778281770192561,0.0169943325501656,0.158100752381028,-0.0802725753617717,0.0608338444690905
-0.678391959798995,0.0799655106961266,0.0253460431767385,0.160000934186019,-0.0800354234898919,0.0546194675193881
-0.668341708542714,0.0821894210773184,0.0340185972246775,0.160470374328518,-0.0782809532512,0.0481708238526408
-0.658291457286432,0.0845044875871164,0.04299227635197,0.159654096793273,-0.0751496092061566,0.0415122112351464
-0.648241206030151,0.0869155842730661,0.052247656520215,0.157704942777859,-0.0707893585047927,0.034667927752851
-0.638190954773869,0.0894279017040553,0.0617656079946245,0.154781420208567,-0.0653535185045118,0.0276622937094308
-0.628140703517588,0.0920469706619312,0.0715272953440219,0.151045714640863,-0.0589987439789321,0.0205196753179093
-0.618090452261307,0.0947786877791234,0.0815141774408431,0.146661855645126,-0.0518831678660026,0.0132645103382803
-0.608040201005025,0.097629343286673,0.0917080074611359,0.141794032869107,-0.0441646895824338,0.00592133582553701
-0.597989949748744,0.100605651049473,0.10209083288456,0.136605056059335,-0.0359994050098617,-0.00148518183508711
-0.587939698492462,0.103714781078292,0.112644995494389,0.13125495341443,-0.0275401723361378,-0.00893021441609677
-0.577889447236181,0.106964394721062,0.123353131377506,0.125899702734055,-0.0189353080129928,-0.0163887366564435
-0.5678391959799,0.110362682748742,0.134198170924407,0.120690089917999,-0.010327407169257,-0.0238354881756655
-0.557788944723618,0.113918406563376,0.145163338829202,0.115770689460631,-0.00185228289725495,-0.0312449322658264
-0.547738693467337,0.117640942767344,0.156232154089611,0.111278961676738,0.00636198109060626,-0.0385912113222665
-0.537688442211055,0.121540331342496,0.167388430006966,0.107344461485504,0.0141958698569921,-0.0458480986644705
-0.527638190954774,0.125627327695051,0.178616274186214,0.104088153670152,0.0215391740248989,-0.0529889464911632
-0.517587939698492,0.129913458825691,0.18990008853591,0.101621829621537,0.0282916292041535,-0.0599866297102191
-0.507537688442211,0.134411083882617,0.201224569268224,0.100047620664722,0.0343634632178952,-0.066813485385607
-0.49748743718593,0.139133459346651,0.212574706898938,0.0994576031583334,0.039675856188318,-0.0734412475522868
-0.487437185929648,0.144094809079199,0.223935786247445,0.0999334906472623,0.0441613184319369,-0.0798409771682457
-0.477386934673367,0.149310399432936,0.235293386436751,0.101546408440015,0.0477639909929218,-0.0859829870038141
-0.467336683417085,0.154796619577369,0.246633380893472,0.10435674607279,0.0504398735045788,-0.0918367613161033
-0.457286432160804,0.160571067121877,0.25794193734784,0.108414083213123,0.0521569839087539,-0.0973708702259635
-0.447236180904523,0.166652639020983,0.269205517833697,0.113757184646666,0.0528954543743164,-0.102552878812714
-0.437185929648241,0.173061627612247,0.280410878688495,0.120414060081481,0.0526475675307657,-0.107349251076248
-0.42713567839196,0.179819821456141,0.291545070553303,0.128402084594929,0.0514177368612118,-0.111725249097162
-0.417085427135678,0.186950610406655,0.302595438372797,0.137728175639032,0.0492224347676222,-0.115644827966143
-0.407035175879397,0.194479094025321,0.313549621395269,0.148389022610941,0.0460900714143797,-0.119070527369948
-0.396984924623116,0.202432192039913,0.324395553172621,0.160371365085869,0.0420608269540435,-0.121963361132708
-0.386934673366834,0.210838755017942,0.335121461560369,0.173652315900657,0.037186439117285,-0.124282706542426
-0.376884422110553,0.219729672744221,0.345715868717638,0.188199725366853,0.031529947377368,-0.125986195973417
-0.366834170854271,0.229137976924768,0.356167591107168,0.203972582982979,0.0251653939417898,-0.1270296141824
-0.35678391959799,0.239098933742287,0.36646573949531,0.220921453106385,0.0181774806359017,-0.127366805753024
-0.346733668341709,0.249650120409012,0.376599718952028,0.238988941135888,0.010661179273124,-0.126949598543016
-0.336683417085427,0.260831478139449,0.386559228850897,0.258110186847107,0.00272129129234167,-0.125727750711448
-0.326633165829146,0.272685331827634,0.396334262869105,0.278213381613204,-0.00552804978556981,-0.123648931041471
-0.316582914572864,0.285256364081656,0.405915108987451,0.299220306334473,-0.0139639422528164,-0.120658744905795
-0.306532663316583,0.298591528056339,0.415292349490346,0.321046886990993,-0.0224553589346544,-0.116700821434008
-0.296482412060302,0.31273987964557,0.424456860965816,0.343603764823312,-0.0308638851777419,-0.111716981320246
-0.28643216080402,0.327752304967474,0.433399814305496,0.366796878236879,-0.0390445732694051,-0.105647509338022
-0.276381909547739,0.343681113637547,0.442112674704635,0.390528053616726,-0.0468469399791793,-0.0984315610670877
-0.266331658291457,0.360579462058165,0.450587201662092,0.414695602329635,-0.0541161402714703,-0.0900077396039269
-0.256281407035176,0.378500563913368,0.45881544898034,0.439194921281788,-0.0606943573684199,-0.0803148850669722
-0.246231155778894,0.397496637423966,0.466789764765464,0.463919094490671,-0.0664224570667055,-0.0692931273414983
-0.236180904522613,0.417617531056883,0.47450279142716,0.48875949322075,-0.0711419621638668,-0.0568852603702774
-0.226130653266332,0.438908961940017,0.481947465678739,0.513606372323183,-0.0746974103831661,-0.0430385037387213
-0.21608040201005,0.461410295248526,0.489117018537119,0.53834946051063,-0.0769391652621044,-0.027706723288593
-0.206030150753769,0.485151789870874,0.496004975322835,0.56287854238893,-0.0777267525180557,-0.0108531854519606
-0.195979899497487,0.510151237987272,0.502605155660032,0.587084030158217,-0.0769327921709445,0.00754608232724041
-0.185929648241206,0.536409936878606,0.508911673476467,0.610857522986779,-0.0744475861081729,0.0274982634021393
-0.175879396984925,0.563907954318913,0.51491893700351,0.634092352151739,-0.0701843978328258,0.0489890173154031
-0.165829145728643,0.592598689132972,0.520621648776142,0.656684110131366,-0.0640854209983934,0.0719770403568299
-0.155778894472362,0.622402791311728,0.526014805632958,0.678531161924635,-0.0561283706129073,0.0963879856787703
-0.14572864321608,0.653201596674694,0.531093698716162,0.699535136964361,-0.0463335402896672,0.122107897958532
-0.135678391959799,0.68483035312835,0.535853913471574,0.71960140008101,-0.0347710469526598,0.148976439656776
-0.125628140703518,0.717071669141346,0.540291329648623,0.738639500065072,-0.0215678309237253,0.176780339492723
-0.115577889447236,0.749649793662212,0.544402121300352,0.756563594466585,-0.00691380080437365,0.20524767236186
-0.105527638190955,0.782226523920515,0.548182756783415,0.773292849361235,0.00893367455928018,0.2340437671371
-0.0954773869346734,0.814399703862131,0.551629998758079,0.788751812903115,0.0256478909590164,0.262769705104053
-0.085427135678392,0.845705377354461,0.554740904188221,0.802870761575096,0.0428346157793649,0.29096447316624
-0.0753768844221105,0.875624640693406,0.557512824341334,0.815586018138431,0.0600386225549758,0.318111816352072
-0.0653266331658292,0.903596038881029,0.559943404788521,0.826840240374011,0.0767557985070189,0.343652634092509
-0.0552763819095477,0.929033922957819,0.562030585404495,0.836582679798465,0.092451243159354,0.367003337553324
-0.0452261306532663,0.951352520059578,0.563772600367585,0.844769409629014,0.106583110430564,0.387579919691993
-0.0351758793969849,0.969994611277127,0.56516797815973,0.851363521361777,0.118631089915351,0.404826633117398
-0.0251256281407035,0.984462785263262,0.566215541566481,0.856335289418984,0.128127495844279,0.418247243696782
-0.0150753768844221,0.994350424345905,0.566914407677001,0.859662303411297,0.134688120934608,0.427436016668903
-0.0050251256281407,0.999369101095241,0.567263987884068,0.8613295676522,0.13803953344304,0.432105113211173
0.0050251256281407,0.999369101095241,0.567263987884068,0.8613295676522,0.13803953344304,0.432105113211173
0.0150753768844221,0.994350424345905,0.566914407677002,0.859662303411297,0.134688120934608,0.427436016668903
0.0251256281407035,0.984462785263262,0.566215541566481,0.856335289418984,0.128127495844279,0.418247243696782
0.0351758793969849,0.969994611277127,0.56516797815973,0.851363521361777,0.118631089915351,0.404826633117398
0.0452261306532663,0.951352520059578,0.563772600367585,0.844769409629014,0.106583110430564,0.387579919691993
0.0552763819095477,0.929033922957819,0.562030585404495,0.836582679798465,0.092451243159354,0.367003337553324
0.0653266331658292,0.903596038881029,0.559943404788521,0.82684024037401,0.0767557985070192,0.343652634092509
0.0753768844221105,0.875624640693406,0.557512824341334,0.81558601813843,0.0600386225549761,0.318111816352072
0.085427135678392,0.845705377354461,0.554740904188221,0.802870761575096,0.0428346157793649,0.29096447316624
0.0954773869346734,0.814399703862131,0.551629998758078,0.788751812903115,0.0256478909590161,0.262769705104053
0.105527638190955,0.782226523920515,0.548182756783415,0.773292849361235,0.00893367455928018,0.2340437671371
0.115577889447236,0.749649793662212,0.544402121300352,0.756563594466585,-0.0069138008043732,0.20524767236186
0.125628140703518,0.717071669141346,0.540291329648623,0.738639500065072,-0.0215678309237252,0.176780339492723
0.135678391959799,0.68483035312835,0.535853913471574,0.71960140008101,-0.0347710469526599,0.148976439656776
0.14572864321608,0.653201596674694,0.531093698716162,0.699535136964362,-0.0463335402896675,0.122107897958532
0.155778894472362,0.622402791311728,0.526014805632958,0.678531161924635,-0.0561283706129072,0.0963879856787702
0.165829145728643,0.592598689132972,0.520621648776142,0.656684110131366,-0.0640854209983938,0.0719770403568299
0.175879396984925,0.563907954318913,0.51491893700351,0.634092352151739,-0.070184397832826,0.0489890173154032
0.185929648241206,0.536409936878606,0.508911673476467,0.61085752298678,-0.074447586108173,0.0274982634021395
0.195979899497487,0.510151237987272,0.502605155660032,0.587084030158217,-0.0769327921709445,0.00754608232724019
0.206030150753769,0.485151789870874,0.496004975322835,0.56287854238893,-0.0777267525180558,-0.0108531854519606
0.21608040201005,0.461410295248526,0.489117018537119,0.53834946051063,-0.0769391652621044,-0.0277067232885931
0.226130653266332,0.438908961940017,0.481947465678739,0.513606372323184,-0.0746974103831664,-0.0430385037387214
0.236180904522613,0.417617531056883,0.47450279142716,0.48875949322075,-0.0711419621638668,-0.0568852603702773
0.246231155778894,0.397496637423966,0.466789764765464,0.463919094490671,-0.0664224570667056,-0.0692931273414983
0.256281407035176,0.378500563913368,0.45881544898034,0.439194921281788,-0.06069435736842,-0.0803148850669722
0.266331658291457,0.360579462058165,0.450587201662092,0.414695602329635,-0.0541161402714703,-0.0900077396039269
0.276381909547739,0.343681113637547,0.442112674704635,0.390528053616726,-0.0468469399791794,-0.0984315610670876
0.28643216080402,0.327752304967474,0.433399814305496,0.366796878236879,-0.0390445732694052,-0.105647509338023
0.296482412060302,0.31273987964557,0.424456860965816,0.343603764823312,-0.0308638851777417,-0.111716981320246
0.306532663316583,0.298591528056339,0.415292349490347,0.321046886990993,-0.0224553589346545,-0.116700821434008
0.316582914572864,0.285256364081656,0.405915108987451,0.299220306334473,-0.0139639422528164,-0.120658744905795
0.326633165829146,0.272685331827634,0.396334262869105,0.278213381613204,-0.0055280497855697,-0.123648931041471
0.336683417085427,0.260831478139449,0.386559228850897,0.258110186847108,0.00272129129234161,-0.125727750711448
0.346733668341709,0.249650120409012,0.376599718952028,0.238988941135888,0.0106611792731239,-0.126949598543016
0.35678391959799,0.239098933742287,0.366465739495311,0.220921453106385,0.0181774806359018,-0.127366805753024
0.366834170854271,0.229137976924768,0.356167591107168,0.203972582982978,0.0251653939417898,-0.1270296141824
0.376884422110553,0.219729672744221,0.345715868717638,0.188199725366853,0.0315299473773679,-0.125986195973417
0.386934673366834,0.210838755017942,0.335121461560369,0.173652315900657,0.0371864391172851,-0.124282706542426
0.396984924623116,0.202432192039913,0.324395553172621,0.160371365085869,0.0420608269540435,-0.121963361132708
0.407035175879397,0.194479094025321,0.313549621395269,0.148389022610941,0.0460900714143798,-0.119070527369948
0.417085427135678,0.186950610406655,0.302595438372797,0.137728175639032,0.0492224347676223,-0.115644827966143
0.42713567839196,0.179819821456141,0.291545070553303,0.128402084594929,0.051417736861212,-0.111725249097162
0.437185929648241,0.173061627612247,0.280410878688495,0.120414060081481,0.0526475675307657,-0.107349251076248
0.447236180904523,0.166652639020983,0.269205517833697,0.113757184646666,0.0528954543743162,-0.102552878812714
0.457286432160804,0.160571067121877,0.25794193734784,0.108414083213123,0.0521569839087538,-0.0973708702259635
0.467336683417085,0.154796619577369,0.246633380893472,0.10435674607279,0.0504398735045787,-0.0918367613161032
0.477386934673367,0.149310399432936,0.23529338643675,0.101546408440015,0.0477639909929218,-0.085982987003814
0.487437185929648,0.144094809079199,0.223935786247445,0.0999334906472623,0.0441613184319369,-0.0798409771682457
0.49748743718593,0.139133459346651,0.212574706898938,0.0994576031583334,0.039675856188318,-0.0734412475522868
0.507537688442211,0.134411083882617,0.201224569268224,0.100047620664722,0.0343634632178952,-0.066813485385607
0.517587939698492,0.129913458825691,0.18990008853591,0.101621829621537,0.0282916292041534,-0.0599866297102191
0.527638190954774,0.125627327695051,0.178616274186214,0.104088153670152,0.0215391740248989,-0.0529889464911632
0.537688442211055,0.121540331342496,0.167388430006966,0.107344461485504,0.0141958698569921,-0.0458480986644706
0.547738693467337,0.117640942767344,0.156232154089611,0.111278961676738,0.0063619810906063,-0.0385912113222665
0.557788944723618,0.113918406563376,0.145163338829202,0.115770689460631,-0.00185228289725498,-0.0312449322658264
0.5678391959799,0.110362682748742,0.134198170924407,0.120690089917999,-0.010327407169257,-0.0238354881756655
0.577889447236181,0.106964394721062,0.123353131377506,0.125899702734055,-0.0189353080129928,-0.0163887366564435
0.587939698492462,0.103714781078292,0.112644995494389,0.13125495341443,-0.0275401723361379,-0.00893021441609677
0.597989949748744,0.100605651049473,0.10209083288456,0.136605056059335,-0.0359994050098617,-0.00148518183508708
0.608040201005025,0.097629343286673,0.0917080074611359,0.141794032869107,-0.044164689582434,0.00592133582553701
0.618090452261307,0.0947786877791234,0.0815141774408431,0.146661855645126,-0.0518831678660028,0.0132645103382803
0.628140703517588,0.0920469706619312,0.0715272953440219,0.151045714640863,-0.0589987439789321,0.0205196753179093
0.638190954773869,0.0894279017040553,0.0617656079946246,0.154781420208567,-0.0653535185045117,0.0276622937094307
0.648241206030151,0.0869155842730661,0.0522476565202151,0.157704942777859,-0.0707893585047927,0.034667927752851
0.658291457286432,0.0845044875871164,0.04299227635197,0.159654096793273,-0.0751496092061565,0.0415122112351464
0.668341708542714,0.0821894210773184,0.0340185972246776,0.160470374328518,-0.0782809532512,0.0481708238526408
0.678391959798995,0.0799655106961266,0.0253460431767385,0.160000934186019,-0.0800354234898923,0.0546194675193881
0.688442211055276,0.0778281770192561,0.0169943325501656,0.158100752381027,-0.0802725753617712,0.0608338444690905
0.698492462311558,0.0757731150000191,0.00898347799058351,0.154634940000384,-0.0788618250003654,0.0667896370094356
0.708542713567839,0.0737962752457019,0.00133378644722939,0.149481234516738,-0.0756849592710361,0.0724624887984725
0.718592964824121,0.0718938466956898,-0.00593414082704772,0.142532670729809,-0.0706388240341189,0.0778279875227375
0.728643216080402,0.0700622405904895,-0.0127994082757866,0.133700437597034,-0.0636381970065448,0.0828616488662761
0.738693467336683,0.0682980756295854,-0.0192408260389138,0.122916927306698,-0.0546188516771122,0.0875389016684992
0.748743718592965,0.0665981642242351,-0.0252369099527439,0.110138983037386,-0.0435408188131506,0.0918350741769789
0.758793969849246,0.0649594997588686,-0.0307658815499793,0.0953513519384017,-0.0303918521795332,0.0957253813088478
0.768844221105528,0.0633792447817472,-0.03580566805971,0.0785703499564991,-0.0151911051747518,0.0991849128414572
0.778894472361809,0.0618547200519816,-0.0403339024074144,0.0598477452250696,0.00200697482691203,0.102188622459396
0.78894472361809,0.0603833943759473,-0.0443279232149582,0.0392748668226763,0.021108527553271,0.104711317590905
0.798994974874372,0.0589628751715985,-0.0477647748005955,0.0169869457985771,0.0419759293730214,0.106727649972194
0.809045226130653,0.0575908997041997,-0.0506212071789678,-0.00683230454634708,0.0644232042505468,0.108212106883167
0.819095477386935,0.056265326941602,-0.0528736760611049,-0.0319458620441049,0.0882111889857069,0.109139003002707
0.829145728643216,0.0549841299814225,-0.0544983428544242,-0.05805831553961,0.113042445521032,0.109482472835847
0.839195979899497,0.0537453890063597,-0.0554710746627307,-0.0848105240055332,0.138555913011893,0.10921646366909
0.849246231155779,0.0525472847274377,-0.0557674442862182,-0.111774007540529,0.164321292267967,0.108314729013656
0.85929648241206,0.0513880922782258,-0.0553627302214672,-0.138445062808664,0.18983315508689,0.106750822499693
0.869346733668342,0.0502661755260679,-0.0542319166614471,-0.164238595387058,0.214504770913126,0.104498092187515
0.879396984924623,0.0491799817690934,-0.0523496934955143,-0.18848166139805,0.237661643167144,0.101529675264608
0.889447236180904,0.0481280367902813,-0.0496904563094135,-0.21040671071139,0.258534747501671,0.0978184930996948
0.899497487437186,0.0471089402421529,-0.0462283063852775,-0.229144523911239,0.276253464153392,0.0933372466274303
0.909547738693467,0.0461213613377652,-0.0419370507016266,-0.243716835131978,0.289838196469743,0.0880584120393918
0.919597989949749,0.0451640348256096,-0.0367902019333692,-0.253028632776075,0.298192667601685,0.0819542367589788
0.92964824120603,0.0442357572277838,-0.0307609784518012,-0.255860130036503,0.300095887264286,0.074996735679585
0.939698492462312,0.0433353833224268,-0.0238223043246067,-0.250858397055437,0.294193780377864,0.0671576876470335
0.949748743718593,0.0424618228528907,-0.0159468093158577,-0.236528646460206,0.278990469313097,0.0584086321687483
0.959798994974874,0.0416140374474846,-0.00710682888601384,-0.211225163926721,0.252839201374206,0.0487208663334985
0.969849246231156,0.0407910377348773,0.002725595808077,-0.17314187532982,0.213932913064698,0.0380654419268003
0.979899497487437,0.0399918806413889,0.0135787179131796,-0.120302541949238,0.160294422590627,0.0264131627282093
0.989949748743719,0.0392156668574586,0.0254810848796705,-0.0505505751091539,0.0897662419666125,0.0137345819777881
1,0.0384615384615385,0.0384615384615385,0.0384615384615385,0,0
