%!PS-Adobe-3.0 EPSF-3.0
%%Creator: (MATLAB, The Mathworks, Inc. Version 9.8.0.1359463 \(R2020a\) Update 1. Operating System: Windows 10)
%%Title: (C:/Users/simon/OneDrive/Desktop/ECES II/ECES II Hausarbeit/eces-ii/vieleMesswerte.eps)
%%CreationDate: 2020-07-04T10:50:44
%%Pages: (atend)
%%BoundingBox:     0     0   420   315
%%LanguageLevel: 3
%%EndComments
%%BeginProlog
%%BeginResource: procset (Apache XML Graphics Std ProcSet) 1.2 0
%%Version: 1.2 0
%%Copyright: (Copyright 2001-2003,2010 The Apache Software Foundation. License terms: http://www.apache.org/licenses/LICENSE-2.0)
/bd{bind def}bind def
/ld{load def}bd
/GR/grestore ld
/GS/gsave ld
/RM/rmoveto ld
/C/curveto ld
/t/show ld
/L/lineto ld
/ML/setmiterlimit ld
/CT/concat ld
/f/fill ld
/N/newpath ld
/S/stroke ld
/CC/setcmykcolor ld
/A/ashow ld
/cp/closepath ld
/RC/setrgbcolor ld
/LJ/setlinejoin ld
/GC/setgray ld
/LW/setlinewidth ld
/M/moveto ld
/re {4 2 roll M
1 index 0 rlineto
0 exch rlineto
neg 0 rlineto
cp } bd
/_ctm matrix def
/_tm matrix def
/BT { _ctm currentmatrix pop matrix _tm copy pop 0 0 moveto } bd
/ET { _ctm setmatrix } bd
/iTm { _ctm setmatrix _tm concat } bd
/Tm { _tm astore pop iTm 0 0 moveto } bd
/ux 0.0 def
/uy 0.0 def
/F {
  /Tp exch def
  /Tf exch def
  Tf findfont Tp scalefont setfont
  /cf Tf def  /cs Tp def
} bd
/ULS {currentpoint /uy exch def /ux exch def} bd
/ULE {
  /Tcx currentpoint pop def
  gsave
  newpath
  cf findfont cs scalefont dup
  /FontMatrix get 0 get /Ts exch def /FontInfo get dup
  /UnderlinePosition get Ts mul /To exch def
  /UnderlineThickness get Ts mul /Tt exch def
  ux uy To add moveto  Tcx uy To add lineto
  Tt setlinewidth stroke
  grestore
} bd
/OLE {
  /Tcx currentpoint pop def
  gsave
  newpath
  cf findfont cs scalefont dup
  /FontMatrix get 0 get /Ts exch def /FontInfo get dup
  /UnderlinePosition get Ts mul /To exch def
  /UnderlineThickness get Ts mul /Tt exch def
  ux uy To add cs add moveto Tcx uy To add cs add lineto
  Tt setlinewidth stroke
  grestore
} bd
/SOE {
  /Tcx currentpoint pop def
  gsave
  newpath
  cf findfont cs scalefont dup
  /FontMatrix get 0 get /Ts exch def /FontInfo get dup
  /UnderlinePosition get Ts mul /To exch def
  /UnderlineThickness get Ts mul /Tt exch def
  ux uy To add cs 10 mul 26 idiv add moveto Tcx uy To add cs 10 mul 26 idiv add lineto
  Tt setlinewidth stroke
  grestore
} bd
/QT {
/Y22 exch store
/X22 exch store
/Y21 exch store
/X21 exch store
currentpoint
/Y21 load 2 mul add 3 div exch
/X21 load 2 mul add 3 div exch
/X21 load 2 mul /X22 load add 3 div
/Y21 load 2 mul /Y22 load add 3 div
/X22 load /Y22 load curveto
} bd
/SSPD {
dup length /d exch dict def
{
/v exch def
/k exch def
currentpagedevice k known {
/cpdv currentpagedevice k get def
v cpdv ne {
/upd false def
/nullv v type /nulltype eq def
/nullcpdv cpdv type /nulltype eq def
nullv nullcpdv or
{
/upd true def
} {
/sametype v type cpdv type eq def
sametype {
v type /arraytype eq {
/vlen v length def
/cpdvlen cpdv length def
vlen cpdvlen eq {
0 1 vlen 1 sub {
/i exch def
/obj v i get def
/cpdobj cpdv i get def
obj cpdobj ne {
/upd true def
exit
} if
} for
} {
/upd true def
} ifelse
} {
v type /dicttype eq {
v {
/dv exch def
/dk exch def
/cpddv cpdv dk get def
dv cpddv ne {
/upd true def
exit
} if
} forall
} {
/upd true def
} ifelse
} ifelse
} if
} ifelse
upd true eq {
d k v put
} if
} if
} if
} forall
d length 0 gt {
d setpagedevice
} if
} bd
/RE { % /NewFontName [NewEncodingArray] /FontName RE -
  findfont dup length dict begin
  {
    1 index /FID ne
    {def} {pop pop} ifelse
  } forall
  /Encoding exch def
  /FontName 1 index def
  currentdict definefont pop
  end
} bind def
%%EndResource
%%BeginResource: procset (Apache XML Graphics EPS ProcSet) 1.0 0
%%Version: 1.0 0
%%Copyright: (Copyright 2002-2003 The Apache Software Foundation. License terms: http://www.apache.org/licenses/LICENSE-2.0)
/BeginEPSF { %def
/b4_Inc_state save def         % Save state for cleanup
/dict_count countdictstack def % Count objects on dict stack
/op_count count 1 sub def      % Count objects on operand stack
userdict begin                 % Push userdict on dict stack
/showpage { } def              % Redefine showpage, { } = null proc
0 setgray 0 setlinecap         % Prepare graphics state
1 setlinewidth 0 setlinejoin
10 setmiterlimit [ ] 0 setdash newpath
/languagelevel where           % If level not equal to 1 then
{pop languagelevel             % set strokeadjust and
1 ne                           % overprint to their defaults.
{false setstrokeadjust false setoverprint
} if
} if
} bd
/EndEPSF { %def
count op_count sub {pop} repeat            % Clean up stacks
countdictstack dict_count sub {end} repeat
b4_Inc_state restore
} bd
%%EndResource
%FOPBeginFontDict
%%IncludeResource: font Courier-Oblique
%%IncludeResource: font Courier-BoldOblique
%%IncludeResource: font Courier-Bold
%%IncludeResource: font ZapfDingbats
%%IncludeResource: font Symbol
%%IncludeResource: font Helvetica
%%IncludeResource: font Helvetica-Oblique
%%IncludeResource: font Helvetica-Bold
%%IncludeResource: font Helvetica-BoldOblique
%%IncludeResource: font Times-Roman
%%IncludeResource: font Times-Italic
%%IncludeResource: font Times-Bold
%%IncludeResource: font Times-BoldItalic
%%IncludeResource: font Courier
%FOPEndFontDict
%%BeginResource: encoding WinAnsiEncoding
/WinAnsiEncoding [
/.notdef /.notdef /.notdef /.notdef /.notdef
/.notdef /.notdef /.notdef /.notdef /.notdef
/.notdef /.notdef /.notdef /.notdef /.notdef
/.notdef /.notdef /.notdef /.notdef /.notdef
/.notdef /.notdef /.notdef /.notdef /.notdef
/.notdef /.notdef /.notdef /.notdef /.notdef
/.notdef /.notdef /space /exclam /quotedbl
/numbersign /dollar /percent /ampersand /quotesingle
/parenleft /parenright /asterisk /plus /comma
/hyphen /period /slash /zero /one
/two /three /four /five /six
/seven /eight /nine /colon /semicolon
/less /equal /greater /question /at
/A /B /C /D /E
/F /G /H /I /J
/K /L /M /N /O
/P /Q /R /S /T
/U /V /W /X /Y
/Z /bracketleft /backslash /bracketright /asciicircum
/underscore /quoteleft /a /b /c
/d /e /f /g /h
/i /j /k /l /m
/n /o /p /q /r
/s /t /u /v /w
/x /y /z /braceleft /bar
/braceright /asciitilde /bullet /Euro /bullet
/quotesinglbase /florin /quotedblbase /ellipsis /dagger
/daggerdbl /circumflex /perthousand /Scaron /guilsinglleft
/OE /bullet /Zcaron /bullet /bullet
/quoteleft /quoteright /quotedblleft /quotedblright /bullet
/endash /emdash /asciitilde /trademark /scaron
/guilsinglright /oe /bullet /zcaron /Ydieresis
/space /exclamdown /cent /sterling /currency
/yen /brokenbar /section /dieresis /copyright
/ordfeminine /guillemotleft /logicalnot /sfthyphen /registered
/macron /degree /plusminus /twosuperior /threesuperior
/acute /mu /paragraph /middot /cedilla
/onesuperior /ordmasculine /guillemotright /onequarter /onehalf
/threequarters /questiondown /Agrave /Aacute /Acircumflex
/Atilde /Adieresis /Aring /AE /Ccedilla
/Egrave /Eacute /Ecircumflex /Edieresis /Igrave
/Iacute /Icircumflex /Idieresis /Eth /Ntilde
/Ograve /Oacute /Ocircumflex /Otilde /Odieresis
/multiply /Oslash /Ugrave /Uacute /Ucircumflex
/Udieresis /Yacute /Thorn /germandbls /agrave
/aacute /acircumflex /atilde /adieresis /aring
/ae /ccedilla /egrave /eacute /ecircumflex
/edieresis /igrave /iacute /icircumflex /idieresis
/eth /ntilde /ograve /oacute /ocircumflex
/otilde /odieresis /divide /oslash /ugrave
/uacute /ucircumflex /udieresis /yacute /thorn
/ydieresis
] def
%%EndResource
%FOPBeginFontReencode
/Courier-Oblique findfont
dup length dict begin
  {1 index /FID ne {def} {pop pop} ifelse} forall
  /Encoding WinAnsiEncoding def
  currentdict
end
/Courier-Oblique exch definefont pop
/Courier-BoldOblique findfont
dup length dict begin
  {1 index /FID ne {def} {pop pop} ifelse} forall
  /Encoding WinAnsiEncoding def
  currentdict
end
/Courier-BoldOblique exch definefont pop
/Courier-Bold findfont
dup length dict begin
  {1 index /FID ne {def} {pop pop} ifelse} forall
  /Encoding WinAnsiEncoding def
  currentdict
end
/Courier-Bold exch definefont pop
/Helvetica findfont
dup length dict begin
  {1 index /FID ne {def} {pop pop} ifelse} forall
  /Encoding WinAnsiEncoding def
  currentdict
end
/Helvetica exch definefont pop
/Helvetica-Oblique findfont
dup length dict begin
  {1 index /FID ne {def} {pop pop} ifelse} forall
  /Encoding WinAnsiEncoding def
  currentdict
end
/Helvetica-Oblique exch definefont pop
/Helvetica-Bold findfont
dup length dict begin
  {1 index /FID ne {def} {pop pop} ifelse} forall
  /Encoding WinAnsiEncoding def
  currentdict
end
/Helvetica-Bold exch definefont pop
/Helvetica-BoldOblique findfont
dup length dict begin
  {1 index /FID ne {def} {pop pop} ifelse} forall
  /Encoding WinAnsiEncoding def
  currentdict
end
/Helvetica-BoldOblique exch definefont pop
/Times-Roman findfont
dup length dict begin
  {1 index /FID ne {def} {pop pop} ifelse} forall
  /Encoding WinAnsiEncoding def
  currentdict
end
/Times-Roman exch definefont pop
/Times-Italic findfont
dup length dict begin
  {1 index /FID ne {def} {pop pop} ifelse} forall
  /Encoding WinAnsiEncoding def
  currentdict
end
/Times-Italic exch definefont pop
/Times-Bold findfont
dup length dict begin
  {1 index /FID ne {def} {pop pop} ifelse} forall
  /Encoding WinAnsiEncoding def
  currentdict
end
/Times-Bold exch definefont pop
/Times-BoldItalic findfont
dup length dict begin
  {1 index /FID ne {def} {pop pop} ifelse} forall
  /Encoding WinAnsiEncoding def
  currentdict
end
/Times-BoldItalic exch definefont pop
/Courier findfont
dup length dict begin
  {1 index /FID ne {def} {pop pop} ifelse} forall
  /Encoding WinAnsiEncoding def
  currentdict
end
/Courier exch definefont pop
%FOPEndFontReencode
%%EndProlog
%%Page: 1 1
%%PageBoundingBox: 0 0 420 315
%%BeginPageSetup
[1 0 0 -1 0 315] CT
%%EndPageSetup
GS
[0.75 0 0 0.75 0 0] CT
1 GC
N
0 0 560 420 re
f
GR
GS
[0.75 0 0 0.75 0 0] CT
1 GC
N
0 0 560 420 re
f
GR
GS
[0.75 0 0 0.75 0 0] CT
1 GC
N
73 374 M
507 374 L
507 31 L
73 31 L
cp
f
GR
GS
[0.75 0 0 0.75 0 0] CT
0.873 GC
1 LJ
0.667 LW
N
73 374 M
73 31 L
S
GR
GS
[0.75 0 0 0.75 0 0] CT
0.873 GC
1 LJ
0.667 LW
N
116.4 374 M
116.4 31 L
S
GR
GS
[0.75 0 0 0.75 0 0] CT
0.873 GC
1 LJ
0.667 LW
N
159.8 374 M
159.8 31 L
S
GR
GS
[0.75 0 0 0.75 0 0] CT
0.873 GC
1 LJ
0.667 LW
N
203.2 374 M
203.2 31 L
S
GR
GS
[0.75 0 0 0.75 0 0] CT
0.873 GC
1 LJ
0.667 LW
N
246.6 374 M
246.6 31 L
S
GR
GS
[0.75 0 0 0.75 0 0] CT
0.873 GC
1 LJ
0.667 LW
N
290 374 M
290 31 L
S
GR
GS
[0.75 0 0 0.75 0 0] CT
0.873 GC
1 LJ
0.667 LW
N
333.4 374 M
333.4 31 L
S
GR
GS
[0.75 0 0 0.75 0 0] CT
0.873 GC
1 LJ
0.667 LW
N
376.8 374 M
376.8 31 L
S
GR
GS
[0.75 0 0 0.75 0 0] CT
0.873 GC
1 LJ
0.667 LW
N
420.2 374 M
420.2 31 L
S
GR
GS
[0.75 0 0 0.75 0 0] CT
0.873 GC
1 LJ
0.667 LW
N
463.6 374 M
463.6 31 L
S
GR
GS
[0.75 0 0 0.75 0 0] CT
0.873 GC
1 LJ
0.667 LW
N
507 374 M
507 31 L
S
GR
GS
[0.75 0 0 0.75 0 0] CT
0.873 GC
1 LJ
0.667 LW
N
507 374 M
73 374 L
S
GR
GS
[0.75 0 0 0.75 0 0] CT
0.873 GC
1 LJ
0.667 LW
N
507 331.125 M
73 331.125 L
S
GR
GS
[0.75 0 0 0.75 0 0] CT
0.873 GC
1 LJ
0.667 LW
N
507 288.25 M
73 288.25 L
S
GR
GS
[0.75 0 0 0.75 0 0] CT
0.873 GC
1 LJ
0.667 LW
N
507 245.375 M
73 245.375 L
S
GR
GS
[0.75 0 0 0.75 0 0] CT
0.873 GC
1 LJ
0.667 LW
N
507 202.5 M
73 202.5 L
S
GR
GS
[0.75 0 0 0.75 0 0] CT
0.873 GC
1 LJ
0.667 LW
N
507 159.625 M
73 159.625 L
S
GR
GS
[0.75 0 0 0.75 0 0] CT
0.873 GC
1 LJ
0.667 LW
N
507 116.75 M
73 116.75 L
S
GR
GS
[0.75 0 0 0.75 0 0] CT
0.873 GC
1 LJ
0.667 LW
N
507 73.875 M
73 73.875 L
S
GR
GS
[0.75 0 0 0.75 0 0] CT
0.873 GC
1 LJ
0.667 LW
N
507 31 M
73 31 L
S
GR
GS
[0.75 0 0 0.75 0 0] CT
0.149 GC
2 setlinecap
1 LJ
0.667 LW
N
73 374 M
507 374 L
S
GR
GS
[0.75 0 0 0.75 0 0] CT
0.149 GC
2 setlinecap
1 LJ
0.667 LW
N
73 374 M
73 369.66 L
S
GR
GS
[0.75 0 0 0.75 0 0] CT
0.149 GC
2 setlinecap
1 LJ
0.667 LW
N
116.4 374 M
116.4 369.66 L
S
GR
GS
[0.75 0 0 0.75 0 0] CT
0.149 GC
2 setlinecap
1 LJ
0.667 LW
N
159.8 374 M
159.8 369.66 L
S
GR
GS
[0.75 0 0 0.75 0 0] CT
0.149 GC
2 setlinecap
1 LJ
0.667 LW
N
203.2 374 M
203.2 369.66 L
S
GR
GS
[0.75 0 0 0.75 0 0] CT
0.149 GC
2 setlinecap
1 LJ
0.667 LW
N
246.6 374 M
246.6 369.66 L
S
GR
GS
[0.75 0 0 0.75 0 0] CT
0.149 GC
2 setlinecap
1 LJ
0.667 LW
N
290 374 M
290 369.66 L
S
GR
GS
[0.75 0 0 0.75 0 0] CT
0.149 GC
2 setlinecap
1 LJ
0.667 LW
N
333.4 374 M
333.4 369.66 L
S
GR
GS
[0.75 0 0 0.75 0 0] CT
0.149 GC
2 setlinecap
1 LJ
0.667 LW
N
376.8 374 M
376.8 369.66 L
S
GR
GS
[0.75 0 0 0.75 0 0] CT
0.149 GC
2 setlinecap
1 LJ
0.667 LW
N
420.2 374 M
420.2 369.66 L
S
GR
GS
[0.75 0 0 0.75 0 0] CT
0.149 GC
2 setlinecap
1 LJ
0.667 LW
N
463.6 374 M
463.6 369.66 L
S
GR
GS
[0.75 0 0 0.75 0 0] CT
0.149 GC
2 setlinecap
1 LJ
0.667 LW
N
507 374 M
507 369.66 L
S
GR
GS
[0.75 0 0 0.75 54.75 284.50001] CT
0.149 GC
/Helvetica 13.333 F
GS
[1 0 0 1 0 0] CT
-4 14 moveto 
1 -1 scale
(0) t 
GR
GR
GS
[0.75 0 0 0.75 87.3 284.50001] CT
0.149 GC
/Helvetica 13.333 F
GS
[1 0 0 1 0 0] CT
-7.5 14 moveto 
1 -1 scale
(10) t 
GR
GR
GS
[0.75 0 0 0.75 119.85 284.50001] CT
0.149 GC
/Helvetica 13.333 F
GS
[1 0 0 1 0 0] CT
-7.5 14 moveto 
1 -1 scale
(20) t 
GR
GR
GS
[0.75 0 0 0.75 152.4 284.50001] CT
0.149 GC
/Helvetica 13.333 F
GS
[1 0 0 1 0 0] CT
-7.5 14 moveto 
1 -1 scale
(30) t 
GR
GR
GS
[0.75 0 0 0.75 184.95 284.50001] CT
0.149 GC
/Helvetica 13.333 F
GS
[1 0 0 1 0 0] CT
-7.5 14 moveto 
1 -1 scale
(40) t 
GR
GR
GS
[0.75 0 0 0.75 217.5 284.50001] CT
0.149 GC
/Helvetica 13.333 F
GS
[1 0 0 1 0 0] CT
-7.5 14 moveto 
1 -1 scale
(50) t 
GR
GR
GS
[0.75 0 0 0.75 250.05 284.50001] CT
0.149 GC
/Helvetica 13.333 F
GS
[1 0 0 1 0 0] CT
-7.5 14 moveto 
1 -1 scale
(60) t 
GR
GR
GS
[0.75 0 0 0.75 282.59999 284.50001] CT
0.149 GC
/Helvetica 13.333 F
GS
[1 0 0 1 0 0] CT
-7.5 14 moveto 
1 -1 scale
(70) t 
GR
GR
GS
[0.75 0 0 0.75 315.15001 284.50001] CT
0.149 GC
/Helvetica 13.333 F
GS
[1 0 0 1 0 0] CT
-7.5 14 moveto 
1 -1 scale
(80) t 
GR
GR
GS
[0.75 0 0 0.75 347.7 284.50001] CT
0.149 GC
/Helvetica 13.333 F
GS
[1 0 0 1 0 0] CT
-7.5 14 moveto 
1 -1 scale
(90) t 
GR
GR
GS
[0.75 0 0 0.75 380.25 284.50001] CT
0.149 GC
/Helvetica 13.333 F
GS
[1 0 0 1 0 0] CT
-11.5 14 moveto 
1 -1 scale
(100) t 
GR
GR
GS
[0.75 0 0 0.75 217.50016 298.24999] CT
0.149 GC
/Helvetica 14.667 F
GS
[1 0 0 1 0 0] CT
-4 15 moveto 
1 -1 scale
(x) t 
GR
GR
GS
[0.75 0 0 0.75 0 0] CT
0.149 GC
2 setlinecap
1 LJ
0.667 LW
N
73 374 M
73 31 L
S
GR
GS
[0.75 0 0 0.75 0 0] CT
0.149 GC
2 setlinecap
1 LJ
0.667 LW
N
73 374 M
77.34 374 L
S
GR
GS
[0.75 0 0 0.75 0 0] CT
0.149 GC
2 setlinecap
1 LJ
0.667 LW
N
73 331.125 M
77.34 331.125 L
S
GR
GS
[0.75 0 0 0.75 0 0] CT
0.149 GC
2 setlinecap
1 LJ
0.667 LW
N
73 288.25 M
77.34 288.25 L
S
GR
GS
[0.75 0 0 0.75 0 0] CT
0.149 GC
2 setlinecap
1 LJ
0.667 LW
N
73 245.375 M
77.34 245.375 L
S
GR
GS
[0.75 0 0 0.75 0 0] CT
0.149 GC
2 setlinecap
1 LJ
0.667 LW
N
73 202.5 M
77.34 202.5 L
S
GR
GS
[0.75 0 0 0.75 0 0] CT
0.149 GC
2 setlinecap
1 LJ
0.667 LW
N
73 159.625 M
77.34 159.625 L
S
GR
GS
[0.75 0 0 0.75 0 0] CT
0.149 GC
2 setlinecap
1 LJ
0.667 LW
N
73 116.75 M
77.34 116.75 L
S
GR
GS
[0.75 0 0 0.75 0 0] CT
0.149 GC
2 setlinecap
1 LJ
0.667 LW
N
73 73.875 M
77.34 73.875 L
S
GR
GS
[0.75 0 0 0.75 0 0] CT
0.149 GC
2 setlinecap
1 LJ
0.667 LW
N
73 31 M
77.34 31 L
S
GR
GS
[0.75 0 0 0.75 50.75 280.5] CT
0.149 GC
/Helvetica 13.333 F
GS
[1 0 0 1 0 0] CT
-20 5.5 moveto 
1 -1 scale
(-10) t 
GR
GR
GS
[0.75 0 0 0.75 50.75 248.34375] CT
0.149 GC
/Helvetica 13.333 F
GS
[1 0 0 1 0 0] CT
-12 5.5 moveto 
1 -1 scale
(-5) t 
GR
GR
GS
[0.75 0 0 0.75 50.75 216.1875] CT
0.149 GC
/Helvetica 13.333 F
GS
[1 0 0 1 0 0] CT
-8 5.5 moveto 
1 -1 scale
(0) t 
GR
GR
GS
[0.75 0 0 0.75 50.75 184.03125] CT
0.149 GC
/Helvetica 13.333 F
GS
[1 0 0 1 0 0] CT
-8 5.5 moveto 
1 -1 scale
(5) t 
GR
GR
GS
[0.75 0 0 0.75 50.75 151.875] CT
0.149 GC
/Helvetica 13.333 F
GS
[1 0 0 1 0 0] CT
-15 5.5 moveto 
1 -1 scale
(10) t 
GR
GR
GS
[0.75 0 0 0.75 50.75 119.71875] CT
0.149 GC
/Helvetica 13.333 F
GS
[1 0 0 1 0 0] CT
-15 5.5 moveto 
1 -1 scale
(15) t 
GR
GR
GS
[0.75 0 0 0.75 50.75 87.5625] CT
0.149 GC
/Helvetica 13.333 F
GS
[1 0 0 1 0 0] CT
-15 5.5 moveto 
1 -1 scale
(20) t 
GR
GR
GS
[0.75 0 0 0.75 50.75 55.40625] CT
0.149 GC
/Helvetica 13.333 F
GS
[1 0 0 1 0 0] CT
-15 5.5 moveto 
1 -1 scale
(25) t 
GR
GR
GS
[0.75 0 0 0.75 50.75 23.25] CT
0.149 GC
/Helvetica 13.333 F
GS
[1 0 0 1 0 0] CT
-15 5.5 moveto 
1 -1 scale
(30) t 
GR
GR
GS
[0 -0.75 0.75 0 32.75 151.87487] CT
0.149 GC
/Helvetica 14.667 F
GS
[1 0 0 1 0 0] CT
-4 -4 moveto 
1 -1 scale
(y) t 
GR
GR
GS
[0.75 0 0 0.75 58.005 152.23442] CT
1 0 0 RC
N
2.222 0 M
2.222 1.227 1.227 2.222 0 2.222 C
-1.227 2.222 -2.222 1.227 -2.222 0 C
-2.222 -1.227 -1.227 -2.222 0 -2.222 C
1.227 -2.222 2.222 -1.227 2.222 0 C
cp
f
GR
GS
[0.75 0 0 0.75 61.26 152.67968] CT
1 0 0 RC
N
/f-1759579234{2.222 0 M
2.222 1.227 1.227 2.222 0 2.222 C
-1.227 2.222 -2.222 1.227 -2.222 0 C
-2.222 -1.227 -1.227 -2.222 0 -2.222 C
1.227 -2.222 2.222 -1.227 2.222 0 C
cp}def
f-1759579234
f
GR
GS
[0.75 0 0 0.75 64.515 154.66871] CT
1 0 0 RC
N
f-1759579234
f
GR
GS
[0.75 0 0 0.75 67.77 154.8755] CT
1 0 0 RC
N
f-1759579234
f
GR
GS
[0.75 0 0 0.75 71.025 155.77094] CT
1 0 0 RC
N
f-1759579234
f
GR
GS
[0.75 0 0 0.75 74.28 157.92924] CT
1 0 0 RC
N
f-1759579234
f
GR
GS
[0.75 0 0 0.75 77.535 158.46954] CT
1 0 0 RC
N
f-1759579234
f
GR
GS
[0.75 0 0 0.75 80.79 159.60187] CT
1 0 0 RC
N
f-1759579234
f
GR
GS
[0.75 0 0 0.75 84.045 161.68671] CT
1 0 0 RC
N
f-1759579234
f
GR
GS
[0.75 0 0 0.75 87.3 162.57235] CT
1 0 0 RC
N
f-1759579234
f
GR
GS
[0.75 0 0 0.75 90.555 162.31078] CT
1 0 0 RC
N
f-1759579234
f
GR
GS
[0.75 0 0 0.75 93.81 162.56438] CT
1 0 0 RC
N
f-1759579234
f
GR
GS
[0.75 0 0 0.75 97.065 163.42352] CT
1 0 0 RC
N
f-1759579234
f
GR
GS
[0.75 0 0 0.75 100.32 164.94517] CT
1 0 0 RC
N
f-1759579234
f
GR
GS
[0.75 0 0 0.75 103.575 165.99149] CT
1 0 0 RC
N
f-1759579234
f
GR
GS
[0.75 0 0 0.75 106.83 167.54791] CT
1 0 0 RC
N
f-1759579234
f
GR
GS
[0.75 0 0 0.75 110.085 168.55344] CT
1 0 0 RC
N
f-1759579234
f
GR
GS
[0.75 0 0 0.75 113.34 170.07515] CT
1 0 0 RC
N
f-1759579234
f
GR
GS
[0.75 0 0 0.75 116.59501 169.67262] CT
1 0 0 RC
N
f-1759579234
f
GR
GS
[0.75 0 0 0.75 119.85 23.25] CT
1 0 0 RC
N
f-1759579234
f
GR
GS
[0.75 0 0 0.75 123.105 172.44596] CT
1 0 0 RC
N
f-1759579234
f
GR
GS
[0.75 0 0 0.75 126.36 173.2644] CT
1 0 0 RC
N
f-1759579234
f
GR
GS
[0.75 0 0 0.75 129.61501 175.01715] CT
1 0 0 RC
N
f-1759579234
f
GR
GS
[0.75 0 0 0.75 132.87 175.54096] CT
1 0 0 RC
N
f-1759579234
f
GR
GS
[0.75 0 0 0.75 136.125 174.98503] CT
1 0 0 RC
N
f-1759579234
f
GR
GS
[0.75 0 0 0.75 139.38 175.76329] CT
1 0 0 RC
N
f-1759579234
f
GR
GS
[0.75 0 0 0.75 142.63499 178.07504] CT
1 0 0 RC
N
f-1759579234
f
GR
GS
[0.75 0 0 0.75 145.89 179.50349] CT
1 0 0 RC
N
f-1759579234
f
GR
GS
[0.75 0 0 0.75 149.145 179.90685] CT
1 0 0 RC
N
f-1759579234
f
GR
GS
[0.75 0 0 0.75 152.4 180.55625] CT
1 0 0 RC
N
f-1759579234
f
GR
GS
[0.75 0 0 0.75 155.65499 181.41355] CT
1 0 0 RC
N
f-1759579234
f
GR
GS
[0.75 0 0 0.75 158.91 182.67961] CT
1 0 0 RC
N
f-1759579234
f
GR
GS
[0.75 0 0 0.75 162.165 183.44972] CT
1 0 0 RC
N
f-1759579234
f
GR
GS
[0.75 0 0 0.75 165.42 184.48922] CT
1 0 0 RC
N
f-1759579234
f
GR
GS
[0.75 0 0 0.75 168.675 185.04625] CT
1 0 0 RC
N
f-1759579234
f
GR
GS
[0.75 0 0 0.75 171.93 187.00348] CT
1 0 0 RC
N
f-1759579234
f
GR
GS
[0.75 0 0 0.75 175.185 188.25703] CT
1 0 0 RC
N
f-1759579234
f
GR
GS
[0.75 0 0 0.75 178.44 188.44521] CT
1 0 0 RC
N
f-1759579234
f
GR
GS
[0.75 0 0 0.75 181.695 190.0148] CT
1 0 0 RC
N
f-1759579234
f
GR
GS
[0.75 0 0 0.75 184.95 190.50882] CT
1 0 0 RC
N
f-1759579234
f
GR
GS
[0.75 0 0 0.75 188.205 192.63105] CT
1 0 0 RC
N
f-1759579234
f
GR
GS
[0.75 0 0 0.75 191.46 191.54859] CT
1 0 0 RC
N
f-1759579234
f
GR
GS
[0.75 0 0 0.75 194.715 193.49734] CT
1 0 0 RC
N
f-1759579234
f
GR
GS
[0.75 0 0 0.75 197.96999 195.27775] CT
1 0 0 RC
N
f-1759579234
f
GR
GS
[0.75 0 0 0.75 201.22499 196.42332] CT
1 0 0 RC
N
f-1759579234
f
GR
GS
[0.75 0 0 0.75 204.48001 196.77393] CT
1 0 0 RC
N
f-1759579234
f
GR
GS
[0.75 0 0 0.75 207.73501 197.467] CT
1 0 0 RC
N
f-1759579234
f
GR
GS
[0.75 0 0 0.75 210.99001 197.70309] CT
1 0 0 RC
N
f-1759579234
f
GR
GS
[0.75 0 0 0.75 214.245 198.02822] CT
1 0 0 RC
N
f-1759579234
f
GR
GS
[0.75 0 0 0.75 217.5 201.20213] CT
1 0 0 RC
N
f-1759579234
f
GR
GS
[0.75 0 0 0.75 220.755 200.74844] CT
1 0 0 RC
N
f-1759579234
f
GR
GS
[0.75 0 0 0.75 224.00999 201.17196] CT
1 0 0 RC
N
f-1759579234
f
GR
GS
[0.75 0 0 0.75 227.26499 203.7439] CT
1 0 0 RC
N
f-1759579234
f
GR
GS
[0.75 0 0 0.75 230.51999 202.90123] CT
1 0 0 RC
N
f-1759579234
f
GR
GS
[0.75 0 0 0.75 233.77501 205.6141] CT
1 0 0 RC
N
f-1759579234
f
GR
GS
[0.75 0 0 0.75 237.03001 206.82168] CT
1 0 0 RC
N
f-1759579234
f
GR
GS
[0.75 0 0 0.75 240.285 207.78328] CT
1 0 0 RC
N
f-1759579234
f
GR
GS
[0.75 0 0 0.75 243.54 208.34436] CT
1 0 0 RC
N
f-1759579234
f
GR
GS
[0.75 0 0 0.75 246.795 208.59993] CT
1 0 0 RC
N
f-1759579234
f
GR
GS
[0.75 0 0 0.75 250.05 209.63349] CT
1 0 0 RC
N
f-1759579234
f
GR
GS
[0.75 0 0 0.75 253.30499 211.14519] CT
1 0 0 RC
N
f-1759579234
f
GR
GS
[0.75 0 0 0.75 256.55999 211.41653] CT
1 0 0 RC
N
f-1759579234
f
GR
GS
[0.75 0 0 0.75 259.81501 212.60637] CT
1 0 0 RC
N
f-1759579234
f
GR
GS
[0.75 0 0 0.75 263.07001 213.18658] CT
1 0 0 RC
N
f-1759579234
f
GR
GS
[0.75 0 0 0.75 266.325 213.32446] CT
1 0 0 RC
N
f-1759579234
f
GR
GS
[0.75 0 0 0.75 269.58 214.91975] CT
1 0 0 RC
N
f-1759579234
f
GR
GS
[0.75 0 0 0.75 272.835 215.93372] CT
1 0 0 RC
N
f-1759579234
f
GR
GS
[0.75 0 0 0.75 276.09 217.9796] CT
1 0 0 RC
N
f-1759579234
f
GR
GS
[0.75 0 0 0.75 279.34499 218.70339] CT
1 0 0 RC
N
f-1759579234
f
GR
GS
[0.75 0 0 0.75 282.59999 218.23984] CT
1 0 0 RC
N
f-1759579234
f
GR
GS
[0.75 0 0 0.75 285.85501 221.16364] CT
1 0 0 RC
N
f-1759579234
f
GR
GS
[0.75 0 0 0.75 289.11001 222.56071] CT
1 0 0 RC
N
f-1759579234
f
GR
GS
[0.75 0 0 0.75 292.36501 221.63351] CT
1 0 0 RC
N
f-1759579234
f
GR
GS
[0.75 0 0 0.75 295.62 222.50189] CT
1 0 0 RC
N
f-1759579234
f
GR
GS
[0.75 0 0 0.75 298.875 223.41996] CT
1 0 0 RC
N
f-1759579234
f
GR
GS
[0.75 0 0 0.75 302.13 224.85249] CT
1 0 0 RC
N
f-1759579234
f
GR
GS
[0.75 0 0 0.75 305.38499 225.87952] CT
1 0 0 RC
N
f-1759579234
f
GR
GS
[0.75 0 0 0.75 308.63999 228.21487] CT
1 0 0 RC
N
f-1759579234
f
GR
GS
[0.75 0 0 0.75 311.89499 227.51411] CT
1 0 0 RC
N
f-1759579234
f
GR
GS
[0.75 0 0 0.75 315.15001 230.09926] CT
1 0 0 RC
N
f-1759579234
f
GR
GS
[0.75 0 0 0.75 318.40501 231.08778] CT
1 0 0 RC
N
f-1759579234
f
GR
GS
[0.75 0 0 0.75 321.66 231.39262] CT
1 0 0 RC
N
f-1759579234
f
GR
GS
[0.75 0 0 0.75 324.915 232.80125] CT
1 0 0 RC
N
f-1759579234
f
GR
GS
[0.75 0 0 0.75 328.17 231.93109] CT
1 0 0 RC
N
f-1759579234
f
GR
GS
[0.75 0 0 0.75 331.425 234.20245] CT
1 0 0 RC
N
f-1759579234
f
GR
GS
[0.75 0 0 0.75 334.67999 235.42925] CT
1 0 0 RC
N
f-1759579234
f
GR
GS
[0.75 0 0 0.75 337.93499 234.73794] CT
1 0 0 RC
N
f-1759579234
f
GR
GS
[0.75 0 0 0.75 341.19001 236.92188] CT
1 0 0 RC
N
f-1759579234
f
GR
GS
[0.75 0 0 0.75 344.44501 238.16998] CT
1 0 0 RC
N
f-1759579234
f
GR
GS
[0.75 0 0 0.75 347.7 238.67558] CT
1 0 0 RC
N
f-1759579234
f
GR
GS
[0.75 0 0 0.75 350.955 240.40434] CT
1 0 0 RC
N
f-1759579234
f
GR
GS
[0.75 0 0 0.75 354.21 241.08208] CT
1 0 0 RC
N
f-1759579234
f
GR
GS
[0.75 0 0 0.75 357.465 240.74231] CT
1 0 0 RC
N
f-1759579234
f
GR
GS
[0.75 0 0 0.75 360.71999 241.81668] CT
1 0 0 RC
N
f-1759579234
f
GR
GS
[0.75 0 0 0.75 363.97499 243.9042] CT
1 0 0 RC
N
f-1759579234
f
GR
GS
[0.75 0 0 0.75 367.23001 244.71018] CT
1 0 0 RC
N
f-1759579234
f
GR
GS
[0.75 0 0 0.75 370.48501 244.35001] CT
1 0 0 RC
N
f-1759579234
f
GR
GS
[0.75 0 0 0.75 373.74001 246.97375] CT
1 0 0 RC
N
f-1759579234
f
GR
GS
[0.75 0 0 0.75 376.995 246.53146] CT
1 0 0 RC
N
f-1759579234
f
GR
GS
[0.75 0 0 0.75 380.25 247.87527] CT
1 0 0 RC
N
f-1759579234
f
GR
GS
[0.75 0 0 0.75 0 0] CT
0 0 1 RC
1 LJ
0.667 LW
N
73 196.799 M
77.384 198.173 L
81.768 199.546 L
86.152 200.92 L
90.535 202.293 L
94.919 203.667 L
99.303 205.04 L
103.687 206.414 L
108.071 207.787 L
112.455 209.161 L
116.838 210.535 L
121.222 211.908 L
125.606 213.282 L
129.99 214.655 L
134.374 216.029 L
138.758 217.402 L
143.141 218.776 L
147.525 220.149 L
151.909 221.523 L
156.293 222.896 L
160.677 224.27 L
165.061 225.643 L
169.444 227.017 L
173.828 228.39 L
178.212 229.764 L
182.596 231.137 L
186.98 232.511 L
191.364 233.884 L
195.747 235.258 L
200.131 236.631 L
204.515 238.005 L
208.899 239.378 L
213.283 240.752 L
217.667 242.126 L
222.051 243.499 L
226.434 244.873 L
230.818 246.246 L
235.202 247.62 L
239.586 248.993 L
243.97 250.367 L
248.354 251.74 L
252.737 253.114 L
257.121 254.487 L
261.505 255.861 L
265.889 257.234 L
270.273 258.608 L
274.657 259.981 L
279.04 261.355 L
283.424 262.728 L
287.808 264.102 L
292.192 265.475 L
296.576 266.849 L
300.96 268.222 L
305.343 269.596 L
309.727 270.969 L
314.111 272.343 L
318.495 273.717 L
322.879 275.09 L
327.263 276.464 L
331.646 277.837 L
336.03 279.211 L
340.414 280.584 L
344.798 281.958 L
349.182 283.331 L
353.566 284.705 L
357.949 286.078 L
362.333 287.452 L
366.717 288.825 L
371.101 290.199 L
375.485 291.572 L
379.869 292.946 L
384.253 294.319 L
388.636 295.693 L
393.02 297.066 L
397.404 298.44 L
401.788 299.813 L
406.172 301.187 L
410.556 302.561 L
414.939 303.934 L
419.323 305.308 L
423.707 306.681 L
428.091 308.055 L
432.475 309.428 L
436.859 310.802 L
441.242 312.175 L
445.626 313.549 L
450.01 314.922 L
454.394 316.296 L
458.778 317.669 L
463.162 319.043 L
467.545 320.416 L
471.929 321.79 L
476.313 323.163 L
480.697 324.537 L
485.081 325.91 L
489.465 327.284 L
493.848 328.657 L
498.232 330.031 L
502.616 331.404 L
507 332.778 L
S
GR
GS
[0.75 0 0 0.75 0 0] CT
1 GC
N
496 78 M
496 42 L
340 42 L
340 78 L
cp
f
GR
GS
[0.75 0 0 0.75 290.25 38.89726] CT
/Helvetica 12 F
GS
[1 0 0 1 0 0] CT
0 5 moveto 
1 -1 scale
(Messwerte) t 
GR
GR
GS
[0.75 0 0 0.75 273 38.89726] CT
1 0 0 RC
N
f-1759579234
f
GR
GS
[0.75 0 0 0.75 290.25 51.10274] CT
/Helvetica 12 F
GS
[1 0 0 1 0 0] CT
0 5 moveto 
1 -1 scale
(Regressionsgerade) t 
GR
GR
GS
[0.75 0 0 0.75 0 0] CT
0 0 1 RC
1 LJ
0.667 LW
N
344 68.137 M
384 68.137 L
S
GR
GS
[0.75 0 0 0.75 0 0] CT
0.149 GC
10.0 ML
0.667 LW
N
340 78 M
340 42 L
496 42 L
496 78 L
cp
S
GR
%%Trailer
%%Pages: 1
%%EOF
